sim/jtag_rom2.vcd
$date
	Fri Apr 17 19:31:35 2026
$end
$version
	Icarus Verilog
$end
$timescale
	1ps
$end
$scope module tb_jtag_rom2 $end
$var wire 11 ! sram_word_addr [10:0] $end
$var wire 1 " sram_wen $end
$var wire 1 # sram_ren $end
$var wire 1 $ sram_prechg $end
$var wire 1 % sram_en $end
$var wire 32 & sram_din [31:0] $end
$var wire 1 ' sram_den $end
$var wire 3 ( sram_col_addr [2:0] $end
$var wire 8 ) sram_addr [7:0] $end
$var wire 1 * rom_wlen $end
$var wire 8 + rom_wl_addr [7:0] $end
$var wire 1 , rom_saen $end
$var wire 1 - rom_preen $end
$var wire 2 . rom_pattern [1:0] $end
$var wire 4 / rom_col_in [3:0] $end
$var wire 1 0 jtag_tdo $end
$var wire 1 1 debug_resp_valid $end
$var wire 32 2 debug_pc [31:0] $end
$var parameter 32 3 TCK_HALF $end
$var reg 1 4 jtag_tck $end
$var reg 1 5 jtag_tdi $end
$var reg 1 6 jtag_tms $end
$var reg 1 7 pad_clk $end
$var reg 68 8 resp [67:0] $end
$var reg 32 9 rom_dout [31:0] $end
$var reg 1 : rst_n $end
$var reg 32 ; sram_dout [31:0] $end
$scope module u_dut $end
$var wire 1 < clk_core_gated $end
$var wire 32 = debug_pc [31:0] $end
$var wire 32 > debug_pc_internal [31:0] $end
$var wire 1 1 debug_resp_valid $end
$var wire 1 4 jtag_tck $end
$var wire 1 5 jtag_tdi $end
$var wire 1 6 jtag_tms $end
$var wire 1 7 pad_clk $end
$var wire 32 ? rom_dout [31:0] $end
$var wire 1 : rst_n $end
$var wire 32 @ sram_dout [31:0] $end
$var wire 1 " sram_wen $end
$var wire 1 # sram_ren $end
$var wire 1 $ sram_prechg $end
$var wire 1 % sram_en $end
$var wire 32 A sram_din [31:0] $end
$var wire 1 ' sram_den $end
$var wire 3 B sram_col_addr [2:0] $end
$var wire 1 C sram_bus_resp_valid $end
$var wire 32 D sram_bus_resp_rdata [31:0] $end
$var wire 4 E sram_bus_req_wmask [3:0] $end
$var wire 1 F sram_bus_req_wen $end
$var wire 32 G sram_bus_req_wdata [31:0] $end
$var wire 1 H sram_bus_req_valid $end
$var wire 1 I sram_bus_req_ready $end
$var wire 32 J sram_bus_req_addr [31:0] $end
$var wire 8 K sram_addr [7:0] $end
$var wire 1 * rom_wlen $end
$var wire 8 L rom_wl_addr [7:0] $end
$var wire 1 , rom_saen $end
$var wire 1 - rom_preen $end
$var wire 4 M rom_col_in [3:0] $end
$var wire 1 N rom_bus_resp_valid $end
$var wire 32 O rom_bus_resp_rdata [31:0] $end
$var wire 1 P rom_bus_req_wen $end
$var wire 1 Q rom_bus_req_valid $end
$var wire 1 R rom_bus_req_ready $end
$var wire 32 S rom_bus_req_addr [31:0] $end
$var wire 1 0 jtag_tdo $end
$var wire 1 T jtag_resp_valid $end
$var wire 32 U jtag_resp_rdata [31:0] $end
$var wire 4 V jtag_req_wmask [3:0] $end
$var wire 1 W jtag_req_wen $end
$var wire 32 X jtag_req_wdata [31:0] $end
$var wire 1 Y jtag_req_valid $end
$var wire 1 Z jtag_req_ready $end
$var wire 32 [ jtag_req_addr [31:0] $end
$var wire 1 \ core_rst_n $end
$var wire 1 ] core_resp_valid $end
$var wire 32 ^ core_resp_rdata [31:0] $end
$var wire 4 _ core_req_wmask [3:0] $end
$var wire 1 ` core_req_wen $end
$var wire 32 a core_req_wdata [31:0] $end
$var wire 1 b core_req_valid $end
$var wire 1 c core_req_ready $end
$var wire 32 d core_req_addr [31:0] $end
$var wire 1 e core_clk_en $end
$var wire 1 f clk_50 $end
$var wire 1 g clk_25 $end
$var reg 1 h clk_gate_latch $end
$scope module u_clk_div $end
$var wire 1 f clk_50 $end
$var wire 1 7 pad_clk $end
$var wire 1 : rst_n $end
$var wire 1 g clk_25 $end
$var reg 1 i div2_reg $end
$var reg 1 g div4_reg $end
$upscope $end
$scope module u_core $end
$var wire 4 j alu_op [3:0] $end
$var wire 1 < clk $end
$var wire 1 k is_mul_op $end
$var wire 1 \ rst_n $end
$var wire 32 l rs2_data [31:0] $end
$var wire 5 m rs2 [4:0] $end
$var wire 32 n rs1_data [31:0] $end
$var wire 5 o rs1 [4:0] $end
$var wire 1 ] resp_valid $end
$var wire 32 p resp_rdata [31:0] $end
$var wire 1 c req_ready $end
$var wire 5 q rd [4:0] $end
$var wire 7 r opcode [6:0] $end
$var wire 64 s mul_result_uu [63:0] $end
$var wire 64 t mul_result_su [63:0] $end
$var wire 64 u mul_result_ss [63:0] $end
$var wire 32 v imm_u [31:0] $end
$var wire 32 w imm_s [31:0] $end
$var wire 32 x imm_j [31:0] $end
$var wire 32 y imm_i [31:0] $end
$var wire 32 z imm_b [31:0] $end
$var wire 7 { funct7 [6:0] $end
$var wire 3 | funct3 [2:0] $end
$var wire 32 } dp_result [31:0] $end
$var wire 1 ~ dp_ready $end
$var wire 1 !" alu_zero $end
$var wire 32 "" alu_result_fast [31:0] $end
$var wire 32 #" alu_b [31:0] $end
$var wire 32 $" alu_a [31:0] $end
$var parameter 4 %" ALU_ADD $end
$var parameter 4 &" ALU_AND $end
$var parameter 4 '" ALU_MUL $end
$var parameter 4 (" ALU_MULH $end
$var parameter 4 )" ALU_MULHSU $end
$var parameter 4 *" ALU_MULHU $end
$var parameter 4 +" ALU_OR $end
$var parameter 4 ," ALU_SLL $end
$var parameter 4 -" ALU_SLT $end
$var parameter 4 ." ALU_SLTU $end
$var parameter 4 /" ALU_SRA $end
$var parameter 4 0" ALU_SRL $end
$var parameter 4 1" ALU_SUB $end
$var parameter 4 2" ALU_XOR $end
$var parameter 7 3" OP_ARITH $end
$var parameter 7 4" OP_ARITHI $end
$var parameter 7 5" OP_AUIPC $end
$var parameter 7 6" OP_BRANCH $end
$var parameter 7 7" OP_CUSTOM0 $end
$var parameter 7 8" OP_FENCE $end
$var parameter 7 9" OP_JAL $end
$var parameter 7 :" OP_JALR $end
$var parameter 7 ;" OP_LOAD $end
$var parameter 7 <" OP_LUI $end
$var parameter 7 =" OP_STORE $end
$var parameter 7 >" OP_SYSTEM $end
$var parameter 32 ?" RESET_VEC $end
$var parameter 3 @" S_EXECUTE $end
$var parameter 3 A" S_FETCH $end
$var parameter 3 B" S_FETCH_W $end
$var parameter 3 C" S_MEM $end
$var parameter 3 D" S_MEM_W $end
$var parameter 3 E" S_MUL_W $end
$var reg 1 F" branch_taken $end
$var reg 4 G" decoded_alu_op [3:0] $end
$var reg 1 H" dp_valid $end
$var reg 32 I" instr [31:0] $end
$var reg 32 J" mcycle [31:0] $end
$var reg 32 K" mem_addr_reg [31:0] $end
$var reg 32 L" mem_result [31:0] $end
$var reg 32 M" mul_raw_selected [31:0] $end
$var reg 32 N" mul_result_reg [31:0] $end
$var reg 32 O" pc [31:0] $end
$var reg 32 P" req_addr [31:0] $end
$var reg 1 b req_valid $end
$var reg 32 Q" req_wdata [31:0] $end
$var reg 1 ` req_wen $end
$var reg 4 R" req_wmask [3:0] $end
$var reg 5 S" rf_wr_addr [4:0] $end
$var reg 32 T" rf_wr_data [31:0] $end
$var reg 1 U" rf_wr_en $end
$var reg 3 V" state [2:0] $end
$var reg 32 W" store_data [31:0] $end
$var reg 4 X" store_mask [3:0] $end
$scope module u_alu $end
$var wire 32 Y" a [31:0] $end
$var wire 32 Z" a_signed [31:0] $end
$var wire 32 [" b [31:0] $end
$var wire 32 \" b_signed [31:0] $end
$var wire 4 ]" op [3:0] $end
$var wire 1 !" zero $end
$var wire 5 ^" shamt [4:0] $end
$var wire 64 _" mul_result_uu [63:0] $end
$var wire 64 `" mul_result_su [63:0] $end
$var wire 64 a" mul_result_ss [63:0] $end
$var parameter 4 b" ALU_ADD $end
$var parameter 4 c" ALU_AND $end
$var parameter 4 d" ALU_OR $end
$var parameter 4 e" ALU_SLL $end
$var parameter 4 f" ALU_SLT $end
$var parameter 4 g" ALU_SLTU $end
$var parameter 4 h" ALU_SRA $end
$var parameter 4 i" ALU_SRL $end
$var parameter 4 j" ALU_SUB $end
$var parameter 4 k" ALU_XOR $end
$var reg 32 l" result_fast [31:0] $end
$upscope $end
$scope module u_dp $end
$var wire 1 < clk $end
$var wire 7 m" funct7 [6:0] $end
$var wire 1 ~ ready $end
$var wire 32 n" result [31:0] $end
$var wire 1 H" valid $end
$var wire 1 \ rst_n $end
$var wire 32 o" rs2_data [31:0] $end
$var wire 32 p" rs1_data [31:0] $end
$var wire 32 q" dot_sum [31:0] $end
$var wire 8 r" b3 [7:0] $end
$var wire 8 s" b2 [7:0] $end
$var wire 8 t" b1 [7:0] $end
$var wire 8 u" b0 [7:0] $end
$var wire 8 v" a3 [7:0] $end
$var wire 8 w" a2 [7:0] $end
$var wire 8 x" a1 [7:0] $end
$var wire 8 y" a0 [7:0] $end
$var parameter 7 z" ACC_READ $end
$var parameter 7 {" ACC_RST $end
$var parameter 7 |" DOTPROD $end
$var reg 32 }" acc [31:0] $end
$upscope $end
$scope module u_rf $end
$var wire 1 < clk $end
$var wire 5 ~" rs1_addr [4:0] $end
$var wire 5 !# rs2_addr [4:0] $end
$var wire 5 "# wr_addr [4:0] $end
$var wire 32 ## wr_data [31:0] $end
$var wire 1 U" wr_en $end
$var wire 1 \ rst_n $end
$var wire 32 $# rs2_data [31:0] $end
$var wire 32 %# rs1_data [31:0] $end
$upscope $end
$upscope $end
$scope module u_jtag $end
$var wire 1 g clk $end
$var wire 1 e core_clk_en $end
$var wire 1 \ core_rst_n $end
$var wire 32 &# debug_pc [31:0] $end
$var wire 1 4 jtag_tck $end
$var wire 1 5 jtag_tdi $end
$var wire 1 0 jtag_tdo $end
$var wire 1 6 jtag_tms $end
$var wire 1 : rst_n $end
$var wire 1 '# trigger $end
$var wire 1 T resp_valid $end
$var wire 32 (# resp_rdata [31:0] $end
$var wire 1 Z req_ready $end
$var wire 2 )# cur_core_state [1:0] $end
$var parameter 2 *# BUS_DONE $end
$var parameter 2 +# BUS_IDLE $end
$var parameter 2 ,# BUS_REQUEST $end
$var parameter 2 -# BUS_WAIT $end
$var parameter 4 .# CTRL_HALT $end
$var parameter 4 /# CTRL_RELEASE $end
$var parameter 4 0# CTRL_RESET $end
$var parameter 4 1# CTRL_STEP $end
$var parameter 32 2# IDCODE_VAL $end
$var parameter 3 3# IR_BYPASS $end
$var parameter 3 4# IR_DATA $end
$var parameter 3 5# IR_IDCODE $end
$var parameter 4 6# TAP_CAP_DR $end
$var parameter 4 7# TAP_CAP_IR $end
$var parameter 4 8# TAP_EXIT1_DR $end
$var parameter 4 9# TAP_EXIT1_IR $end
$var parameter 4 :# TAP_EXIT2_DR $end
$var parameter 4 ;# TAP_EXIT2_IR $end
$var parameter 4 <# TAP_PAUSE_DR $end
$var parameter 4 =# TAP_PAUSE_IR $end
$var parameter 4 ># TAP_RTI $end
$var parameter 4 ?# TAP_SEL_DR $end
$var parameter 4 @# TAP_SEL_IR $end
$var parameter 4 A# TAP_SHIFT_DR $end
$var parameter 4 B# TAP_SHIFT_IR $end
$var parameter 4 C# TAP_TLR $end
$var parameter 4 D# TAP_UPDATE_DR $end
$var parameter 4 E# TAP_UPDATE_IR $end
$var reg 32 F# addr_reg [31:0] $end
$var reg 2 G# bus_state [1:0] $end
$var reg 2 H# bus_status [1:0] $end
$var reg 1 I# bypass_reg $end
$var reg 2 J# cmd_reg [1:0] $end
$var reg 1 K# core_halted $end
$var reg 1 L# core_in_reset $end
$var reg 68 M# data_shift [67:0] $end
$var reg 32 N# idcode_shift [31:0] $end
$var reg 3 O# ir_reg [2:0] $end
$var reg 3 P# ir_shift [2:0] $end
$var reg 32 Q# last_rdata [31:0] $end
$var reg 32 R# req_addr [31:0] $end
$var reg 1 Y req_valid $end
$var reg 32 S# req_wdata [31:0] $end
$var reg 1 W req_wen $end
$var reg 4 T# req_wmask [3:0] $end
$var reg 1 U# step_active $end
$var reg 1 V# step_request $end
$var reg 1 W# sync1 $end
$var reg 1 X# sync2 $end
$var reg 1 Y# sync3 $end
$var reg 4 Z# tap_state [3:0] $end
$var reg 1 [# tdo_reg $end
$var reg 1 \# update_toggle $end
$var reg 32 ]# wdata_reg [31:0] $end
$upscope $end
$scope module u_rom $end
$var wire 1 g clk $end
$var wire 1 7 clk_fast $end
$var wire 32 ^# rom_dout [31:0] $end
$var wire 1 : rst_n $end
$var wire 8 _# wl_addr [7:0] $end
$var wire 1 Q req_valid $end
$var wire 32 `# req_addr [31:0] $end
$var wire 4 a# col_addr [3:0] $end
$var parameter 2 b# ACCESS $end
$var parameter 2 c# IDLE $end
$var parameter 2 d# RESPOND $end
$var reg 1 R req_ready $end
$var reg 32 e# resp_rdata [31:0] $end
$var reg 1 N resp_valid $end
$var reg 4 f# rom_col_in [3:0] $end
$var reg 1 - rom_preen $end
$var reg 1 , rom_saen $end
$var reg 8 g# rom_wl_addr [7:0] $end
$var reg 1 * rom_wlen $end
$var reg 2 h# state [1:0] $end
$upscope $end
$scope module u_sram $end
$var wire 1 g clk $end
$var wire 1 7 clk_fast $end
$var wire 1 : rst_n $end
$var wire 32 i# sram_dout [31:0] $end
$var wire 8 j# row_addr [7:0] $end
$var wire 4 k# req_wmask [3:0] $end
$var wire 1 F req_wen $end
$var wire 32 l# req_wdata [31:0] $end
$var wire 1 H req_valid $end
$var wire 32 m# req_addr [31:0] $end
$var wire 3 n# col_addr [2:0] $end
$var parameter 2 o# ACCESS $end
$var parameter 2 p# IDLE $end
$var parameter 2 q# RESPOND $end
$var reg 1 I req_ready $end
$var reg 32 r# resp_rdata [31:0] $end
$var reg 1 C resp_valid $end
$var reg 8 s# sram_addr [7:0] $end
$var reg 3 t# sram_col_addr [2:0] $end
$var reg 1 ' sram_den $end
$var reg 32 u# sram_din [31:0] $end
$var reg 1 % sram_en $end
$var reg 1 $ sram_prechg $end
$var reg 1 # sram_ren $end
$var reg 1 " sram_wen $end
$var reg 2 v# state [1:0] $end
$upscope $end
$scope module u_xbar $end
$var wire 1 g clk $end
$var wire 32 w# m0_req_addr [31:0] $end
$var wire 1 c m0_req_ready $end
$var wire 1 b m0_req_valid $end
$var wire 32 x# m0_req_wdata [31:0] $end
$var wire 1 ` m0_req_wen $end
$var wire 4 y# m0_req_wmask [3:0] $end
$var wire 1 ] m0_resp_valid $end
$var wire 1 z# m0_wants_s0 $end
$var wire 1 {# m0_wants_s1 $end
$var wire 32 |# m1_req_addr [31:0] $end
$var wire 1 Z m1_req_ready $end
$var wire 1 Y m1_req_valid $end
$var wire 32 }# m1_req_wdata [31:0] $end
$var wire 1 W m1_req_wen $end
$var wire 4 ~# m1_req_wmask [3:0] $end
$var wire 1 T m1_resp_valid $end
$var wire 1 !$ m1_wants_s0 $end
$var wire 1 "$ m1_wants_s1 $end
$var wire 1 : rst_n $end
$var wire 1 #$ s0_m0_grant $end
$var wire 1 $$ s0_m1_grant $end
$var wire 1 I s0_req_ready $end
$var wire 32 %$ s0_resp_rdata [31:0] $end
$var wire 1 C s0_resp_valid $end
$var wire 1 &$ s1_m0_grant $end
$var wire 1 '$ s1_m1_grant $end
$var wire 1 R s1_req_ready $end
$var wire 32 ($ s1_resp_rdata [31:0] $end
$var wire 1 N s1_resp_valid $end
$var wire 4 )$ s1_req_wmask [3:0] $end
$var wire 1 P s1_req_wen $end
$var wire 32 *$ s1_req_wdata [31:0] $end
$var wire 1 Q s1_req_valid $end
$var wire 32 +$ s1_req_addr [31:0] $end
$var wire 4 ,$ s0_req_wmask [3:0] $end
$var wire 1 F s0_req_wen $end
$var wire 32 -$ s0_req_wdata [31:0] $end
$var wire 1 H s0_req_valid $end
$var wire 32 .$ s0_req_addr [31:0] $end
$var wire 1 /$ m1_sel_sram $end
$var wire 1 0$ m1_sel_rom $end
$var wire 32 1$ m1_resp_rdata [31:0] $end
$var wire 1 2$ m0_sel_sram $end
$var wire 1 3$ m0_sel_rom $end
$var wire 32 4$ m0_resp_rdata [31:0] $end
$var parameter 2 5$ IDLE $end
$var parameter 2 6$ M0_ACTIVE $end
$var parameter 2 7$ M1_ACTIVE $end
$var reg 2 8$ s0_owner [1:0] $end
$var reg 2 9$ s0_owner_next [1:0] $end
$var reg 2 :$ s1_owner [1:0] $end
$var reg 2 ;$ s1_owner_next [1:0] $end
$upscope $end
$upscope $end
$scope task goto_rti $end
$upscope $end
$scope task goto_shift_dr $end
$upscope $end
$scope task goto_shift_ir $end
$upscope $end
$scope task jtag_clock $end
$upscope $end
$scope task jtag_reset $end
$upscope $end
$scope task shift_dr_68 $end
$var reg 68 <$ din [67:0] $end
$var reg 68 =$ dout [67:0] $end
$var integer 32 >$ i [31:0] $end
$upscope $end
$scope task write_ir $end
$var reg 3 ?$ val [2:0] $end
$var integer 32 @$ i [31:0] $end
$upscope $end
$upscope $end
$enddefinitions $end
$comment Show the parameter values. $end
$dumpall
b10 7$
b1 6$
b0 5$
b10 q#
b0 p#
b1 o#
b10 d#
b0 c#
b1 b#
b1111 E#
b1000 D#
b0 C#
b1011 B#
b100 A#
b1001 @#
b10 ?#
b1 >#
b1101 =#
b110 <#
b1110 ;#
b111 :#
b1100 9#
b101 8#
b1010 7#
b11 6#
b1 5#
b10 4#
b0 3#
b11011110101011010000000000000001 2#
b100 1#
b1 0#
b10 /#
b1000 .#
b10 -#
b1 ,#
b0 +#
b11 *#
b0 |"
b1 {"
b10 z"
b100 k"
b1 j"
b110 i"
b111 h"
b1001 g"
b1000 f"
b101 e"
b11 d"
b10 c"
b0 b"
b101 E"
b100 D"
b11 C"
b1 B"
b0 A"
b10 @"
b1000000000000000000000000000 ?"
b1110011 >"
b100011 ="
b110111 <"
b11 ;"
b1100111 :"
b1101111 9"
b1111 8"
b1011 7"
b1100011 6"
b10111 5"
b10011 4"
b110011 3"
b100 2"
b1 1"
b110 0"
b111 /"
b1001 ."
b1000 -"
b101 ,"
b11 +"
b1101 *"
b1100 )"
b1011 ("
b1010 '"
b10 &"
b0 %"
b11001000 3
$end
#0
$dumpvars
bx @$
bx ?$
bx >$
bx =$
bx <$
b0 ;$
b0 :$
b0 9$
b0 8$
b0 4$
03$
02$
b0 1$
00$
0/$
b0 .$
b0 -$
b0 ,$
b0 +$
b0 *$
b0 )$
b0 ($
0'$
0&$
b0 %$
0$$
0#$
0"$
0!$
b0 ~#
b0 }#
b0 |#
0{#
0z#
b0 y#
b0 x#
b0 w#
b0 v#
b0 u#
b0 t#
b0 s#
b0 r#
b0 n#
b0 m#
b0 l#
b0 k#
b0 j#
b0 i#
b0 h#
b0 g#
b0 f#
b0 e#
b0 a#
b0 `#
b0 _#
b0 ^#
b0 ]#
0\#
0[#
b0 Z#
0Y#
0X#
0W#
0V#
0U#
b0 T#
b0 S#
b0 R#
b0 Q#
b0 P#
b1 O#
b11011110101011010000000000000001 N#
b0 M#
1L#
1K#
b0 J#
0I#
b0 H#
b0 G#
b0 F#
b0 )#
b0 (#
0'#
b0 &#
b0 %#
b0 $#
b0 ##
b0 "#
b0 !#
b0 ~"
b0 }"
b0 y"
b0 x"
b0 w"
b0 v"
b0 u"
b0 t"
b0 s"
b0 r"
b0 q"
b0 p"
b0 o"
b0 n"
b0 m"
b0 l"
b0 a"
b0 `"
b0 _"
b0 ^"
b0 ]"
b0 \"
b0 ["
b0 Z"
b0 Y"
b1 X"
b0 W"
b0 V"
0U"
b0 T"
b0 S"
b0 R"
b0 Q"
b0 P"
b1000000000000000000000000000 O"
b0 N"
b0 M"
b0 L"
b0 K"
b0 J"
b10011 I"
0H"
b0 G"
1F"
b0 $"
b0 #"
b0 ""
1!"
0~
b0 }
b0 |
b0 {
b0 z
b0 y
b0 x
b0 w
b0 v
b0 u
b0 t
b0 s
b10011 r
b0 q
b0 p
b0 o
b0 n
b0 m
b0 l
0k
b0 j
0i
0h
0g
0f
0e
b0 d
0c
0b
b0 a
0`
b0 _
b0 ^
0]
0\
b0 [
0Z
0Y
b0 X
0W
b0 V
b0 U
0T
b0 S
1R
0Q
0P
b0 O
0N
b0 M
b0 L
b0 K
b0 J
1I
0H
b0 G
0F
b0 E
b0 D
0C
b0 B
b0 A
b0 @
b0 ?
b0 >
b0 =
0<
b0 ;
0:
b0 9
bx 8
07
16
05
04
b0 2
01
00
b0 /
b0 .
1-
0,
b0 +
0*
b0 )
b0 (
0'
b0 &
0%
0$
0#
0"
b0 !
$end
#5000
17
#10000
07
#15000
17
#20000
07
#25000
17
#30000
07
#35000
17
#40000
07
#45000
17
#50000
07
#55000
17
#60000
07
#65000
17
#70000
07
#75000
17
#80000
07
#85000
17
#90000
07
#95000
17
#100000
07
#105000
17
#110000
07
#115000
17
#120000
07
#125000
17
#130000
07
#135000
17
#140000
07
#145000
17
#150000
07
#155000
17
#160000
07
#165000
17
#170000
07
#175000
17
#180000
07
#185000
17
#190000
07
#195000
17
#200000
07
#205000
17
#210000
07
#215000
17
#220000
07
#225000
17
#230000
07
#235000
17
#240000
07
#245000
17
#250000
07
#255000
17
#260000
07
#265000
17
#270000
07
#275000
17
#280000
07
#285000
17
#290000
07
#295000
17
#300000
07
#305000
17
#310000
07
#315000
17
#320000
07
#325000
17
#330000
07
#335000
17
#340000
07
#345000
17
#350000
07
#355000
17
#360000
07
#365000
17
#370000
07
#375000
17
#380000
07
#385000
17
#390000
07
#395000
17
#400000
07
#405000
17
#410000
07
#415000
17
#420000
07
#425000
17
#430000
07
#435000
17
#440000
07
#445000
17
#450000
07
#455000
17
#460000
07
#465000
17
#470000
07
#475000
17
#480000
07
#485000
17
#490000
07
#495000
17
#500000
07
1:
#505000
1g
1f
1i
17
#510000
07
#515000
0f
0i
17
#520000
07
#525000
0g
1f
1i
17
#530000
07
#535000
0f
0i
17
#540000
07
#545000
1g
1f
1i
17
#550000
07
#555000
0f
0i
17
#560000
07
#565000
0g
1f
1i
17
#570000
07
#575000
0f
0i
17
#580000
07
#585000
1g
1f
1i
17
#590000
07
#595000
0f
0i
17
#600000
07
#605000
0g
1f
1i
17
#610000
07
#615000
0f
0i
17
#620000
07
#625000
1g
1f
1i
17
#630000
07
#635000
0f
0i
17
#640000
07
#645000
0g
1f
1i
17
#650000
07
#655000
0f
0i
17
#660000
07
#665000
1g
1f
1i
17
#670000
07
#675000
0f
0i
17
#680000
07
#685000
0g
1f
1i
17
#690000
07
#695000
0f
0i
17
#700000
07
#705000
1g
1f
1i
17
#710000
07
#715000
0f
0i
17
#720000
07
#725000
0g
1f
1i
17
#730000
07
#735000
0f
0i
17
#740000
07
#745000
1g
1f
1i
17
#750000
07
#755000
0f
0i
17
#760000
07
#765000
0g
1f
1i
17
#770000
07
#775000
0f
0i
17
#780000
07
#785000
1g
1f
1i
17
#790000
07
#795000
0f
0i
17
#800000
07
#805000
0g
1f
1i
17
#810000
07
#815000
0f
0i
17
#820000
07
#825000
1g
1f
1i
17
#830000
07
#835000
0f
0i
17
#840000
07
#845000
0g
1f
1i
17
#850000
07
#855000
0f
0i
17
#860000
07
#865000
1g
1f
1i
17
#870000
07
#875000
0f
0i
17
#880000
07
#885000
0g
1f
1i
17
#890000
07
#895000
0f
0i
17
#900000
07
#905000
1g
1f
1i
17
#910000
07
#915000
0f
0i
17
#920000
07
#925000
0g
1f
1i
17
#930000
07
#935000
0f
0i
17
#940000
07
#945000
1g
1f
1i
17
#950000
07
#955000
0f
0i
17
#960000
07
#965000
0g
1f
1i
17
#970000
07
#975000
0f
0i
17
#980000
07
#985000
1g
1f
1i
17
#990000
07
#995000
0f
0i
17
#1000000
07
#1005000
0g
1f
1i
17
#1010000
07
#1015000
0f
0i
17
#1020000
07
#1025000
1g
1f
1i
17
#1030000
07
#1035000
0f
0i
17
#1040000
07
#1045000
0g
1f
1i
17
#1050000
07
#1055000
0f
0i
17
#1060000
07
#1065000
1g
1f
1i
17
#1070000
07
#1075000
0f
0i
17
#1080000
07
#1085000
0g
1f
1i
17
#1090000
07
#1095000
0f
0i
17
#1100000
07
#1105000
1g
1f
1i
17
#1110000
07
#1115000
0f
0i
17
#1120000
07
#1125000
0g
1f
1i
17
#1130000
07
#1135000
0f
0i
17
#1140000
07
#1145000
1g
1f
1i
17
#1150000
07
#1155000
0f
0i
17
#1160000
07
#1165000
0g
1f
1i
17
#1170000
07
#1175000
0f
0i
17
#1180000
07
#1185000
1g
1f
1i
17
#1190000
07
#1195000
0f
0i
17
#1200000
07
14
#1205000
0g
1f
1i
17
#1210000
07
#1215000
0f
0i
17
#1220000
07
#1225000
1g
1f
1i
17
#1230000
07
#1235000
0f
0i
17
#1240000
07
#1245000
0g
1f
1i
17
#1250000
07
#1255000
0f
0i
17
#1260000
07
#1265000
1g
1f
1i
17
#1270000
07
#1275000
0f
0i
17
#1280000
07
#1285000
0g
1f
1i
17
#1290000
07
#1295000
0f
0i
17
#1300000
07
#1305000
1g
1f
1i
17
#1310000
07
#1315000
0f
0i
17
#1320000
07
#1325000
0g
1f
1i
17
#1330000
07
#1335000
0f
0i
17
#1340000
07
#1345000
1g
1f
1i
17
#1350000
07
#1355000
0f
0i
17
#1360000
07
#1365000
0g
1f
1i
17
#1370000
07
#1375000
0f
0i
17
#1380000
07
#1385000
1g
1f
1i
17
#1390000
07
#1395000
0f
0i
17
#1400000
07
04
#1405000
0g
1f
1i
17
#1410000
07
#1415000
0f
0i
17
#1420000
07
#1425000
1g
1f
1i
17
#1430000
07
#1435000
0f
0i
17
#1440000
07
#1445000
0g
1f
1i
17
#1450000
07
#1455000
0f
0i
17
#1460000
07
#1465000
1g
1f
1i
17
#1470000
07
#1475000
0f
0i
17
#1480000
07
#1485000
0g
1f
1i
17
#1490000
07
#1495000
0f
0i
17
#1500000
07
#1505000
1g
1f
1i
17
#1510000
07
#1515000
0f
0i
17
#1520000
07
#1525000
0g
1f
1i
17
#1530000
07
#1535000
0f
0i
17
#1540000
07
#1545000
1g
1f
1i
17
#1550000
07
#1555000
0f
0i
17
#1560000
07
#1565000
0g
1f
1i
17
#1570000
07
#1575000
0f
0i
17
#1580000
07
#1585000
1g
1f
1i
17
#1590000
07
#1595000
0f
0i
17
#1600000
07
14
#1605000
0g
1f
1i
17
#1610000
07
#1615000
0f
0i
17
#1620000
07
#1625000
1g
1f
1i
17
#1630000
07
#1635000
0f
0i
17
#1640000
07
#1645000
0g
1f
1i
17
#1650000
07
#1655000
0f
0i
17
#1660000
07
#1665000
1g
1f
1i
17
#1670000
07
#1675000
0f
0i
17
#1680000
07
#1685000
0g
1f
1i
17
#1690000
07
#1695000
0f
0i
17
#1700000
07
#1705000
1g
1f
1i
17
#1710000
07
#1715000
0f
0i
17
#1720000
07
#1725000
0g
1f
1i
17
#1730000
07
#1735000
0f
0i
17
#1740000
07
#1745000
1g
1f
1i
17
#1750000
07
#1755000
0f
0i
17
#1760000
07
#1765000
0g
1f
1i
17
#1770000
07
#1775000
0f
0i
17
#1780000
07
#1785000
1g
1f
1i
17
#1790000
07
#1795000
0f
0i
17
#1800000
07
04
#1805000
0g
1f
1i
17
#1810000
07
#1815000
0f
0i
17
#1820000
07
#1825000
1g
1f
1i
17
#1830000
07
#1835000
0f
0i
17
#1840000
07
#1845000
0g
1f
1i
17
#1850000
07
#1855000
0f
0i
17
#1860000
07
#1865000
1g
1f
1i
17
#1870000
07
#1875000
0f
0i
17
#1880000
07
#1885000
0g
1f
1i
17
#1890000
07
#1895000
0f
0i
17
#1900000
07
#1905000
1g
1f
1i
17
#1910000
07
#1915000
0f
0i
17
#1920000
07
#1925000
0g
1f
1i
17
#1930000
07
#1935000
0f
0i
17
#1940000
07
#1945000
1g
1f
1i
17
#1950000
07
#1955000
0f
0i
17
#1960000
07
#1965000
0g
1f
1i
17
#1970000
07
#1975000
0f
0i
17
#1980000
07
#1985000
1g
1f
1i
17
#1990000
07
#1995000
0f
0i
17
#2000000
07
14
#2005000
0g
1f
1i
17
#2010000
07
#2015000
0f
0i
17
#2020000
07
#2025000
1g
1f
1i
17
#2030000
07
#2035000
0f
0i
17
#2040000
07
#2045000
0g
1f
1i
17
#2050000
07
#2055000
0f
0i
17
#2060000
07
#2065000
1g
1f
1i
17
#2070000
07
#2075000
0f
0i
17
#2080000
07
#2085000
0g
1f
1i
17
#2090000
07
#2095000
0f
0i
17
#2100000
07
#2105000
1g
1f
1i
17
#2110000
07
#2115000
0f
0i
17
#2120000
07
#2125000
0g
1f
1i
17
#2130000
07
#2135000
0f
0i
17
#2140000
07
#2145000
1g
1f
1i
17
#2150000
07
#2155000
0f
0i
17
#2160000
07
#2165000
0g
1f
1i
17
#2170000
07
#2175000
0f
0i
17
#2180000
07
#2185000
1g
1f
1i
17
#2190000
07
#2195000
0f
0i
17
#2200000
07
04
#2205000
0g
1f
1i
17
#2210000
07
#2215000
0f
0i
17
#2220000
07
#2225000
1g
1f
1i
17
#2230000
07
#2235000
0f
0i
17
#2240000
07
#2245000
0g
1f
1i
17
#2250000
07
#2255000
0f
0i
17
#2260000
07
#2265000
1g
1f
1i
17
#2270000
07
#2275000
0f
0i
17
#2280000
07
#2285000
0g
1f
1i
17
#2290000
07
#2295000
0f
0i
17
#2300000
07
#2305000
1g
1f
1i
17
#2310000
07
#2315000
0f
0i
17
#2320000
07
#2325000
0g
1f
1i
17
#2330000
07
#2335000
0f
0i
17
#2340000
07
#2345000
1g
1f
1i
17
#2350000
07
#2355000
0f
0i
17
#2360000
07
#2365000
0g
1f
1i
17
#2370000
07
#2375000
0f
0i
17
#2380000
07
#2385000
1g
1f
1i
17
#2390000
07
#2395000
0f
0i
17
#2400000
07
14
#2405000
0g
1f
1i
17
#2410000
07
#2415000
0f
0i
17
#2420000
07
#2425000
1g
1f
1i
17
#2430000
07
#2435000
0f
0i
17
#2440000
07
#2445000
0g
1f
1i
17
#2450000
07
#2455000
0f
0i
17
#2460000
07
#2465000
1g
1f
1i
17
#2470000
07
#2475000
0f
0i
17
