sim/mul_debug.vcd
$date
	Thu Apr 16 19:30:51 2026
$end
$version
	Icarus Verilog
$end
$timescale
	1ps
$end
$scope module tb_mul_debug $end
$var wire 1 ! jtag_tdo $end
$var wire 11 " sram_word_addr [10:0] $end
$var wire 1 # sram_wen $end
$var wire 1 $ sram_ren $end
$var wire 1 % sram_prechg $end
$var wire 1 & sram_en $end
$var wire 32 ' sram_din [31:0] $end
$var wire 1 ( sram_den $end
$var wire 3 ) sram_col_addr [2:0] $end
$var wire 8 * sram_addr [7:0] $end
$var wire 1 + rom_wlen $end
$var wire 8 , rom_wl_addr [7:0] $end
$var wire 1 - rom_saen $end
$var wire 1 . rom_preen $end
$var wire 2 / rom_pattern [1:0] $end
$var wire 4 0 rom_col_in [3:0] $end
$var wire 1 1 debug_resp_valid $end
$var wire 32 2 debug_pc [31:0] $end
$var reg 1 3 pad_clk $end
$var reg 32 4 rom_dout [31:0] $end
$var reg 1 5 rst_n $end
$var reg 32 6 sram_dout [31:0] $end
$var integer 32 7 cycle_count [31:0] $end
$scope module u_dut $end
$var wire 32 8 debug_pc [31:0] $end
$var wire 1 1 debug_resp_valid $end
$var wire 32 9 jtag_req_addr [31:0] $end
$var wire 1 : jtag_req_valid $end
$var wire 32 ; jtag_req_wdata [31:0] $end
$var wire 1 < jtag_req_wen $end
$var wire 4 = jtag_req_wmask [3:0] $end
$var wire 1 > jtag_tck $end
$var wire 1 ? jtag_tdi $end
$var wire 1 ! jtag_tdo $end
$var wire 1 @ jtag_tms $end
$var wire 1 3 pad_clk $end
$var wire 32 A rom_dout [31:0] $end
$var wire 1 5 rst_n $end
$var wire 32 B sram_dout [31:0] $end
$var wire 1 # sram_wen $end
$var wire 1 $ sram_ren $end
$var wire 1 % sram_prechg $end
$var wire 1 & sram_en $end
$var wire 32 C sram_din [31:0] $end
$var wire 1 ( sram_den $end
$var wire 3 D sram_col_addr [2:0] $end
$var wire 1 E sram_bus_resp_valid $end
$var wire 32 F sram_bus_resp_rdata [31:0] $end
$var wire 4 G sram_bus_req_wmask [3:0] $end
$var wire 1 H sram_bus_req_wen $end
$var wire 32 I sram_bus_req_wdata [31:0] $end
$var wire 1 J sram_bus_req_valid $end
$var wire 1 K sram_bus_req_ready $end
$var wire 32 L sram_bus_req_addr [31:0] $end
$var wire 8 M sram_addr [7:0] $end
$var wire 1 + rom_wlen $end
$var wire 8 N rom_wl_addr [7:0] $end
$var wire 1 - rom_saen $end
$var wire 1 . rom_preen $end
$var wire 4 O rom_col_in [3:0] $end
$var wire 1 P rom_bus_resp_valid $end
$var wire 32 Q rom_bus_resp_rdata [31:0] $end
$var wire 1 R rom_bus_req_wen $end
$var wire 1 S rom_bus_req_valid $end
$var wire 1 T rom_bus_req_ready $end
$var wire 32 U rom_bus_req_addr [31:0] $end
$var wire 1 V jtag_resp_valid $end
$var wire 32 W jtag_resp_rdata [31:0] $end
$var wire 1 X jtag_req_ready $end
$var wire 1 Y core_rst_n $end
$var wire 1 Z core_resp_valid $end
$var wire 32 [ core_resp_rdata [31:0] $end
$var wire 4 \ core_req_wmask [3:0] $end
$var wire 1 ] core_req_wen $end
$var wire 32 ^ core_req_wdata [31:0] $end
$var wire 1 _ core_req_valid $end
$var wire 1 ` core_req_ready $end
$var wire 32 a core_req_addr [31:0] $end
$var wire 1 b clk_50 $end
$var wire 1 c clk_100 $end
$scope module u_clk_div $end
$var wire 1 c clk_100 $end
$var wire 1 3 clk_200 $end
$var wire 1 b clk_50 $end
$var wire 1 5 rst_n $end
$var reg 1 d div2_reg $end
$var reg 1 e div4_reg $end
$upscope $end
$scope module u_core $end
$var wire 4 f alu_op [3:0] $end
$var wire 1 b clk $end
$var wire 1 g is_mul_op $end
$var wire 1 Y rst_n $end
$var wire 32 h rs2_data [31:0] $end
$var wire 5 i rs2 [4:0] $end
$var wire 32 j rs1_data [31:0] $end
$var wire 5 k rs1 [4:0] $end
$var wire 1 Z resp_valid $end
$var wire 32 l resp_rdata [31:0] $end
$var wire 1 ` req_ready $end
$var wire 5 m rd [4:0] $end
$var wire 7 n opcode [6:0] $end
$var wire 64 o mul_result_uu [63:0] $end
$var wire 64 p mul_result_su [63:0] $end
$var wire 64 q mul_result_ss [63:0] $end
$var wire 32 r imm_u [31:0] $end
$var wire 32 s imm_s [31:0] $end
$var wire 32 t imm_j [31:0] $end
$var wire 32 u imm_i [31:0] $end
$var wire 32 v imm_b [31:0] $end
$var wire 7 w funct7 [6:0] $end
$var wire 3 x funct3 [2:0] $end
$var wire 32 y dp_result [31:0] $end
$var wire 1 z dp_ready $end
$var wire 1 { alu_zero $end
$var wire 32 | alu_result_fast [31:0] $end
$var wire 32 } alu_b [31:0] $end
$var wire 32 ~ alu_a [31:0] $end
$var parameter 4 !" ALU_ADD $end
$var parameter 4 "" ALU_AND $end
$var parameter 4 #" ALU_MUL $end
$var parameter 4 $" ALU_MULH $end
$var parameter 4 %" ALU_MULHSU $end
$var parameter 4 &" ALU_MULHU $end
$var parameter 4 '" ALU_OR $end
$var parameter 4 (" ALU_SLL $end
$var parameter 4 )" ALU_SLT $end
$var parameter 4 *" ALU_SLTU $end
$var parameter 4 +" ALU_SRA $end
$var parameter 4 ," ALU_SRL $end
$var parameter 4 -" ALU_SUB $end
$var parameter 4 ." ALU_XOR $end
$var parameter 7 /" OP_ARITH $end
$var parameter 7 0" OP_ARITHI $end
$var parameter 7 1" OP_AUIPC $end
$var parameter 7 2" OP_BRANCH $end
$var parameter 7 3" OP_CUSTOM0 $end
$var parameter 7 4" OP_FENCE $end
$var parameter 7 5" OP_JAL $end
$var parameter 7 6" OP_JALR $end
$var parameter 7 7" OP_LOAD $end
$var parameter 7 8" OP_LUI $end
$var parameter 7 9" OP_STORE $end
$var parameter 7 :" OP_SYSTEM $end
$var parameter 32 ;" RESET_VEC $end
$var parameter 3 <" S_EXECUTE $end
$var parameter 3 =" S_FETCH $end
$var parameter 3 >" S_FETCH_W $end
$var parameter 3 ?" S_MEM $end
$var parameter 3 @" S_MEM_W $end
$var parameter 3 A" S_MUL_W $end
$var reg 1 B" branch_taken $end
$var reg 4 C" decoded_alu_op [3:0] $end
$var reg 1 D" dp_valid $end
$var reg 32 E" instr [31:0] $end
$var reg 32 F" mcycle [31:0] $end
$var reg 32 G" mem_addr_reg [31:0] $end
$var reg 32 H" mem_result [31:0] $end
$var reg 32 I" mul_raw_selected [31:0] $end
$var reg 32 J" mul_result_reg [31:0] $end
$var reg 32 K" pc [31:0] $end
$var reg 32 L" req_addr [31:0] $end
$var reg 1 _ req_valid $end
$var reg 32 M" req_wdata [31:0] $end
$var reg 1 ] req_wen $end
$var reg 4 N" req_wmask [3:0] $end
$var reg 5 O" rf_wr_addr [4:0] $end
$var reg 32 P" rf_wr_data [31:0] $end
$var reg 1 Q" rf_wr_en $end
$var reg 3 R" state [2:0] $end
$var reg 32 S" store_data [31:0] $end
$var reg 4 T" store_mask [3:0] $end
$scope module u_alu $end
$var wire 32 U" a [31:0] $end
$var wire 32 V" a_signed [31:0] $end
$var wire 32 W" b [31:0] $end
$var wire 32 X" b_signed [31:0] $end
$var wire 4 Y" op [3:0] $end
$var wire 1 { zero $end
$var wire 5 Z" shamt [4:0] $end
$var wire 64 [" mul_result_uu [63:0] $end
$var wire 64 \" mul_result_su [63:0] $end
$var wire 64 ]" mul_result_ss [63:0] $end
$var parameter 4 ^" ALU_ADD $end
$var parameter 4 _" ALU_AND $end
$var parameter 4 `" ALU_OR $end
$var parameter 4 a" ALU_SLL $end
$var parameter 4 b" ALU_SLT $end
$var parameter 4 c" ALU_SLTU $end
$var parameter 4 d" ALU_SRA $end
$var parameter 4 e" ALU_SRL $end
$var parameter 4 f" ALU_SUB $end
$var parameter 4 g" ALU_XOR $end
$var reg 32 h" result_fast [31:0] $end
$upscope $end
$scope module u_dp $end
$var wire 1 b clk $end
$var wire 7 i" funct7 [6:0] $end
$var wire 1 z ready $end
$var wire 32 j" result [31:0] $end
$var wire 1 D" valid $end
$var wire 1 Y rst_n $end
$var wire 32 k" rs2_data [31:0] $end
$var wire 32 l" rs1_data [31:0] $end
$var wire 32 m" dot_sum [31:0] $end
$var wire 8 n" b3 [7:0] $end
$var wire 8 o" b2 [7:0] $end
$var wire 8 p" b1 [7:0] $end
$var wire 8 q" b0 [7:0] $end
$var wire 8 r" a3 [7:0] $end
$var wire 8 s" a2 [7:0] $end
$var wire 8 t" a1 [7:0] $end
$var wire 8 u" a0 [7:0] $end
$var parameter 7 v" ACC_READ $end
$var parameter 7 w" ACC_RST $end
$var parameter 7 x" DOTPROD $end
$var reg 32 y" acc [31:0] $end
$upscope $end
$scope module u_rf $end
$var wire 1 b clk $end
$var wire 5 z" rs1_addr [4:0] $end
$var wire 5 {" rs2_addr [4:0] $end
$var wire 5 |" wr_addr [4:0] $end
$var wire 32 }" wr_data [31:0] $end
$var wire 1 Q" wr_en $end
$var wire 1 Y rst_n $end
$var wire 32 ~" rs2_data [31:0] $end
$var wire 32 !# rs1_data [31:0] $end
$upscope $end
$upscope $end
$scope module u_jtag $end
$var wire 1 b clk $end
$var wire 1 Y core_rst_n $end
$var wire 1 > jtag_tck $end
$var wire 1 ? jtag_tdi $end
$var wire 1 ! jtag_tdo $end
$var wire 1 @ jtag_tms $end
$var wire 32 "# req_addr [31:0] $end
$var wire 1 : req_valid $end
$var wire 32 ## req_wdata [31:0] $end
$var wire 1 < req_wen $end
$var wire 4 $# req_wmask [3:0] $end
$var wire 1 5 rst_n $end
$var wire 1 V resp_valid $end
$var wire 32 %# resp_rdata [31:0] $end
$var wire 1 X req_ready $end
$upscope $end
$scope module u_rom $end
$var wire 1 b clk $end
$var wire 1 3 clk_fast $end
$var wire 32 &# rom_dout [31:0] $end
$var wire 1 5 rst_n $end
$var wire 8 '# wl_addr [7:0] $end
$var wire 1 S req_valid $end
$var wire 32 (# req_addr [31:0] $end
$var wire 4 )# col_addr [3:0] $end
$var parameter 2 *# ACCESS $end
$var parameter 2 +# IDLE $end
$var parameter 2 ,# RESPOND $end
$var reg 1 T req_ready $end
$var reg 32 -# resp_rdata [31:0] $end
$var reg 1 P resp_valid $end
$var reg 4 .# rom_col_in [3:0] $end
$var reg 1 . rom_preen $end
$var reg 1 - rom_saen $end
$var reg 8 /# rom_wl_addr [7:0] $end
$var reg 1 + rom_wlen $end
$var reg 2 0# state [1:0] $end
$upscope $end
$scope module u_sram $end
$var wire 1 b clk $end
$var wire 1 3 clk_fast $end
$var wire 1 5 rst_n $end
$var wire 32 1# sram_dout [31:0] $end
$var wire 8 2# row_addr [7:0] $end
$var wire 4 3# req_wmask [3:0] $end
$var wire 1 H req_wen $end
$var wire 32 4# req_wdata [31:0] $end
$var wire 1 J req_valid $end
$var wire 32 5# req_addr [31:0] $end
$var wire 3 6# col_addr [2:0] $end
$var parameter 2 7# ACCESS $end
$var parameter 2 8# IDLE $end
$var parameter 2 9# RESPOND $end
$var reg 1 K req_ready $end
$var reg 32 :# resp_rdata [31:0] $end
$var reg 1 E resp_valid $end
$var reg 8 ;# sram_addr [7:0] $end
$var reg 3 <# sram_col_addr [2:0] $end
$var reg 1 ( sram_den $end
$var reg 32 =# sram_din [31:0] $end
$var reg 1 & sram_en $end
$var reg 1 % sram_prechg $end
$var reg 1 $ sram_ren $end
$var reg 1 # sram_wen $end
$var reg 2 ># state [1:0] $end
$upscope $end
$scope module u_xbar $end
$var wire 1 b clk $end
$var wire 32 ?# m0_req_addr [31:0] $end
$var wire 1 ` m0_req_ready $end
$var wire 1 _ m0_req_valid $end
$var wire 32 @# m0_req_wdata [31:0] $end
$var wire 1 ] m0_req_wen $end
$var wire 4 A# m0_req_wmask [3:0] $end
$var wire 1 Z m0_resp_valid $end
$var wire 1 B# m0_wants_s0 $end
$var wire 1 C# m0_wants_s1 $end
$var wire 32 D# m1_req_addr [31:0] $end
$var wire 1 X m1_req_ready $end
$var wire 1 : m1_req_valid $end
$var wire 32 E# m1_req_wdata [31:0] $end
$var wire 1 < m1_req_wen $end
$var wire 4 F# m1_req_wmask [3:0] $end
$var wire 1 V m1_resp_valid $end
$var wire 1 G# m1_wants_s0 $end
$var wire 1 H# m1_wants_s1 $end
$var wire 1 5 rst_n $end
$var wire 1 I# s0_m0_grant $end
$var wire 1 J# s0_m1_grant $end
$var wire 1 K s0_req_ready $end
$var wire 32 K# s0_resp_rdata [31:0] $end
$var wire 1 E s0_resp_valid $end
$var wire 1 L# s1_m0_grant $end
$var wire 1 M# s1_m1_grant $end
$var wire 1 T s1_req_ready $end
$var wire 32 N# s1_resp_rdata [31:0] $end
$var wire 1 P s1_resp_valid $end
$var wire 4 O# s1_req_wmask [3:0] $end
$var wire 1 R s1_req_wen $end
$var wire 32 P# s1_req_wdata [31:0] $end
$var wire 1 S s1_req_valid $end
$var wire 32 Q# s1_req_addr [31:0] $end
$var wire 4 R# s0_req_wmask [3:0] $end
$var wire 1 H s0_req_wen $end
$var wire 32 S# s0_req_wdata [31:0] $end
$var wire 1 J s0_req_valid $end
$var wire 32 T# s0_req_addr [31:0] $end
$var wire 1 U# m1_sel_sram $end
$var wire 1 V# m1_sel_rom $end
$var wire 32 W# m1_resp_rdata [31:0] $end
$var wire 1 X# m0_sel_sram $end
$var wire 1 Y# m0_sel_rom $end
$var wire 32 Z# m0_resp_rdata [31:0] $end
$var parameter 2 [# IDLE $end
$var parameter 2 \# M0_ACTIVE $end
$var parameter 2 ]# M1_ACTIVE $end
$var reg 2 ^# s0_owner [1:0] $end
$var reg 2 _# s0_owner_next [1:0] $end
$var reg 2 `# s1_owner [1:0] $end
$var reg 2 a# s1_owner_next [1:0] $end
$upscope $end
$upscope $end
$upscope $end
$enddefinitions $end
$comment Show the parameter values. $end
$dumpall
b10 ]#
b1 \#
b0 [#
b10 9#
b0 8#
b1 7#
b10 ,#
b0 +#
b1 *#
b0 x"
b1 w"
b10 v"
b100 g"
b1 f"
b110 e"
b111 d"
b1001 c"
b1000 b"
b101 a"
b11 `"
b10 _"
b0 ^"
b101 A"
b100 @"
b11 ?"
b1 >"
b0 ="
b10 <"
b1000000000000000000000000000 ;"
b1110011 :"
b100011 9"
b110111 8"
b11 7"
b1100111 6"
b1101111 5"
b1111 4"
b1011 3"
b1100011 2"
b10111 1"
b10011 0"
b110011 /"
b100 ."
b1 -"
b110 ,"
b111 +"
b1001 *"
b1000 )"
b101 ("
b11 '"
b1101 &"
b1100 %"
b1011 $"
b1010 #"
b10 ""
b0 !"
$end
#0
$dumpvars
b0 a#
b0 `#
b0 _#
b0 ^#
b0 Z#
0Y#
0X#
b0 W#
0V#
0U#
b0 T#
b0 S#
b0 R#
b0 Q#
b0 P#
b0 O#
b0 N#
0M#
0L#
b0 K#
0J#
0I#
0H#
0G#
b0 F#
b0 E#
b0 D#
0C#
0B#
b0 A#
b0 @#
b0 ?#
b0 >#
b0 =#
b0 <#
b0 ;#
b0 :#
b0 6#
b0 5#
b0 4#
b0 3#
b0 2#
b0 1#
b0 0#
b0 /#
b0 .#
b0 -#
b0 )#
b0 (#
b0 '#
b0 &#
b0 %#
b0 $#
b0 ##
b0 "#
b0 !#
b0 ~"
b0 }"
b0 |"
b0 {"
b0 z"
b0 y"
b0 u"
b0 t"
b0 s"
b0 r"
b0 q"
b0 p"
b0 o"
b0 n"
b0 m"
b0 l"
b0 k"
b0 j"
b0 i"
b0 h"
b0 ]"
b0 \"
b0 ["
b0 Z"
b0 Y"
b0 X"
b0 W"
b0 V"
b0 U"
b1 T"
b0 S"
b0 R"
0Q"
b0 P"
b0 O"
b0 N"
b0 M"
b0 L"
b1000000000000000000000000000 K"
b0 J"
b0 I"
b0 H"
b0 G"
b0 F"
b10011 E"
0D"
b0 C"
1B"
b0 ~
b0 }
b0 |
1{
0z
b0 y
b0 x
b0 w
b0 v
b0 u
b0 t
b0 s
b0 r
b0 q
b0 p
b0 o
b10011 n
b0 m
b0 l
b0 k
b0 j
b0 i
b0 h
0g
b0 f
0e
0d
0c
0b
b0 a
0`
0_
b0 ^
0]
b0 \
b0 [
0Z
0Y
0X
b0 W
0V
b0 U
1T
0S
0R
b0 Q
0P
b0 O
b0 N
b0 M
b0 L
1K
0J
b0 I
0H
b0 G
b0 F
0E
b0 D
b0 C
b0 B
b0 A
0@
0?
0>
b0 =
0<
b0 ;
0:
b0 9
b0 8
b0 7
b0 6
05
b0 4
03
b0 2
01
b0 0
b0 /
1.
0-
b0 ,
0+
b0 *
b0 )
0(
b0 '
0&
0%
0$
0#
b0 "
0!
$end
#2500
13
#5000
03
#7500
13
#10000
03
#12500
13
#15000
03
#17500
13
#20000
03
#22500
13
#25000
03
#27500
13
#30000
03
#32500
13
#35000
03
#37500
13
#40000
03
#42500
13
#45000
03
#47500
13
#50000
03
#52500
13
#55000
03
#57500
13
#60000
03
#62500
13
#65000
03
#67500
13
#70000
03
#72500
13
#75000
03
#77500
13
#80000
03
#82500
13
#85000
03
#87500
13
#90000
03
#92500
13
#95000
03
#97500
13
#100000
03
#102500
13
#105000
03
#107500
13
#110000
03
#112500
13
#115000
03
#117500
13
#120000
03
#122500
13
#125000
03
#127500
13
#130000
03
#132500
13
#135000
03
#137500
13
#140000
03
#142500
13
#145000
03
#147500
13
#150000
03
#152500
13
#155000
03
#157500
13
#160000
03
#162500
13
#165000
03
#167500
13
#170000
03
#172500
13
#175000
03
#177500
13
#180000
03
#182500
13
#185000
03
#187500
13
#190000
03
#192500
13
#195000
03
#197500
13
#200000
03
1Y
15
#202500
1`
1J
b1000000000000000000000000000 L
b1000000000000000000000000000 5#
b1000000000000000000000000000 T#
1I#
b1 _#
1B#
1X#
b1 R"
b1000000000000000000000000000 2
b1000000000000000000000000000 8
b1000000000000000000000000000 a
b1000000000000000000000000000 L"
b1000000000000000000000000000 ?#
1_
b1 F"
b1 7
1b
1e
1c
1d
13
#205000
03
#207500
0c
0d
13
#210000
03
#212500
0b
0e
1c
1d
13
#215000
03
#217500
0c
0d
13
#220000
03
#222500
0`
b10 F"
b10 7
b1 ^#
b1 >#
0K
1b
1e
1c
1d
13
#225000
03
#227500
0c
0d
13
#230000
03
#232500
1&
1(
1%
0b
0e
1c
1d
13
#235000
b11100000000001100010011 6
b11100000000001100010011 B
b11100000000001100010011 1#
1$
03
#237500
0c
0d
13
#240000
03
#242500
b10011 H"
11
1Z
b11100000000001100010011 [
b11100000000001100010011 l
b11100000000001100010011 Z#
b0 _#
b11 F"
b11 7
b10 >#
1E
b11100000000001100010011 F
b11100000000001100010011 :#
b11100000000001100010011 K#
1b
1e
1c
1d
13
#245000
b0 6
b0 B
b0 1#
0$
03
#247500
0c
0d
13
#250000
03
#252500
0&
0(
0%
0b
0e
1c
1d
13
#255000
03
#257500
0c
0d
13
#260000
03
#262500
0{
b111 |
b111 h"
b111 Z"
b111 X"
b111 }
b111 W"
b0 L
b0 5#
b0 T#
bx n"
bx o"
bx p"
bx m"
bx q"
xB"
b0xxxxxxxx S"
b110 v
b100000000110 t
0I#
b0 H"
bx h
bx k"
bx ~"
b111 u
b110 s
b11100000000000000000000 r
0J
0`
01
0Z
b0 [
b0 l
b0 Z#
b110 m
b111 i
b111 {"
0B#
b0 _#
b100 F"
b10 R"
b11100000000001100010011 E"
0_
b100 7
b0 ^#
b0 >#
1K
0E
1b
1e
1c
1d
13
#265000
03
#267500
0c
0d
13
#270000
03
#272500
0b
0e
1c
1d
13
#275000
03
#277500
0c
0d
13
#280000
03
#282500
b0 R"
b1000000000000000000000000100 K"
b111 P"
b111 }"
b110 O"
b110 |"
1Q"
b101 F"
b101 7
1b
1e
1c
1d
13
#285000
03
#287500
0c
0d
13
#290000
03
#292500
0b
0e
1c
1d
13
#295000
03
#297500
0c
0d
13
#300000
03
#302500
1`
b1 6#
1J
b1000000000000000000000000100 L
b1000000000000000000000000100 5#
b1000000000000000000000000100 T#
1I#
b1 _#
1B#
b110 F"
b1 R"
b1000000000000000000000000100 2
b1000000000000000000000000100 8
b1000000000000000000000000100 a
b1000000000000000000000000100 L"
b1000000000000000000000000100 ?#
1_
0Q"
b110 7
1b
1e
1c
1d
13
#305000
03
#307500
0c
0d
13
#310000
03
#312500
0b
0e
1c
1d
13
#315000
03
#317500
0c
0d
13
#320000
03
#322500
0`
b1 "
b111 F"
b111 7
b1 >#
0K
b1 )
b1 D
b1 <#
b1 ^#
1b
1e
1c
1d
13
#325000
03
#327500
0c
0d
13
#330000
03
#332500
1&
1(
1%
0b
0e
1c
1d
13
#335000
b11000000000001110010011 6
b11000000000001110010011 B
b11000000000001110010011 1#
1$
03
#337500
0c
0d
13
#340000
03
#342500
b11111111111111111111111110010011 H"
11
1Z
b11000000000001110010011 [
b11000000000001110010011 l
b11000000000001110010011 Z#
b0 _#
b1000 F"
b1000 7
b10 >#
1E
b11000000000001110010011 F
b11000000000001110010011 :#
b11000000000001110010011 K#
1b
1e
1c
1d
13
#345000
b0 6
b0 B
b0 1#
0$
03
#347500
0c
0d
13
#350000
03
#352500
0&
0(
0%
0b
0e
1c
1d
13
#355000
03
#357500
0c
0d
13
#360000
03
#362500
b0 m"
b0 n"
b0 o"
b0 p"
b111 q"
0B"
b111 S"
b110 |
b110 h"
b110 Z"
b0 6#
b111 h
b111 k"
b111 ~"
b110 X"
b110 }
b110 W"
b0 L
b0 5#
b0 T#
b100000000110 v
b110 t
0I#
b0 H"
b110 u
b111 s
b11000000000000000000000 r
0J
0`
01
0Z
b0 [
b0 l
b0 Z#
b111 m
b110 i
b110 {"
0B#
b0 _#
b10 R"
b11000000000001110010011 E"
0_
b1001 F"
b1001 7
b0 >#
1K
0E
b0 ^#
1b
1e
1c
1d
13
#365000
03
#367500
0c
0d
13
#370000
03
#372500
0b
0e
1c
1d
13
#375000
03
#377500
0c
0d
13
#380000
03
#382500
b1010 F"
b0 R"
b1000000000000000000000001000 K"
b110 P"
b110 }"
b111 O"
b111 |"
1Q"
b1010 7
1b
1e
1c
1d
13
#385000
03
#387500
0c
0d
13
#390000
03
#392500
0b
0e
1c
1d
13
#395000
03
#397500
0c
0d
13
#400000
03
#402500
1`
b10 6#
1J
b1000000000000000000000001000 L
b1000000000000000000000001000 5#
b1000000000000000000000001000 T#
1I#
b1 _#
1B#
b1 R"
b1000000000000000000000001000 2
b1000000000000000000000001000 8
b1000000000000000000000001000 a
b1000000000000000000000001000 L"
b1000000000000000000000001000 ?#
1_
0Q"
b1011 F"
b1011 7
1b
1e
1c
1d
13
#405000
03
#407500
0c
0d
13
#410000
03
#412500
0b
0e
1c
1d
13
#415000
03
#417500
0c
0d
13
#420000
03
#422500
0`
b10 "
b1100 F"
b1100 7
b1 ^#
b1 >#
0K
b10 )
b10 D
b10 <#
1b
1e
1c
1d
13
#425000
03
#427500
0c
0d
13
#430000
03
#432500
1&
1(
1%
0b
0e
1c
1d
13
#435000
b10011100110000111000110011 6
b10011100110000111000110011 B
b10011100110000111000110011 1#
1$
03
#437500
0c
0d
13
#440000
03
#442500
b110011 H"
11
1Z
b10011100110000111000110011 [
b10011100110000111000110011 l
b10011100110000111000110011 Z#
b0 _#
b1101 F"
b1101 7
b10 >#
1E
b10011100110000111000110011 F
b10011100110000111000110011 :#
b10011100110000111000110011 K#
1b
1e
1c
1d
13
#445000
b0 6
b0 B
b0 1#
0$
03
#447500
0c
0d
13
#450000
03
#452500
0&
0(
0%
0b
0e
1c
1d
13
#455000
03
#457500
0c
0d
13
#460000
03
#462500
b101010 I"
b101010 o
b101010 ["
b110 q"
b110 S"
b0 6#
b110 Z"
b101010 p
b101010 \"
b110 h
b110 k"
b110 ~"
b0 L
b0 5#
b0 T#
b110 X"
b110 }
b110 W"
b0 r"
b0 s"
b0 t"
b101010 m"
b111 u"
b101010 q
b101010 ]"
b111 V"
b111 ~
b111 U"
0B"
1g
1{
b0 |
b0 h"
b111100 v
b110000100000100110 t
0I#
b0 H"
b111 j
b111 l"
b111 !#
b1010 f
b1010 Y"
b1010 C"
b100111 u
b111100 s
b10011100110000000000000000 r
0J
0`
01
0Z
b0 [
b0 l
b0 Z#
b110011 n
b11100 m
b110 k
b110 z"
b111 i
b111 {"
b1 w
b1 i"
0B#
b0 _#
b1110 F"
b10 R"
b10011100110000111000110011 E"
0_
b1110 7
b0 ^#
b0 >#
1K
0E
1b
1e
1c
1d
13
#465000
03
#467500
0c
0d
13
#470000
03
#472500
0b
0e
1c
1d
13
#475000
03
#477500
0c
0d
13
#480000
03
#482500
b101 R"
b101010 J"
b1111 F"
b1111 7
1b
1e
1c
1d
13
#485000
03
#487500
0c
0d
13
#490000
03
#492500
0b
0e
1c
1d
13
#495000
03
#497500
0c
0d
13
#500000
03
#502500
b10000 F"
b0 R"
b1000000000000000000000001100 K"
b101010 P"
b101010 }"
b11100 O"
b11100 |"
1Q"
b10000 7
1b
1e
1c
1d
13
#505000
03
#507500
0c
0d
13
#510000
03
#512500
0b
0e
1c
1d
13
#515000
03
#517500
0c
0d
13
#520000
03
#522500
1`
b11 6#
1J
b1000000000000000000000001100 L
b1000000000000000000000001100 5#
b1000000000000000000000001100 T#
1I#
b1 _#
1B#
b1 R"
b1000000000000000000000001100 2
b1000000000000000000000001100 8
b1000000000000000000000001100 a
b1000000000000000000000001100 L"
b1000000000000000000000001100 ?#
1_
0Q"
b10001 F"
b10001 7
1b
1e
1c
1d
13
#525000
03
#527500
0c
0d
13
#530000
03
#532500
0b
0e
1c
1d
13
#535000
03
#537500
0c
0d
13
#540000
03
#542500
0`
b11 "
b10010 F"
b10010 7
b1 ^#
b1 >#
0K
b11 )
b11 D
b11 <#
1b
1e
1c
1d
13
#545000
03
#547500
0c
0d
13
#550000
03
#552500
1&
1(
1%
0b
0e
1c
1d
13
#555000
b1000000000000001010000110111 6
b1000000000000001010000110111 B
b1000000000000001010000110111 1#
1$
03
#557500
0c
0d
13
#560000
03
#562500
b110111 H"
11
1Z
b1000000000000001010000110111 [
b1000000000000001010000110111 l
b1000000000000001010000110111 Z#
b0 _#
b10011 F"
b10011 7
b10 >#
1E
b1000000000000001010000110111 F
b1000000000000001010000110111 :#
b1000000000000001010000110111 K#
1b
1e
1c
1d
13
#565000
b0 6
b0 B
b0 1#
0$
03
#567500
0c
0d
13
#570000
03
#572500
0&
0(
0%
0b
0e
1c
1d
13
#575000
03
#577500
0c
0d
13
#580000
03
#582500
b0 o
b0 ["
b0 6#
b0 p
b0 \"
b0 Z"
b0 L
b0 5#
b0 T#
b0 u"
b0 V"
b0 ~
b0 U"
b0 m"
b0 q"
b0 q
b0 ]"
b10000000 X"
b10000000 }
b10000000 W"
0g
0{
b10000000 |
b10000000 h"
b10001000 v
b1000010000000 t
0I#
b11 T"
b0 S"
b0 H"
b0 I"
b0 j
b0 l"
b0 !#
b0 h
b0 k"
b0 ~"
b0 f
b0 Y"
b0 C"
b10000000 u
b10001000 s
b1000000000000001000000000000 r
0J
0`
01
0Z
b0 [
b0 l
b0 Z#
b110111 n
b1000 m
b1 x
b0 k
b0 z"
b0 i
b0 {"
b100 w
b100 i"
0B#
b0 _#
b10100 F"
b10 R"
b1000000000000001010000110111 E"
0_
b10100 7
b0 ^#
b0 >#
1K
0E
1b
1e
1c
1d
13
#585000
03
#587500
0c
0d
13
#590000
03
#592500
0b
0e
1c
1d
13
#595000
03
#597500
0c
0d
13
#600000
03
#602500
b0 R"
b1000000000000000000000010000 K"
b1000000000000001000000000000 P"
b1000000000000001000000000000 }"
b1000 O"
b1000 |"
1Q"
b10101 F"
b10101 7
1b
1e
1c
1d
13
#605000
03
#607500
0c
0d
13
#610000
03
#612500
0b
0e
1c
1d
13
#615000
03
#617500
0c
0d
13
#620000
03
#622500
1`
b100 6#
1J
b1000000000000000000000010000 L
b1000000000000000000000010000 5#
b1000000000000000000000010000 T#
1I#
b1 _#
1B#
b10110 F"
b1 R"
b1000000000000000000000010000 2
b1000000000000000000000010000 8
b1000000000000000000000010000 a
b1000000000000000000000010000 L"
b1000000000000000000000010000 ?#
1_
0Q"
b10110 7
1b
1e
1c
1d
13
#625000
03
#627500
0c
0d
13
#630000
03
#632500
0b
0e
1c
1d
13
#635000
03
#637500
0c
0d
13
#640000
03
#642500
0`
b100 "
b10111 F"
b10111 7
b1 >#
0K
b100 )
b100 D
b100 <#
b1 ^#
1b
1e
1c
1d
13
#645000
03
#647500
0c
0d
13
#650000
03
#652500
1&
1(
1%
0b
0e
1c
1d
13
#655000
b10110010000001000000010000010011 6
b10110010000001000000010000010011 B
b10110010000001000000010000010011 1#
1$
03
#657500
0c
0d
13
#660000
03
#662500
b10000010011 H"
11
1Z
b10110010000001000000010000010011 [
b10110010000001000000010000010011 l
b10110010000001000000010000010011 Z#
b0 _#
b11000 F"
b11000 7
b10 >#
1E
b10110010000001000000010000010011 F
b10110010000001000000010000010011 :#
b10110010000001000000010000010011 K#
1b
1e
1c
1d
13
#665000
b0 6
b0 B
b0 1#
0$
03
#667500
0c
0d
13
#670000
03
#672500
0&
0(
0%
0b
0e
1c
1d
13
#675000
03
#677500
0c
0d
13
#680000
03
