sim/tb_top.vcd
$date
	Fri Apr 17 20:49:28 2026
$end
$version
	Icarus Verilog
$end
$timescale
	1ps
$end
$scope module tb_top $end
$var wire 11 ! sram_word_addr [10:0] $end
$var wire 1 " sram_wen $end
$var wire 1 # sram_ren $end
$var wire 1 $ sram_prechg $end
$var wire 1 % sram_en $end
$var wire 32 & sram_din [31:0] $end
$var wire 1 ' sram_den $end
$var wire 3 ( sram_col_addr [2:0] $end
$var wire 8 ) sram_addr [7:0] $end
$var wire 1 * rom_wlen $end
$var wire 8 + rom_wl_addr [7:0] $end
$var wire 1 , rom_saen $end
$var wire 1 - rom_preen $end
$var wire 2 . rom_pattern [1:0] $end
$var wire 4 / rom_col_in [3:0] $end
$var wire 1 0 jtag_tdo $end
$var wire 1 1 debug_resp_valid $end
$var wire 32 2 debug_pc [31:0] $end
$var parameter 11 3 DONE_WORD_ADDR $end
$var parameter 11 4 RESULT_WORD_ADDR $end
$var reg 1 5 pad_clk $end
$var reg 32 6 rom_dout [31:0] $end
$var reg 1 7 rst_n $end
$var reg 32 8 sram_dout [31:0] $end
$var integer 32 9 cycle_count [31:0] $end
$scope module u_dut $end
$var wire 1 : clk_core_gated $end
$var wire 32 ; debug_pc [31:0] $end
$var wire 32 < debug_pc_internal [31:0] $end
$var wire 1 1 debug_resp_valid $end
$var wire 1 = jtag_tck $end
$var wire 1 > jtag_tdi $end
$var wire 1 ? jtag_tms $end
$var wire 1 5 pad_clk $end
$var wire 32 @ rom_dout [31:0] $end
$var wire 1 7 rst_n $end
$var wire 32 A sram_dout [31:0] $end
$var wire 1 " sram_wen $end
$var wire 1 # sram_ren $end
$var wire 1 $ sram_prechg $end
$var wire 1 % sram_en $end
$var wire 32 B sram_din [31:0] $end
$var wire 1 ' sram_den $end
$var wire 3 C sram_col_addr [2:0] $end
$var wire 1 D sram_bus_resp_valid $end
$var wire 32 E sram_bus_resp_rdata [31:0] $end
$var wire 4 F sram_bus_req_wmask [3:0] $end
$var wire 1 G sram_bus_req_wen $end
$var wire 32 H sram_bus_req_wdata [31:0] $end
$var wire 1 I sram_bus_req_valid $end
$var wire 1 J sram_bus_req_ready $end
$var wire 32 K sram_bus_req_addr [31:0] $end
$var wire 8 L sram_addr [7:0] $end
$var wire 1 * rom_wlen $end
$var wire 8 M rom_wl_addr [7:0] $end
$var wire 1 , rom_saen $end
$var wire 1 - rom_preen $end
$var wire 4 N rom_col_in [3:0] $end
$var wire 1 O rom_bus_resp_valid $end
$var wire 32 P rom_bus_resp_rdata [31:0] $end
$var wire 1 Q rom_bus_req_wen $end
$var wire 1 R rom_bus_req_valid $end
$var wire 1 S rom_bus_req_ready $end
$var wire 32 T rom_bus_req_addr [31:0] $end
$var wire 1 0 jtag_tdo $end
$var wire 1 U jtag_resp_valid $end
$var wire 32 V jtag_resp_rdata [31:0] $end
$var wire 4 W jtag_req_wmask [3:0] $end
$var wire 1 X jtag_req_wen $end
$var wire 32 Y jtag_req_wdata [31:0] $end
$var wire 1 Z jtag_req_valid $end
$var wire 1 [ jtag_req_ready $end
$var wire 32 \ jtag_req_addr [31:0] $end
$var wire 1 ] core_rst_n $end
$var wire 1 ^ core_resp_valid $end
$var wire 32 _ core_resp_rdata [31:0] $end
$var wire 4 ` core_req_wmask [3:0] $end
$var wire 1 a core_req_wen $end
$var wire 32 b core_req_wdata [31:0] $end
$var wire 1 c core_req_valid $end
$var wire 1 d core_req_ready $end
$var wire 32 e core_req_addr [31:0] $end
$var wire 1 f core_clk_en $end
$var wire 1 g clk_50 $end
$var wire 1 h clk_25 $end
$var reg 1 i clk_gate_latch $end
$scope module u_clk_div $end
$var wire 1 g clk_50 $end
$var wire 1 5 pad_clk $end
$var wire 1 7 rst_n $end
$var wire 1 h clk_25 $end
$var reg 1 j div2_reg $end
$var reg 1 h div4_reg $end
$upscope $end
$scope module u_core $end
$var wire 4 k alu_op [3:0] $end
$var wire 1 : clk $end
$var wire 1 l is_mul_op $end
$var wire 1 ] rst_n $end
$var wire 32 m rs2_data [31:0] $end
$var wire 5 n rs2 [4:0] $end
$var wire 32 o rs1_data [31:0] $end
$var wire 5 p rs1 [4:0] $end
$var wire 1 ^ resp_valid $end
$var wire 32 q resp_rdata [31:0] $end
$var wire 1 d req_ready $end
$var wire 5 r rd [4:0] $end
$var wire 7 s opcode [6:0] $end
$var wire 64 t mul_result_uu [63:0] $end
$var wire 64 u mul_result_su [63:0] $end
$var wire 64 v mul_result_ss [63:0] $end
$var wire 32 w imm_u [31:0] $end
$var wire 32 x imm_s [31:0] $end
$var wire 32 y imm_j [31:0] $end
$var wire 32 z imm_i [31:0] $end
$var wire 32 { imm_b [31:0] $end
$var wire 7 | funct7 [6:0] $end
$var wire 3 } funct3 [2:0] $end
$var wire 32 ~ dp_result [31:0] $end
$var wire 1 !" dp_ready $end
$var wire 1 "" alu_zero $end
$var wire 32 #" alu_result_fast [31:0] $end
$var wire 32 $" alu_b [31:0] $end
$var wire 32 %" alu_a [31:0] $end
$var parameter 4 &" ALU_ADD $end
$var parameter 4 '" ALU_AND $end
$var parameter 4 (" ALU_MUL $end
$var parameter 4 )" ALU_MULH $end
$var parameter 4 *" ALU_MULHSU $end
$var parameter 4 +" ALU_MULHU $end
$var parameter 4 ," ALU_OR $end
$var parameter 4 -" ALU_SLL $end
$var parameter 4 ." ALU_SLT $end
$var parameter 4 /" ALU_SLTU $end
$var parameter 4 0" ALU_SRA $end
$var parameter 4 1" ALU_SRL $end
$var parameter 4 2" ALU_SUB $end
$var parameter 4 3" ALU_XOR $end
$var parameter 7 4" OP_ARITH $end
$var parameter 7 5" OP_ARITHI $end
$var parameter 7 6" OP_AUIPC $end
$var parameter 7 7" OP_BRANCH $end
$var parameter 7 8" OP_CUSTOM0 $end
$var parameter 7 9" OP_FENCE $end
$var parameter 7 :" OP_JAL $end
$var parameter 7 ;" OP_JALR $end
$var parameter 7 <" OP_LOAD $end
$var parameter 7 =" OP_LUI $end
$var parameter 7 >" OP_STORE $end
$var parameter 7 ?" OP_SYSTEM $end
$var parameter 32 @" RESET_VEC $end
$var parameter 3 A" S_EXECUTE $end
$var parameter 3 B" S_FETCH $end
$var parameter 3 C" S_FETCH_W $end
$var parameter 3 D" S_MEM $end
$var parameter 3 E" S_MEM_W $end
$var parameter 3 F" S_MUL_W $end
$var reg 1 G" branch_taken $end
$var reg 4 H" decoded_alu_op [3:0] $end
$var reg 1 I" dp_valid $end
$var reg 32 J" instr [31:0] $end
$var reg 32 K" mcycle [31:0] $end
$var reg 32 L" mem_addr_reg [31:0] $end
$var reg 32 M" mem_result [31:0] $end
$var reg 32 N" mul_raw_selected [31:0] $end
$var reg 32 O" mul_result_reg [31:0] $end
$var reg 32 P" pc [31:0] $end
$var reg 32 Q" req_addr [31:0] $end
$var reg 1 c req_valid $end
$var reg 32 R" req_wdata [31:0] $end
$var reg 1 a req_wen $end
$var reg 4 S" req_wmask [3:0] $end
$var reg 5 T" rf_wr_addr [4:0] $end
$var reg 32 U" rf_wr_data [31:0] $end
$var reg 1 V" rf_wr_en $end
$var reg 3 W" state [2:0] $end
$var reg 32 X" store_data [31:0] $end
$var reg 4 Y" store_mask [3:0] $end
$scope module u_alu $end
$var wire 32 Z" a [31:0] $end
$var wire 32 [" a_signed [31:0] $end
$var wire 32 \" b [31:0] $end
$var wire 32 ]" b_signed [31:0] $end
$var wire 4 ^" op [3:0] $end
$var wire 1 "" zero $end
$var wire 5 _" shamt [4:0] $end
$var wire 64 `" mul_result_uu [63:0] $end
$var wire 64 a" mul_result_su [63:0] $end
$var wire 64 b" mul_result_ss [63:0] $end
$var parameter 4 c" ALU_ADD $end
$var parameter 4 d" ALU_AND $end
$var parameter 4 e" ALU_OR $end
$var parameter 4 f" ALU_SLL $end
$var parameter 4 g" ALU_SLT $end
$var parameter 4 h" ALU_SLTU $end
$var parameter 4 i" ALU_SRA $end
$var parameter 4 j" ALU_SRL $end
$var parameter 4 k" ALU_SUB $end
$var parameter 4 l" ALU_XOR $end
$var reg 32 m" result_fast [31:0] $end
$upscope $end
$scope module u_dp $end
$var wire 1 : clk $end
$var wire 7 n" funct7 [6:0] $end
$var wire 1 !" ready $end
$var wire 32 o" result [31:0] $end
$var wire 1 I" valid $end
$var wire 1 ] rst_n $end
$var wire 32 p" rs2_data [31:0] $end
$var wire 32 q" rs1_data [31:0] $end
$var wire 32 r" dot_sum [31:0] $end
$var wire 8 s" b3 [7:0] $end
$var wire 8 t" b2 [7:0] $end
$var wire 8 u" b1 [7:0] $end
$var wire 8 v" b0 [7:0] $end
$var wire 8 w" a3 [7:0] $end
$var wire 8 x" a2 [7:0] $end
$var wire 8 y" a1 [7:0] $end
$var wire 8 z" a0 [7:0] $end
$var parameter 7 {" ACC_READ $end
$var parameter 7 |" ACC_RST $end
$var parameter 7 }" DOTPROD $end
$var reg 32 ~" acc [31:0] $end
$upscope $end
$scope module u_rf $end
$var wire 1 : clk $end
$var wire 5 !# rs1_addr [4:0] $end
$var wire 5 "# rs2_addr [4:0] $end
$var wire 5 ## wr_addr [4:0] $end
$var wire 32 $# wr_data [31:0] $end
$var wire 1 V" wr_en $end
$var wire 1 ] rst_n $end
$var wire 32 %# rs2_data [31:0] $end
$var wire 32 &# rs1_data [31:0] $end
$upscope $end
$upscope $end
$scope module u_jtag $end
$var wire 1 h clk $end
$var wire 1 f core_clk_en $end
$var wire 1 ] core_rst_n $end
$var wire 32 '# debug_pc [31:0] $end
$var wire 1 = jtag_tck $end
$var wire 1 > jtag_tdi $end
$var wire 1 0 jtag_tdo $end
$var wire 1 ? jtag_tms $end
$var wire 1 7 rst_n $end
$var wire 1 (# trigger $end
$var wire 1 U resp_valid $end
$var wire 32 )# resp_rdata [31:0] $end
$var wire 1 [ req_ready $end
$var wire 2 *# cur_core_state [1:0] $end
$var parameter 2 +# BUS_DONE $end
$var parameter 2 ,# BUS_IDLE $end
$var parameter 2 -# BUS_REQUEST $end
$var parameter 2 .# BUS_WAIT $end
$var parameter 4 /# CTRL_HALT $end
$var parameter 4 0# CTRL_RELEASE $end
$var parameter 4 1# CTRL_RESET $end
$var parameter 4 2# CTRL_STEP $end
$var parameter 32 3# IDCODE_VAL $end
$var parameter 3 4# IR_BYPASS $end
$var parameter 3 5# IR_DATA $end
$var parameter 3 6# IR_IDCODE $end
$var parameter 4 7# TAP_CAP_DR $end
$var parameter 4 8# TAP_CAP_IR $end
$var parameter 4 9# TAP_EXIT1_DR $end
$var parameter 4 :# TAP_EXIT1_IR $end
$var parameter 4 ;# TAP_EXIT2_DR $end
$var parameter 4 <# TAP_EXIT2_IR $end
$var parameter 4 =# TAP_PAUSE_DR $end
$var parameter 4 ># TAP_PAUSE_IR $end
$var parameter 4 ?# TAP_RTI $end
$var parameter 4 @# TAP_SEL_DR $end
$var parameter 4 A# TAP_SEL_IR $end
$var parameter 4 B# TAP_SHIFT_DR $end
$var parameter 4 C# TAP_SHIFT_IR $end
$var parameter 4 D# TAP_TLR $end
$var parameter 4 E# TAP_UPDATE_DR $end
$var parameter 4 F# TAP_UPDATE_IR $end
$var reg 32 G# addr_reg [31:0] $end
$var reg 2 H# bus_state [1:0] $end
$var reg 2 I# bus_status [1:0] $end
$var reg 1 J# bypass_reg $end
$var reg 2 K# cmd_reg [1:0] $end
$var reg 1 L# core_halted $end
$var reg 1 M# core_in_reset $end
$var reg 68 N# data_shift [67:0] $end
$var reg 32 O# idcode_shift [31:0] $end
$var reg 3 P# ir_reg [2:0] $end
$var reg 3 Q# ir_shift [2:0] $end
$var reg 32 R# last_rdata [31:0] $end
$var reg 32 S# req_addr [31:0] $end
$var reg 1 Z req_valid $end
$var reg 32 T# req_wdata [31:0] $end
$var reg 1 X req_wen $end
$var reg 4 U# req_wmask [3:0] $end
$var reg 1 V# step_active $end
$var reg 1 W# step_request $end
$var reg 1 X# sync1 $end
$var reg 1 Y# sync2 $end
$var reg 1 Z# sync3 $end
$var reg 4 [# tap_state [3:0] $end
$var reg 1 \# tdo_reg $end
$var reg 1 ]# update_toggle $end
$var reg 32 ^# wdata_reg [31:0] $end
$upscope $end
$scope module u_rom $end
$var wire 1 h clk $end
$var wire 1 5 clk_fast $end
$var wire 32 _# rom_dout [31:0] $end
$var wire 1 7 rst_n $end
$var wire 8 `# wl_addr [7:0] $end
$var wire 1 R req_valid $end
$var wire 32 a# req_addr [31:0] $end
$var wire 4 b# col_addr [3:0] $end
$var parameter 2 c# ACCESS $end
$var parameter 2 d# IDLE $end
$var parameter 2 e# RESPOND $end
$var reg 1 S req_ready $end
$var reg 32 f# resp_rdata [31:0] $end
$var reg 1 O resp_valid $end
$var reg 4 g# rom_col_in [3:0] $end
$var reg 1 - rom_preen $end
$var reg 1 , rom_saen $end
$var reg 8 h# rom_wl_addr [7:0] $end
$var reg 1 * rom_wlen $end
$var reg 2 i# state [1:0] $end
$upscope $end
$scope module u_sram $end
$var wire 1 h clk $end
$var wire 1 5 clk_fast $end
$var wire 1 7 rst_n $end
$var wire 32 j# sram_dout [31:0] $end
$var wire 8 k# row_addr [7:0] $end
$var wire 4 l# req_wmask [3:0] $end
$var wire 1 G req_wen $end
$var wire 32 m# req_wdata [31:0] $end
$var wire 1 I req_valid $end
$var wire 32 n# req_addr [31:0] $end
$var wire 3 o# col_addr [2:0] $end
$var parameter 2 p# ACCESS $end
$var parameter 2 q# IDLE $end
$var parameter 2 r# RESPOND $end
$var reg 1 J req_ready $end
$var reg 32 s# resp_rdata [31:0] $end
$var reg 1 D resp_valid $end
$var reg 8 t# sram_addr [7:0] $end
$var reg 3 u# sram_col_addr [2:0] $end
$var reg 1 ' sram_den $end
$var reg 32 v# sram_din [31:0] $end
$var reg 1 % sram_en $end
$var reg 1 $ sram_prechg $end
$var reg 1 # sram_ren $end
$var reg 1 " sram_wen $end
$var reg 2 w# state [1:0] $end
$upscope $end
$scope module u_xbar $end
$var wire 1 h clk $end
$var wire 32 x# m0_req_addr [31:0] $end
$var wire 1 d m0_req_ready $end
$var wire 1 c m0_req_valid $end
$var wire 32 y# m0_req_wdata [31:0] $end
$var wire 1 a m0_req_wen $end
$var wire 4 z# m0_req_wmask [3:0] $end
$var wire 1 ^ m0_resp_valid $end
$var wire 1 {# m0_wants_s0 $end
$var wire 1 |# m0_wants_s1 $end
$var wire 32 }# m1_req_addr [31:0] $end
$var wire 1 [ m1_req_ready $end
$var wire 1 Z m1_req_valid $end
$var wire 32 ~# m1_req_wdata [31:0] $end
$var wire 1 X m1_req_wen $end
$var wire 4 !$ m1_req_wmask [3:0] $end
$var wire 1 U m1_resp_valid $end
$var wire 1 "$ m1_wants_s0 $end
$var wire 1 #$ m1_wants_s1 $end
$var wire 1 7 rst_n $end
$var wire 1 $$ s0_m0_grant $end
$var wire 1 %$ s0_m1_grant $end
$var wire 1 J s0_req_ready $end
$var wire 32 &$ s0_resp_rdata [31:0] $end
$var wire 1 D s0_resp_valid $end
$var wire 1 '$ s1_m0_grant $end
$var wire 1 ($ s1_m1_grant $end
$var wire 1 S s1_req_ready $end
$var wire 32 )$ s1_resp_rdata [31:0] $end
$var wire 1 O s1_resp_valid $end
$var wire 4 *$ s1_req_wmask [3:0] $end
$var wire 1 Q s1_req_wen $end
$var wire 32 +$ s1_req_wdata [31:0] $end
$var wire 1 R s1_req_valid $end
$var wire 32 ,$ s1_req_addr [31:0] $end
$var wire 4 -$ s0_req_wmask [3:0] $end
$var wire 1 G s0_req_wen $end
$var wire 32 .$ s0_req_wdata [31:0] $end
$var wire 1 I s0_req_valid $end
$var wire 32 /$ s0_req_addr [31:0] $end
$var wire 1 0$ m1_sel_sram $end
$var wire 1 1$ m1_sel_rom $end
$var wire 32 2$ m1_resp_rdata [31:0] $end
$var wire 1 3$ m0_sel_sram $end
$var wire 1 4$ m0_sel_rom $end
$var wire 32 5$ m0_resp_rdata [31:0] $end
$var parameter 2 6$ IDLE $end
$var parameter 2 7$ M0_ACTIVE $end
$var parameter 2 8$ M1_ACTIVE $end
$var reg 2 9$ s0_owner [1:0] $end
$var reg 2 :$ s0_owner_next [1:0] $end
$var reg 2 ;$ s1_owner [1:0] $end
$var reg 2 <$ s1_owner_next [1:0] $end
$upscope $end
$upscope $end
$scope begin wait_done $end
$upscope $end
$scope begin watchdog $end
$upscope $end
$upscope $end
$enddefinitions $end
$comment Show the parameter values. $end
$dumpall
b10 8$
b1 7$
b0 6$
b10 r#
b0 q#
b1 p#
b10 e#
b0 d#
b1 c#
b1111 F#
b1000 E#
b0 D#
b1011 C#
b100 B#
b1001 A#
b10 @#
b1 ?#
b1101 >#
b110 =#
b1110 <#
b111 ;#
b1100 :#
b101 9#
b1010 8#
b11 7#
b1 6#
b10 5#
b0 4#
b11011110101011010000000000000001 3#
b100 2#
b1 1#
b10 0#
b1000 /#
b10 .#
b1 -#
b0 ,#
b11 +#
b0 }"
b1 |"
b10 {"
b100 l"
b1 k"
b110 j"
b111 i"
b1001 h"
b1000 g"
b101 f"
b11 e"
b10 d"
b0 c"
b101 F"
b100 E"
b11 D"
b1 C"
b0 B"
b10 A"
b1000000000000000000000000000 @"
b1110011 ?"
b100011 >"
b110111 ="
b11 <"
b1100111 ;"
b1101111 :"
b1111 9"
b1011 8"
b1100011 7"
b10111 6"
b10011 5"
b110011 4"
b100 3"
b1 2"
b110 1"
b111 0"
b1001 /"
b1000 ."
b101 -"
b11 ,"
b1101 +"
b1100 *"
b1011 )"
b1010 ("
b10 '"
b0 &"
b1011001000 4
b1011001010 3
$end
#0
$dumpvars
b0 <$
b0 ;$
b0 :$
b0 9$
b0 5$
04$
03$
b0 2$
01$
00$
b0 /$
b0 .$
b0 -$
b0 ,$
b0 +$
b0 *$
b0 )$
0($
0'$
b0 &$
0%$
0$$
0#$
0"$
b0 !$
b0 ~#
b0 }#
0|#
0{#
b0 z#
b0 y#
b0 x#
b0 w#
b0 v#
b0 u#
b0 t#
b0 s#
b0 o#
b0 n#
b0 m#
b0 l#
b0 k#
b0 j#
b0 i#
b0 h#
b0 g#
b0 f#
b0 b#
b0 a#
b0 `#
b0 _#
b0 ^#
0]#
0\#
b0 [#
0Z#
0Y#
0X#
0W#
0V#
b0 U#
b0 T#
b0 S#
b0 R#
b0 Q#
b1 P#
b11011110101011010000000000000001 O#
b0 N#
1M#
1L#
b0 K#
0J#
b0 I#
b0 H#
b0 G#
b0 *#
b0 )#
0(#
b0 '#
b0 &#
b0 %#
b0 $#
b0 ##
b0 "#
b0 !#
b0 ~"
b0 z"
b0 y"
b0 x"
b0 w"
b0 v"
b0 u"
b0 t"
b0 s"
b0 r"
b0 q"
b0 p"
b0 o"
b0 n"
b0 m"
b0 b"
b0 a"
b0 `"
b0 _"
b0 ^"
b0 ]"
b0 \"
b0 ["
b0 Z"
b1 Y"
b0 X"
b0 W"
0V"
b0 U"
b0 T"
b0 S"
b0 R"
b0 Q"
b1000000000000000000000000000 P"
b0 O"
b0 N"
b0 M"
b0 L"
b0 K"
b10011 J"
0I"
b0 H"
1G"
b0 %"
b0 $"
b0 #"
1""
0!"
b0 ~
b0 }
b0 |
b0 {
b0 z
b0 y
b0 x
b0 w
b0 v
b0 u
b0 t
b10011 s
b0 r
b0 q
b0 p
b0 o
b0 n
b0 m
0l
b0 k
0j
0i
0h
0g
0f
b0 e
0d
0c
b0 b
0a
b0 `
b0 _
0^
0]
b0 \
0[
0Z
b0 Y
0X
b0 W
b0 V
0U
b0 T
1S
0R
0Q
b0 P
0O
b0 N
b0 M
b0 L
b0 K
1J
0I
b0 H
0G
b0 F
b0 E
0D
b0 C
b0 B
b0 A
b0 @
0?
0>
0=
b0 <
b0 ;
0:
b0 9
b0 8
07
b0 6
05
b0 2
01
00
b0 /
b0 .
1-
0,
b0 +
0*
b0 )
b0 (
0'
b0 &
0%
0$
0#
0"
b0 !
$end
#5000
15
#10000
05
#15000
15
#20000
05
#25000
15
#30000
05
#35000
15
#40000
05
#45000
15
#50000
05
#55000
15
#60000
05
#65000
15
#70000
05
#75000
15
#80000
05
#85000
15
#90000
05
#95000
15
#100000
05
#105000
15
#110000
05
#115000
15
#120000
05
#125000
15
#130000
05
#135000
15
#140000
05
#145000
15
#150000
05
#155000
15
#160000
05
#165000
15
#170000
05
#175000
15
#180000
05
#185000
15
#190000
05
#195000
15
#200000
05
17
#205000
b1 9
1f
b10 *#
1]
0L#
0M#
1h
1g
1j
15
#210000
05
#215000
0g
0j
15
#220000
05
#225000
1i
0h
1g
1j
15
#230000
05
#235000
0g
0j
15
#240000
05
#245000
1d
1I
b1000000000000000000000000000 K
b1000000000000000000000000000 n#
b1000000000000000000000000000 /$
1$$
b1 :$
1{#
13$
b1 W"
b1000000000000000000000000000 2
b1000000000000000000000000000 ;
b1000000000000000000000000000 <
b1000000000000000000000000000 '#
b1000000000000000000000000000 e
b1000000000000000000000000000 Q"
b1000000000000000000000000000 x#
1c
b1 K"
b10 9
1:
1h
1g
1j
15
#250000
05
#255000
0g
0j
15
#260000
05
#265000
0:
0h
1g
1j
15
#270000
05
#275000
0g
0j
15
#280000
05
#285000
0d
b10 K"
b11 9
b1 w#
0J
b1 9$
1:
1h
1g
1j
15
#290000
05
#295000
0g
0j
15
#300000
05
#305000
1%
1'
1$
0:
0h
1g
1j
15
#310000
b1000000000000001010000110111 8
b1000000000000001010000110111 A
b1000000000000001010000110111 j#
1#
05
#315000
0g
0j
15
#320000
05
#325000
b110111 M"
11
1^
b1000000000000001010000110111 _
b1000000000000001010000110111 q
b1000000000000001010000110111 5$
b0 :$
b11 K"
b100 9
b10 w#
1D
b1000000000000001010000110111 E
b1000000000000001010000110111 s#
b1000000000000001010000110111 &$
1:
1h
1g
1j
15
#330000
b0 8
b0 A
b0 j#
0#
05
#335000
0g
0j
15
#340000
05
#345000
0%
0'
0$
0:
0h
1g
1j
15
#350000
05
#355000
0g
0j
15
#360000
05
#365000
0""
b10000000 #"
b10000000 m"
b10000000 ]"
b10000000 $"
b10000000 \"
b0 K
b0 n#
b0 /$
b10001000 {
b1000010000000 y
0$$
b11 Y"
b0 M"
0G"
b10000000 z
b10001000 x
b1000000000000001000000000000 w
0I
0d
01
0^
b0 _
b0 q
b0 5$
b110111 s
b1000 r
b1 }
b100 |
b100 n"
0{#
b0 :$
b100 K"
b10 W"
b1000000000000001010000110111 J"
0c
b101 9
b0 w#
1J
0D
b0 9$
1:
1h
1g
1j
15
#370000
05
#375000
0g
0j
15
#380000
05
#385000
0:
0h
1g
1j
15
#390000
05
#395000
0g
0j
15
#400000
05
#405000
b0 W"
b1000000000000000000000000100 P"
b1000000000000001000000000000 U"
b1000000000000001000000000000 $#
b1000 T"
b1000 ##
1V"
b101 K"
b110 9
1:
1h
1g
1j
15
#410000
05
#415000
0g
0j
15
#420000
05
#425000
0:
0h
1g
1j
15
#430000
05
#435000
0g
0j
15
#440000
05
#445000
1d
b1 o#
1I
b1000000000000000000000000100 K
b1000000000000000000000000100 n#
b1000000000000000000000000100 /$
1$$
b1 :$
1{#
b110 K"
b1 W"
b1000000000000000000000000100 2
b1000000000000000000000000100 ;
b1000000000000000000000000100 <
b1000000000000000000000000100 '#
b1000000000000000000000000100 e
b1000000000000000000000000100 Q"
b1000000000000000000000000100 x#
1c
0V"
b111 9
1:
1h
1g
1j
15
#450000
05
#455000
0g
0j
15
#460000
05
#465000
0:
0h
1g
1j
15
#470000
05
#475000
0g
0j
15
#480000
05
#485000
0d
b1 !
b111 K"
b1000 9
b1 9$
b1 w#
0J
b1 (
b1 C
b1 u#
1:
1h
1g
1j
15
#490000
05
#495000
0g
0j
15
#500000
05
#505000
1%
1'
1$
0:
0h
1g
1j
15
#510000
b10110010000001000000010000010011 8
b10110010000001000000010000010011 A
b10110010000001000000010000010011 j#
1#
05
#515000
0g
0j
15
#520000
05
#525000
b10000010011 M"
11
1^
b10110010000001000000010000010011 _
b10110010000001000000010000010011 q
b10110010000001000000010000010011 5$
b0 :$
b1000 K"
b1001 9
b10 w#
1D
b10110010000001000000010000010011 E
b10110010000001000000010000010011 s#
b10110010000001000000010000010011 &$
1:
1h
1g
1j
15
#530000
b0 8
b0 A
b0 j#
0#
05
#535000
0g
0j
15
#540000
05
#545000
0%
0'
0$
0:
0h
1g
1j
15
#550000
05
#555000
0g
0j
15
#560000
05
#565000
b11111111101100100000000000000000 N"
b100000000000000011111101100011111111101100100000000000000000 t
b100000000000000011111101100011111111101100100000000000000000 `"
b0 o#
b100000000000000011111101100011111111101100100000000000000000 u
b100000000000000011111101100011111111101100100000000000000000 a"
0""
b1000000000000000101100100000 #"
b1000000000000000101100100000 m"
b11111111111111111111101100100000 ]"
b11111111111111111111101100100000 $"
b11111111111111111111101100100000 \"
b0 K
b0 n#
b0 /$
b1000 w"
b0 x"
b10000 y"
b0 r"
b0 z"
b1111111111111111111111111101100011111111101100100000000000000000 v
b1111111111111111111111111101100011111111101100100000000000000000 b"
b1000000000000001000000000000 ["
b1000000000000001000000000000 %"
b1000000000000001000000000000 Z"
b11111111111111111111001100101000 {
b11111111111101000000001100100000 y
0$$
b1 Y"
b0 M"
0G"
b1000000000000001000000000000 o
b1000000000000001000000000000 q"
b1000000000000001000000000000 &#
b11111111111111111111101100100000 z
b11111111111111111111101100101000 x
b10110010000001000000000000000000 w
0I
0d
01
0^
b0 _
b0 q
b0 5$
b10011 s
b0 }
b1000 p
b1000 !#
b1011001 |
b1011001 n"
0{#
b0 :$
b10 W"
b10110010000001000000010000010011 J"
0c
b1001 K"
b1010 9
b0 9$
b0 w#
1J
0D
1:
1h
1g
1j
15
#570000
05
#575000
0g
0j
15
#580000
05
#585000
0:
0h
1g
1j
15
#590000
05
#595000
0g
0j
15
#600000
05
#605000
b11111111110010011100010000000000 N"
b100000000000000010101111100011111111110010011100010000000000 t
b100000000000000010101111100011111111110010011100010000000000 `"
b100000000000000010101111100011111111110010011100010000000000 u
b100000000000000010101111100011111111110010011100010000000000 a"
b1000000000000000011001000000 #"
b1000000000000000011001000000 m"
b1011 y"
b100000 z"
b1111111111111111111111111101100011111111110010011100010000000000 v
b1111111111111111111111111101100011111111110010011100010000000000 b"
b1000000000000000101100100000 ["
b1000000000000000101100100000 %"
b1000000000000000101100100000 Z"
b1000000000000000101100100000 o
b1000000000000000101100100000 q"
b1000000000000000101100100000 &#
b1010 K"
b0 W"
b1000000000000000000000001000 P"
b1000000000000000101100100000 U"
b1000000000000000101100100000 $#
1V"
b1011 9
1:
1h
1g
1j
15
#610000
05
#615000
0g
0j
15
#620000
05
#625000
0:
0h
1g
1j
15
#630000
05
#635000
0g
0j
15
#640000
05
#645000
1d
b10 o#
1I
b1000000000000000000000001000 K
b1000000000000000000000001000 n#
b1000000000000000000000001000 /$
1$$
b1 :$
1{#
b1 W"
b1000000000000000000000001000 2
b1000000000000000000000001000 ;
b1000000000000000000000001000 <
b1000000000000000000000001000 '#
b1000000000000000000000001000 e
b1000000000000000000000001000 Q"
b1000000000000000000000001000 x#
1c
0V"
b1011 K"
b1100 9
1:
1h
1g
1j
15
#650000
05
#655000
0g
0j
15
#660000
05
#665000
0:
0h
1g
1j
15
#670000
05
#675000
0g
0j
15
#680000
05
#685000
0d
b10 !
b1100 K"
b1101 9
b1 w#
0J
b10 (
b10 C
b10 u#
b1 9$
1:
1h
1g
1j
15
#690000
05
#695000
0g
0j
15
#700000
05
#705000
1%
1'
1$
0:
0h
1g
1j
15
#710000
b1000000000000001010010110111 8
b1000000000000001010010110111 A
b1000000000000001010010110111 j#
1#
05
#715000
0g
0j
15
#720000
05
#725000
b11111111111111111111111110110111 M"
11
1^
b1000000000000001010010110111 _
b1000000000000001010010110111 q
b1000000000000001010010110111 5$
b0 :$
b1101 K"
b1110 9
b10 w#
1D
b1000000000000001010010110111 E
b1000000000000001010010110111 s#
b1000000000000001010010110111 &$
1:
1h
1g
1j
15
#730000
b0 8
b0 A
b0 j#
0#
05
#735000
0g
0j
15
#740000
05
#745000
0%
0'
0$
0:
0h
1g
1j
15
#750000
05
#755000
0g
0j
15
#760000
05
#765000
b0 t
b0 `"
b0 o#
b0 u
b0 a"
b10000000 #"
b10000000 m"
b10000000 ]"
b10000000 $"
b10000000 \"
b0 K
b0 n#
b0 /$
b0 w"
b0 y"
b0 z"
b0 v
b0 b"
b0 ["
b0 %"
b0 Z"
b100010001000 {
b1000010000000 y
0$$
b11 Y"
b0 M"
b0 N"
b0 o
b0 q"
b0 &#
b10000000 z
b10001001 x
b1000000000000001000000000000 w
0I
0d
01
0^
b0 _
b0 q
b0 5$
b110111 s
b1001 r
b1 }
b0 p
b0 !#
b100 |
b100 n"
0{#
b0 :$
b1110 K"
b10 W"
b1000000000000001010010110111 J"
0c
b1111 9
b0 w#
1J
0D
b0 9$
1:
1h
1g
1j
15
#770000
05
#775000
0g
0j
15
#780000
05
#785000
0:
0h
1g
1j
15
#790000
05
#795000
0g
0j
15
#800000
05
#805000
b0 W"
b1000000000000000000000001100 P"
b1000000000000001000000000000 U"
b1000000000000001000000000000 $#
b1001 T"
b1001 ##
1V"
b1111 K"
b10000 9
1:
1h
1g
1j
15
#810000
05
#815000
0g
0j
15
#820000
05
#825000
0:
0h
1g
1j
15
#830000
05
#835000
0g
0j
15
#840000
05
#845000
1d
b11 o#
1I
b1000000000000000000000001100 K
b1000000000000000000000001100 n#
b1000000000000000000000001100 /$
1$$
b1 :$
1{#
b10000 K"
b1 W"
b1000000000000000000000001100 2
b1000000000000000000000001100 ;
b1000000000000000000000001100 <
b1000000000000000000000001100 '#
b1000000000000000000000001100 e
b1000000000000000000000001100 Q"
b1000000000000000000000001100 x#
1c
0V"
b10001 9
1:
1h
1g
1j
15
#850000
05
#855000
0g
0j
15
#860000
05
#865000
0:
0h
1g
1j
15
#870000
05
#875000
0g
0j
15
#880000
05
