sim/tb_top.vcd
$date
	Wed Apr 15 13:51:03 2026
$end
$version
	Icarus Verilog
$end
$timescale
	1ps
$end
$scope module tb_top $end
$var wire 1 ! jtag_tdo $end
$var wire 11 " sram_word_addr [10:0] $end
$var wire 1 # sram_wen $end
$var wire 1 $ sram_ren $end
$var wire 1 % sram_prechg $end
$var wire 1 & sram_en $end
$var wire 32 ' sram_din [31:0] $end
$var wire 1 ( sram_den $end
$var wire 3 ) sram_col_addr [2:0] $end
$var wire 8 * sram_addr [7:0] $end
$var wire 8 + rom_wl_addr [7:0] $end
$var wire 2 , rom_pattern [1:0] $end
$var wire 1 - rom_en $end
$var wire 4 . rom_col_addr [3:0] $end
$var wire 1 / debug_resp_valid $end
$var wire 32 0 debug_pc [31:0] $end
$var parameter 11 1 DONE_WORD_ADDR $end
$var parameter 11 2 RESULT_WORD_ADDR $end
$var reg 1 3 pad_clk $end
$var reg 32 4 rom_rdata [31:0] $end
$var reg 1 5 rst_n $end
$var reg 32 6 sram_dout [31:0] $end
$var integer 32 7 cycle_count [31:0] $end
$scope module u_dut $end
$var wire 32 8 debug_pc [31:0] $end
$var wire 1 / debug_resp_valid $end
$var wire 32 9 jtag_req_addr [31:0] $end
$var wire 1 : jtag_req_valid $end
$var wire 32 ; jtag_req_wdata [31:0] $end
$var wire 1 < jtag_req_wen $end
$var wire 4 = jtag_req_wmask [3:0] $end
$var wire 1 > jtag_tck $end
$var wire 1 ? jtag_tdi $end
$var wire 1 ! jtag_tdo $end
$var wire 1 @ jtag_tms $end
$var wire 1 3 pad_clk $end
$var wire 32 A rom_rdata [31:0] $end
$var wire 1 5 rst_n $end
$var wire 32 B sram_dout [31:0] $end
$var wire 1 # sram_wen $end
$var wire 1 $ sram_ren $end
$var wire 1 % sram_prechg $end
$var wire 1 & sram_en $end
$var wire 32 C sram_din [31:0] $end
$var wire 1 ( sram_den $end
$var wire 3 D sram_col_addr [2:0] $end
$var wire 1 E sram_bus_resp_valid $end
$var wire 32 F sram_bus_resp_rdata [31:0] $end
$var wire 4 G sram_bus_req_wmask [3:0] $end
$var wire 1 H sram_bus_req_wen $end
$var wire 32 I sram_bus_req_wdata [31:0] $end
$var wire 1 J sram_bus_req_valid $end
$var wire 1 K sram_bus_req_ready $end
$var wire 32 L sram_bus_req_addr [31:0] $end
$var wire 8 M sram_addr [7:0] $end
$var wire 8 N rom_wl_addr [7:0] $end
$var wire 1 - rom_en $end
$var wire 4 O rom_col_addr [3:0] $end
$var wire 1 P rom_bus_resp_valid $end
$var wire 32 Q rom_bus_resp_rdata [31:0] $end
$var wire 1 R rom_bus_req_wen $end
$var wire 1 S rom_bus_req_valid $end
$var wire 1 T rom_bus_req_ready $end
$var wire 32 U rom_bus_req_addr [31:0] $end
$var wire 1 V jtag_resp_valid $end
$var wire 32 W jtag_resp_rdata [31:0] $end
$var wire 1 X jtag_req_ready $end
$var wire 1 Y core_rst_n $end
$var wire 1 Z core_resp_valid $end
$var wire 32 [ core_resp_rdata [31:0] $end
$var wire 4 \ core_req_wmask [3:0] $end
$var wire 1 ] core_req_wen $end
$var wire 32 ^ core_req_wdata [31:0] $end
$var wire 1 _ core_req_valid $end
$var wire 1 ` core_req_ready $end
$var wire 32 a core_req_addr [31:0] $end
$var wire 1 b clk_50 $end
$var wire 1 c clk_100 $end
$scope module u_clk_div $end
$var wire 1 c clk_100 $end
$var wire 1 3 clk_200 $end
$var wire 1 b clk_50 $end
$var wire 1 5 rst_n $end
$var reg 1 d div2_reg $end
$var reg 1 e div4_reg $end
$upscope $end
$scope module u_core $end
$var wire 4 f alu_op [3:0] $end
$var wire 1 b clk $end
$var wire 1 Y rst_n $end
$var wire 32 g rs2_data [31:0] $end
$var wire 5 h rs2 [4:0] $end
$var wire 32 i rs1_data [31:0] $end
$var wire 5 j rs1 [4:0] $end
$var wire 1 Z resp_valid $end
$var wire 32 k resp_rdata [31:0] $end
$var wire 1 ` req_ready $end
$var wire 5 l rd [4:0] $end
$var wire 7 m opcode [6:0] $end
$var wire 32 n imm_u [31:0] $end
$var wire 32 o imm_s [31:0] $end
$var wire 32 p imm_j [31:0] $end
$var wire 32 q imm_i [31:0] $end
$var wire 32 r imm_b [31:0] $end
$var wire 7 s funct7 [6:0] $end
$var wire 3 t funct3 [2:0] $end
$var wire 32 u dp_result [31:0] $end
$var wire 1 v dp_ready $end
$var wire 1 w alu_zero $end
$var wire 32 x alu_result [31:0] $end
$var wire 32 y alu_b [31:0] $end
$var wire 32 z alu_a [31:0] $end
$var parameter 4 { ALU_ADD $end
$var parameter 4 | ALU_AND $end
$var parameter 4 } ALU_MUL $end
$var parameter 4 ~ ALU_MULH $end
$var parameter 4 !" ALU_MULHSU $end
$var parameter 4 "" ALU_MULHU $end
$var parameter 4 #" ALU_OR $end
$var parameter 4 $" ALU_SLL $end
$var parameter 4 %" ALU_SLT $end
$var parameter 4 &" ALU_SLTU $end
$var parameter 4 '" ALU_SRA $end
$var parameter 4 (" ALU_SRL $end
$var parameter 4 )" ALU_SUB $end
$var parameter 4 *" ALU_XOR $end
$var parameter 7 +" OP_ARITH $end
$var parameter 7 ," OP_ARITHI $end
$var parameter 7 -" OP_AUIPC $end
$var parameter 7 ." OP_BRANCH $end
$var parameter 7 /" OP_CUSTOM0 $end
$var parameter 7 0" OP_FENCE $end
$var parameter 7 1" OP_JAL $end
$var parameter 7 2" OP_JALR $end
$var parameter 7 3" OP_LOAD $end
$var parameter 7 4" OP_LUI $end
$var parameter 7 5" OP_STORE $end
$var parameter 7 6" OP_SYSTEM $end
$var parameter 32 7" RESET_VEC $end
$var parameter 3 8" S_EXECUTE $end
$var parameter 3 9" S_FETCH $end
$var parameter 3 :" S_FETCH_W $end
$var parameter 3 ;" S_MEM $end
$var parameter 3 <" S_MEM_W $end
$var reg 1 =" branch_taken $end
$var reg 4 >" decoded_alu_op [3:0] $end
$var reg 1 ?" dp_valid $end
$var reg 32 @" instr [31:0] $end
$var reg 32 A" mcycle [31:0] $end
$var reg 32 B" mem_addr_reg [31:0] $end
$var reg 32 C" mem_result [31:0] $end
$var reg 32 D" pc [31:0] $end
$var reg 32 E" req_addr [31:0] $end
$var reg 1 _ req_valid $end
$var reg 32 F" req_wdata [31:0] $end
$var reg 1 ] req_wen $end
$var reg 4 G" req_wmask [3:0] $end
$var reg 5 H" rf_wr_addr [4:0] $end
$var reg 32 I" rf_wr_data [31:0] $end
$var reg 1 J" rf_wr_en $end
$var reg 3 K" state [2:0] $end
$var reg 32 L" store_data [31:0] $end
$var reg 4 M" store_mask [3:0] $end
$scope module u_alu $end
$var wire 32 N" a [31:0] $end
$var wire 32 O" a_signed [31:0] $end
$var wire 32 P" b [31:0] $end
$var wire 32 Q" b_signed [31:0] $end
$var wire 4 R" op [3:0] $end
$var wire 1 w zero $end
$var wire 5 S" shamt [4:0] $end
$var wire 64 T" mul_uu [63:0] $end
$var wire 64 U" mul_su [63:0] $end
$var wire 64 V" mul_ss [63:0] $end
$var parameter 4 W" ALU_ADD $end
$var parameter 4 X" ALU_AND $end
$var parameter 4 Y" ALU_MUL $end
$var parameter 4 Z" ALU_MULH $end
$var parameter 4 [" ALU_MULHSU $end
$var parameter 4 \" ALU_MULHU $end
$var parameter 4 ]" ALU_OR $end
$var parameter 4 ^" ALU_SLL $end
$var parameter 4 _" ALU_SLT $end
$var parameter 4 `" ALU_SLTU $end
$var parameter 4 a" ALU_SRA $end
$var parameter 4 b" ALU_SRL $end
$var parameter 4 c" ALU_SUB $end
$var parameter 4 d" ALU_XOR $end
$var reg 32 e" result [31:0] $end
$upscope $end
$scope module u_dp $end
$var wire 1 b clk $end
$var wire 7 f" funct7 [6:0] $end
$var wire 1 v ready $end
$var wire 32 g" result [31:0] $end
$var wire 1 ?" valid $end
$var wire 1 Y rst_n $end
$var wire 32 h" rs2_data [31:0] $end
$var wire 32 i" rs1_data [31:0] $end
$var wire 32 j" dot_sum [31:0] $end
$var wire 8 k" b3 [7:0] $end
$var wire 8 l" b2 [7:0] $end
$var wire 8 m" b1 [7:0] $end
$var wire 8 n" b0 [7:0] $end
$var wire 8 o" a3 [7:0] $end
$var wire 8 p" a2 [7:0] $end
$var wire 8 q" a1 [7:0] $end
$var wire 8 r" a0 [7:0] $end
$var parameter 7 s" ACC_READ $end
$var parameter 7 t" ACC_RST $end
$var parameter 7 u" DOTPROD $end
$var reg 32 v" acc [31:0] $end
$upscope $end
$scope module u_rf $end
$var wire 1 b clk $end
$var wire 5 w" rs1_addr [4:0] $end
$var wire 5 x" rs2_addr [4:0] $end
$var wire 5 y" wr_addr [4:0] $end
$var wire 32 z" wr_data [31:0] $end
$var wire 1 J" wr_en $end
$var wire 1 Y rst_n $end
$var wire 32 {" rs2_data [31:0] $end
$var wire 32 |" rs1_data [31:0] $end
$upscope $end
$upscope $end
$scope module u_jtag $end
$var wire 1 b clk $end
$var wire 1 Y core_rst_n $end
$var wire 1 > jtag_tck $end
$var wire 1 ? jtag_tdi $end
$var wire 1 ! jtag_tdo $end
$var wire 1 @ jtag_tms $end
$var wire 32 }" req_addr [31:0] $end
$var wire 1 : req_valid $end
$var wire 32 ~" req_wdata [31:0] $end
$var wire 1 < req_wen $end
$var wire 4 !# req_wmask [3:0] $end
$var wire 1 5 rst_n $end
$var wire 1 V resp_valid $end
$var wire 32 "# resp_rdata [31:0] $end
$var wire 1 X req_ready $end
$upscope $end
$scope module u_rom $end
$var wire 1 b clk $end
$var wire 1 3 clk_fast $end
$var wire 32 ## rom_rdata [31:0] $end
$var wire 1 5 rst_n $end
$var wire 1 S req_valid $end
$var wire 32 $# req_addr [31:0] $end
$var parameter 2 %# ACCESS $end
$var parameter 2 &# IDLE $end
$var parameter 2 '# RESPOND $end
$var reg 1 T req_ready $end
$var reg 32 (# resp_rdata [31:0] $end
$var reg 1 P resp_valid $end
$var reg 4 )# rom_col_addr [3:0] $end
$var reg 1 - rom_en $end
$var reg 8 *# rom_wl_addr [7:0] $end
$var reg 2 +# state [1:0] $end
$upscope $end
$scope module u_sram $end
$var wire 1 b clk $end
$var wire 1 5 rst_n $end
$var wire 32 ,# sram_dout [31:0] $end
$var wire 8 -# row_addr [7:0] $end
$var wire 4 .# req_wmask [3:0] $end
$var wire 1 H req_wen $end
$var wire 32 /# req_wdata [31:0] $end
$var wire 1 J req_valid $end
$var wire 32 0# req_addr [31:0] $end
$var wire 3 1# col_addr [2:0] $end
$var parameter 2 2# ACCESS $end
$var parameter 2 3# IDLE $end
$var parameter 2 4# RESPOND $end
$var reg 1 K req_ready $end
$var reg 32 5# resp_rdata [31:0] $end
$var reg 1 E resp_valid $end
$var reg 8 6# sram_addr [7:0] $end
$var reg 3 7# sram_col_addr [2:0] $end
$var reg 1 ( sram_den $end
$var reg 32 8# sram_din [31:0] $end
$var reg 1 & sram_en $end
$var reg 1 % sram_prechg $end
$var reg 1 $ sram_ren $end
$var reg 1 # sram_wen $end
$var reg 2 9# state [1:0] $end
$upscope $end
$scope module u_xbar $end
$var wire 1 b clk $end
$var wire 32 :# m0_req_addr [31:0] $end
$var wire 1 ` m0_req_ready $end
$var wire 1 _ m0_req_valid $end
$var wire 32 ;# m0_req_wdata [31:0] $end
$var wire 1 ] m0_req_wen $end
$var wire 4 <# m0_req_wmask [3:0] $end
$var wire 1 Z m0_resp_valid $end
$var wire 1 =# m0_wants_s0 $end
$var wire 1 ># m0_wants_s1 $end
$var wire 32 ?# m1_req_addr [31:0] $end
$var wire 1 X m1_req_ready $end
$var wire 1 : m1_req_valid $end
$var wire 32 @# m1_req_wdata [31:0] $end
$var wire 1 < m1_req_wen $end
$var wire 4 A# m1_req_wmask [3:0] $end
$var wire 1 V m1_resp_valid $end
$var wire 1 B# m1_wants_s0 $end
$var wire 1 C# m1_wants_s1 $end
$var wire 1 5 rst_n $end
$var wire 1 D# s0_m0_grant $end
$var wire 1 E# s0_m1_grant $end
$var wire 1 K s0_req_ready $end
$var wire 32 F# s0_resp_rdata [31:0] $end
$var wire 1 E s0_resp_valid $end
$var wire 1 G# s1_m0_grant $end
$var wire 1 H# s1_m1_grant $end
$var wire 1 T s1_req_ready $end
$var wire 32 I# s1_resp_rdata [31:0] $end
$var wire 1 P s1_resp_valid $end
$var wire 4 J# s1_req_wmask [3:0] $end
$var wire 1 R s1_req_wen $end
$var wire 32 K# s1_req_wdata [31:0] $end
$var wire 1 S s1_req_valid $end
$var wire 32 L# s1_req_addr [31:0] $end
$var wire 4 M# s0_req_wmask [3:0] $end
$var wire 1 H s0_req_wen $end
$var wire 32 N# s0_req_wdata [31:0] $end
$var wire 1 J s0_req_valid $end
$var wire 32 O# s0_req_addr [31:0] $end
$var wire 1 P# m1_sel_sram $end
$var wire 1 Q# m1_sel_rom $end
$var wire 32 R# m1_resp_rdata [31:0] $end
$var wire 1 S# m0_sel_sram $end
$var wire 1 T# m0_sel_rom $end
$var wire 32 U# m0_resp_rdata [31:0] $end
$var parameter 2 V# IDLE $end
$var parameter 2 W# M0_ACTIVE $end
$var parameter 2 X# M1_ACTIVE $end
$var reg 2 Y# s0_owner [1:0] $end
$var reg 2 Z# s0_owner_next [1:0] $end
$var reg 2 [# s1_owner [1:0] $end
$var reg 2 \# s1_owner_next [1:0] $end
$upscope $end
$upscope $end
$scope begin wait_done $end
$upscope $end
$scope begin watchdog $end
$upscope $end
$upscope $end
$enddefinitions $end
$comment Show the parameter values. $end
$dumpall
b10 X#
b1 W#
b0 V#
b10 4#
b0 3#
b1 2#
b10 '#
b0 &#
b1 %#
b0 u"
b1 t"
b10 s"
b100 d"
b1 c"
b110 b"
b111 a"
b1001 `"
b1000 _"
b101 ^"
b11 ]"
b1101 \"
b1100 ["
b1011 Z"
b1010 Y"
b10 X"
b0 W"
b100 <"
b11 ;"
b1 :"
b0 9"
b10 8"
b1000000000000000000000000000 7"
b1110011 6"
b100011 5"
b110111 4"
b11 3"
b1100111 2"
b1101111 1"
b1111 0"
b1011 /"
b1100011 ."
b10111 -"
b10011 ,"
b110011 +"
b100 *"
b1 )"
b110 ("
b111 '"
b1001 &"
b1000 %"
b101 $"
b11 #"
b1101 ""
b1100 !"
b1011 ~
b1010 }
b10 |
b0 {
b1011001000 2
b1011001010 1
$end
#0
$dumpvars
b0 \#
b0 [#
b0 Z#
b0 Y#
b0 U#
0T#
0S#
b0 R#
0Q#
0P#
b0 O#
b0 N#
b0 M#
b0 L#
b0 K#
b0 J#
b0 I#
0H#
0G#
b0 F#
0E#
0D#
0C#
0B#
b0 A#
b0 @#
b0 ?#
0>#
0=#
b0 <#
b0 ;#
b0 :#
b0 9#
b0 8#
b0 7#
b0 6#
b0 5#
b0 1#
b0 0#
b0 /#
b0 .#
b0 -#
b0 ,#
b0 +#
b0 *#
b0 )#
b0 (#
b0 $#
b0 ##
b0 "#
b0 !#
b0 ~"
b0 }"
b0 |"
b0 {"
b0 z"
b0 y"
b0 x"
b0 w"
b0 v"
b0 r"
b0 q"
b0 p"
b0 o"
b0 n"
b0 m"
b0 l"
b0 k"
b0 j"
b0 i"
b0 h"
b0 g"
b0 f"
b0 e"
b0 V"
b0 U"
b0 T"
b0 S"
b0 R"
b0 Q"
b0 P"
b0 O"
b0 N"
b1 M"
b0 L"
b0 K"
0J"
b0 I"
b0 H"
b0 G"
b0 F"
b0 E"
b1000000000000000000000000000 D"
b0 C"
b0 B"
b0 A"
b10011 @"
0?"
b0 >"
1="
b0 z
b0 y
b0 x
1w
0v
b0 u
b0 t
b0 s
b0 r
b0 q
b0 p
b0 o
b0 n
b10011 m
b0 l
b0 k
b0 j
b0 i
b0 h
b0 g
b0 f
0e
0d
0c
0b
b0 a
0`
0_
b0 ^
0]
b0 \
b0 [
0Z
0Y
0X
b0 W
0V
b0 U
1T
0S
0R
b0 Q
0P
b0 O
b0 N
b0 M
b0 L
1K
0J
b0 I
0H
b0 G
b0 F
0E
b0 D
b0 C
b0 B
b0 A
0@
0?
0>
b0 =
0<
b0 ;
0:
b0 9
b0 8
b0 7
b0 6
05
b0 4
03
b0 0
0/
b0 .
0-
b0 ,
b0 +
b0 *
b0 )
0(
b0 '
0&
0%
0$
0#
b0 "
0!
$end
#2500
13
#5000
03
#7500
13
#10000
03
#12500
13
#15000
03
#17500
13
#20000
03
#22500
13
#25000
03
#27500
13
#30000
03
#32500
13
#35000
03
#37500
13
#40000
03
#42500
13
#45000
03
#47500
13
#50000
03
#52500
13
#55000
03
#57500
13
#60000
03
#62500
13
#65000
03
#67500
13
#70000
03
#72500
13
#75000
03
#77500
13
#80000
03
#82500
13
#85000
03
#87500
13
#90000
03
#92500
13
#95000
03
#97500
13
#100000
03
#102500
13
#105000
03
#107500
13
#110000
03
#112500
13
#115000
03
#117500
13
#120000
03
#122500
13
#125000
03
#127500
13
#130000
03
#132500
13
#135000
03
#137500
13
#140000
03
#142500
13
#145000
03
#147500
13
#150000
03
#152500
13
#155000
03
#157500
13
#160000
03
#162500
13
#165000
03
#167500
13
#170000
03
#172500
13
#175000
03
#177500
13
#180000
03
#182500
13
#185000
03
#187500
13
#190000
03
#192500
13
#195000
03
#197500
13
#200000
03
1Y
15
#202500
1`
1J
b1000000000000000000000000000 L
b1000000000000000000000000000 0#
b1000000000000000000000000000 O#
1D#
b1 Z#
1=#
1S#
b1 K"
b1000000000000000000000000000 0
b1000000000000000000000000000 8
b1000000000000000000000000000 a
b1000000000000000000000000000 E"
b1000000000000000000000000000 :#
1_
b1 A"
b1 7
1b
1e
1c
1d
13
#205000
03
#207500
0c
0d
13
#210000
03
#212500
0b
0e
1c
1d
13
#215000
03
#217500
0c
0d
13
#220000
03
#222500
0`
b10 A"
b10 7
b1 Y#
b1 9#
0K
1$
1b
1e
1c
1d
13
#225000
03
#227500
0c
0d
13
#230000
03
#232500
b1000000000000001010000110111 6
b1000000000000001010000110111 B
b1000000000000001010000110111 ,#
1&
1(
1%
0b
0e
1c
1d
13
#235000
03
#237500
0c
0d
13
#240000
03
#242500
b110111 C"
1/
1Z
b1000000000000001010000110111 [
b1000000000000001010000110111 k
b1000000000000001010000110111 U#
b0 6
b0 B
b0 ,#
b0 Z#
b11 A"
b11 7
b10 9#
0$
1E
b1000000000000001010000110111 F
b1000000000000001010000110111 5#
b1000000000000001010000110111 F#
1b
1e
1c
1d
13
#245000
03
#247500
0c
0d
13
#250000
03
#252500
0&
0(
0%
0b
0e
1c
1d
13
#255000
03
#257500
0c
0d
13
#260000
03
#262500
0w
b10000000 x
b10000000 e"
b10000000 Q"
b10000000 y
b10000000 P"
b0 L
b0 0#
b0 O#
b10001000 r
b1000010000000 p
0D#
b11 M"
b0 C"
0="
b10000000 q
b10001000 o
b1000000000000001000000000000 n
0J
0`
0/
0Z
b0 [
b0 k
b0 U#
b110111 m
b1000 l
b1 t
b100 s
b100 f"
0=#
b0 Z#
b100 A"
b10 K"
b1000000000000001010000110111 @"
0_
b100 7
b0 Y#
b0 9#
1K
0E
1b
1e
1c
1d
13
#265000
03
#267500
0c
0d
13
#270000
03
#272500
0b
0e
1c
1d
13
#275000
03
#277500
0c
0d
13
#280000
03
#282500
b0 K"
b1000000000000000000000000100 D"
b1000000000000001000000000000 I"
b1000000000000001000000000000 z"
b1000 H"
b1000 y"
1J"
b101 A"
b101 7
1b
1e
1c
1d
13
#285000
03
#287500
0c
0d
13
#290000
03
#292500
0b
0e
1c
1d
13
#295000
03
#297500
0c
0d
13
#300000
03
#302500
1`
b1 1#
1J
b1000000000000000000000000100 L
b1000000000000000000000000100 0#
b1000000000000000000000000100 O#
1D#
b1 Z#
1=#
b110 A"
b1 K"
b1000000000000000000000000100 0
b1000000000000000000000000100 8
b1000000000000000000000000100 a
b1000000000000000000000000100 E"
b1000000000000000000000000100 :#
1_
0J"
b110 7
1b
1e
1c
1d
13
#305000
03
#307500
0c
0d
13
#310000
03
#312500
0b
0e
1c
1d
13
#315000
03
#317500
0c
0d
13
#320000
03
#322500
0`
b1 "
b111 A"
b111 7
b1 9#
0K
1$
b1 )
b1 D
b1 7#
b1 Y#
1b
1e
1c
1d
13
#325000
03
#327500
0c
0d
13
#330000
03
#332500
b10110010000001000000010000010011 6
b10110010000001000000010000010011 B
b10110010000001000000010000010011 ,#
1&
1(
1%
0b
0e
1c
1d
13
#335000
03
#337500
0c
0d
13
#340000
03
#342500
b10000010011 C"
1/
1Z
b10110010000001000000010000010011 [
b10110010000001000000010000010011 k
b10110010000001000000010000010011 U#
b0 6
b0 B
b0 ,#
b0 Z#
b1000 A"
b1000 7
b10 9#
0$
1E
b10110010000001000000010000010011 F
b10110010000001000000010000010011 5#
b10110010000001000000010000010011 F#
1b
1e
1c
1d
13
#345000
03
#347500
0c
0d
13
#350000
03
#352500
0&
0(
0%
0b
0e
1c
1d
13
#355000
03
#357500
0c
0d
13
#360000
03
#362500
b100000000000000011111101100011111111101100100000000000000000 T"
b0 1#
b100000000000000011111101100011111111101100100000000000000000 U"
0w
b1000000000000000101100100000 x
b1000000000000000101100100000 e"
b11111111111111111111101100100000 Q"
b11111111111111111111101100100000 y
b11111111111111111111101100100000 P"
b0 L
b0 0#
b0 O#
b1000 o"
b0 p"
b10000 q"
b0 j"
b0 r"
b1111111111111111111111111101100011111111101100100000000000000000 V"
b1000000000000001000000000000 O"
b1000000000000001000000000000 z
b1000000000000001000000000000 N"
b11111111111111111111001100101000 r
b11111111111101000000001100100000 p
0D#
b1 M"
b0 C"
0="
b1000000000000001000000000000 i
b1000000000000001000000000000 i"
b1000000000000001000000000000 |"
b11111111111111111111101100100000 q
b11111111111111111111101100101000 o
b10110010000001000000000000000000 n
0J
0`
0/
0Z
b0 [
b0 k
b0 U#
b10011 m
b0 t
b1000 j
b1000 w"
b1011001 s
b1011001 f"
0=#
b0 Z#
b10 K"
b10110010000001000000010000010011 @"
0_
b1001 A"
b1001 7
b0 9#
1K
0E
b0 Y#
1b
1e
1c
1d
13
#365000
03
#367500
0c
0d
13
#370000
03
#372500
0b
0e
1c
1d
13
#375000
03
#377500
0c
0d
13
#380000
03
#382500
b100000000000000010101111100011111111110010011100010000000000 T"
b100000000000000010101111100011111111110010011100010000000000 U"
b1000000000000000011001000000 x
b1000000000000000011001000000 e"
b1011 q"
b100000 r"
b1111111111111111111111111101100011111111110010011100010000000000 V"
b1000000000000000101100100000 O"
b1000000000000000101100100000 z
b1000000000000000101100100000 N"
b1000000000000000101100100000 i
b1000000000000000101100100000 i"
b1000000000000000101100100000 |"
b1010 A"
b0 K"
b1000000000000000000000001000 D"
b1000000000000000101100100000 I"
b1000000000000000101100100000 z"
1J"
b1010 7
1b
1e
1c
1d
13
#385000
03
#387500
0c
0d
13
#390000
03
#392500
0b
0e
1c
1d
13
#395000
03
#397500
0c
0d
13
#400000
03
#402500
1`
b10 1#
1J
b1000000000000000000000001000 L
b1000000000000000000000001000 0#
b1000000000000000000000001000 O#
1D#
b1 Z#
1=#
b1 K"
b1000000000000000000000001000 0
b1000000000000000000000001000 8
b1000000000000000000000001000 a
b1000000000000000000000001000 E"
b1000000000000000000000001000 :#
1_
0J"
b1011 A"
b1011 7
1b
1e
1c
1d
13
#405000
03
#407500
0c
0d
13
#410000
03
#412500
0b
0e
1c
1d
13
#415000
03
#417500
0c
0d
13
#420000
03
#422500
0`
b10 "
b1100 A"
b1100 7
b1 Y#
b1 9#
0K
1$
b10 )
b10 D
b10 7#
1b
1e
1c
1d
13
#425000
03
#427500
0c
0d
13
#430000
03
#432500
b1000000000000001010010110111 6
b1000000000000001010010110111 B
b1000000000000001010010110111 ,#
1&
1(
1%
0b
0e
1c
1d
13
#435000
03
#437500
0c
0d
13
#440000
03
#442500
b11111111111111111111111110110111 C"
1/
1Z
b1000000000000001010010110111 [
b1000000000000001010010110111 k
b1000000000000001010010110111 U#
b0 6
b0 B
b0 ,#
b0 Z#
b1101 A"
b1101 7
b10 9#
0$
1E
b1000000000000001010010110111 F
b1000000000000001010010110111 5#
b1000000000000001010010110111 F#
1b
1e
1c
1d
13
#445000
03
#447500
0c
0d
13
#450000
03
#452500
0&
0(
0%
0b
0e
1c
1d
13
#455000
03
#457500
0c
0d
13
#460000
03
#462500
b0 T"
b0 1#
b0 U"
b10000000 x
b10000000 e"
b10000000 Q"
b10000000 y
b10000000 P"
b0 L
b0 0#
b0 O#
b0 o"
b0 q"
b0 r"
b0 V"
b0 O"
b0 z
b0 N"
b100010001000 r
b1000010000000 p
0D#
b11 M"
b0 C"
b0 i
b0 i"
b0 |"
b10000000 q
b10001001 o
b1000000000000001000000000000 n
0J
0`
0/
0Z
b0 [
b0 k
b0 U#
b110111 m
b1001 l
b1 t
b0 j
b0 w"
b100 s
b100 f"
0=#
b0 Z#
b1110 A"
b10 K"
b1000000000000001010010110111 @"
0_
b1110 7
b0 Y#
b0 9#
1K
0E
1b
1e
1c
1d
13
#465000
03
#467500
0c
0d
13
#470000
03
#472500
0b
0e
1c
1d
13
#475000
03
#477500
0c
0d
13
#480000
03
#482500
b0 K"
b1000000000000000000000001100 D"
b1000000000000001000000000000 I"
b1000000000000001000000000000 z"
b1001 H"
b1001 y"
1J"
b1111 A"
b1111 7
1b
1e
1c
1d
13
#485000
03
#487500
0c
0d
13
#490000
03
#492500
0b
0e
1c
1d
13
#495000
03
#497500
0c
0d
13
#500000
03
#502500
1`
b11 1#
1J
b1000000000000000000000001100 L
b1000000000000000000000001100 0#
b1000000000000000000000001100 O#
1D#
b1 Z#
1=#
b10000 A"
b1 K"
b1000000000000000000000001100 0
b1000000000000000000000001100 8
b1000000000000000000000001100 a
b1000000000000000000000001100 E"
b1000000000000000000000001100 :#
1_
0J"
b10000 7
1b
1e
1c
1d
13
#505000
03
#507500
0c
0d
13
#510000
03
#512500
0b
0e
1c
1d
13
#515000
03
#517500
0c
0d
13
#520000
03
#522500
0`
b11 "
b10001 A"
b10001 7
b1 9#
0K
1$
b11 )
b11 D
b11 7#
b1 Y#
1b
1e
1c
1d
13
#525000
03
#527500
0c
0d
13
#530000
03
#532500
b10110010100001001000010010010011 6
b10110010100001001000010010010011 B
b10110010100001001000010010010011 ,#
1&
1(
1%
0b
0e
1c
1d
13
#535000
03
#537500
0c
0d
13
#540000
03
#542500
b11111111111111111000010010010011 C"
1/
1Z
b10110010100001001000010010010011 [
b10110010100001001000010010010011 k
b10110010100001001000010010010011 U#
b0 6
b0 B
b0 ,#
b0 Z#
b10010 A"
b10010 7
b10 9#
0$
1E
b10110010100001001000010010010011 F
b10110010100001001000010010010011 5#
b10110010100001001000010010010011 F#
1b
1e
1c
1d
13
#545000
03
#547500
0c
0d
13
#550000
03
#552500
0&
0(
0%
0b
0e
1c
1d
13
#555000
03
#557500
0c
0d
13
#560000
03
#562500
b100000000000000011111101100100111111101100101000000000000000 T"
b1000 S"
b0 1#
b100000000000000011111101100100111111101100101000000000000000 U"
0w
b1000000000000000101100101000 x
b1000000000000000101100101000 e"
b11111111111111111111101100101000 Q"
b11111111111111111111101100101000 y
b11111111111111111111101100101000 P"
b0 L
b0 0#
b0 O#
b1000 o"
b0 p"
b10000 q"
b0 r"
b1111111111111111111111111101100100111111101100101000000000000000 V"
b1000000000000001000000000000 O"
b1000000000000001000000000000 z
b1000000000000001000000000000 N"
b1000 k"
b0 l"
b1011 m"
b11110000 j"
b100000 n"
b11111111111111111111101100101000 r
b11111111111101001000001100101000 p
0D#
b1 M"
b100000 L"
b0 C"
0="
b1000000000000001000000000000 i
b1000000000000001000000000000 i"
b1000000000000001000000000000 |"
b1000000000000000101100100000 g
b1000000000000000101100100000 h"
b1000000000000000101100100000 {"
b11111111111111111111101100101000 q
b11111111111111111111101100101001 o
b10110010100001001000000000000000 n
0J
0`
0/
0Z
b0 [
b0 k
b0 U#
b10011 m
b0 t
b1001 j
b1001 w"
b1000 h
b1000 x"
b1011001 s
b1011001 f"
0=#
b0 Z#
b10 K"
b10110010100001001000010010010011 @"
0_
b10011 A"
b10011 7
b0 9#
1K
0E
b0 Y#
1b
1e
1c
1d
13
#565000
03
#567500
0c
0d
13
#570000
03
#572500
0b
0e
1c
1d
13
#575000
03
#577500
0c
0d
13
#580000
03
#582500
b100000000000000010110000000100111111110010011111011001000000 T"
b100000000000000010110000000100111111110010011111011001000000 U"
b1000000000000000011001010000 x
b1000000000000000011001010000 e"
b1011 q"
b10110111001 j"
b101000 r"
b1111111111111111111111111101100100111111110010011111011001000000 V"
b1000000000000000101100101000 O"
b1000000000000000101100101000 z
b1000000000000000101100101000 N"
b1000000000000000101100101000 i
b1000000000000000101100101000 i"
b1000000000000000101100101000 |"
b10100 A"
b0 K"
b1000000000000000000000010000 D"
b1000000000000000101100101000 I"
b1000000000000000101100101000 z"
1J"
b10100 7
1b
1e
1c
1d
13
#585000
03
#587500
0c
0d
13
#590000
03
#592500
0b
0e
1c
1d
13
#595000
03
#597500
0c
0d
13
#600000
03
#602500
1`
b100 1#
1J
b1000000000000000000000010000 L
b1000000000000000000000010000 0#
b1000000000000000000000010000 O#
1D#
b1 Z#
1=#
b1 K"
b1000000000000000000000010000 0
b1000000000000000000000010000 8
b1000000000000000000000010000 a
b1000000000000000000000010000 E"
b1000000000000000000000010000 :#
1_
0J"
b10101 A"
b10101 7
1b
1e
1c
1d
13
#605000
03
#607500
0c
0d
13
#610000
03
#612500
0b
0e
1c
1d
13
#615000
03
#617500
0c
0d
13
#620000
03
#622500
0`
b100 "
b10110 A"
b10110 7
b1 Y#
b1 9#
0K
1$
b100 )
b100 D
b100 7#
1b
1e
1c
1d
13
#625000
03
#627500
0c
0d
13
#630000
03
#632500
b1000000000000001100100110111 6
b1000000000000001100100110111 B
b1000000000000001100100110111 ,#
1&
1(
1%
0b
0e
1c
1d
13
#635000
03
#637500
0c
0d
13
#640000
03
