sim/tb_top.vcd
$date
	Thu Apr 16 19:02:25 2026
$end
$version
	Icarus Verilog
$end
$timescale
	1ps
$end
$scope module tb_top $end
$var wire 1 ! jtag_tdo $end
$var wire 11 " sram_word_addr [10:0] $end
$var wire 1 # sram_wen $end
$var wire 1 $ sram_ren $end
$var wire 1 % sram_prechg $end
$var wire 1 & sram_en $end
$var wire 32 ' sram_din [31:0] $end
$var wire 1 ( sram_den $end
$var wire 3 ) sram_col_addr [2:0] $end
$var wire 8 * sram_addr [7:0] $end
$var wire 1 + rom_wlen $end
$var wire 8 , rom_wl_addr [7:0] $end
$var wire 1 - rom_saen $end
$var wire 1 . rom_preen $end
$var wire 2 / rom_pattern [1:0] $end
$var wire 4 0 rom_col_in [3:0] $end
$var wire 1 1 debug_resp_valid $end
$var wire 32 2 debug_pc [31:0] $end
$var parameter 11 3 DONE_WORD_ADDR $end
$var parameter 11 4 RESULT_WORD_ADDR $end
$var reg 1 5 pad_clk $end
$var reg 32 6 rom_dout [31:0] $end
$var reg 1 7 rst_n $end
$var reg 32 8 sram_dout [31:0] $end
$var integer 32 9 cycle_count [31:0] $end
$scope module u_dut $end
$var wire 32 : debug_pc [31:0] $end
$var wire 1 1 debug_resp_valid $end
$var wire 32 ; jtag_req_addr [31:0] $end
$var wire 1 < jtag_req_valid $end
$var wire 32 = jtag_req_wdata [31:0] $end
$var wire 1 > jtag_req_wen $end
$var wire 4 ? jtag_req_wmask [3:0] $end
$var wire 1 @ jtag_tck $end
$var wire 1 A jtag_tdi $end
$var wire 1 ! jtag_tdo $end
$var wire 1 B jtag_tms $end
$var wire 1 5 pad_clk $end
$var wire 32 C rom_dout [31:0] $end
$var wire 1 7 rst_n $end
$var wire 32 D sram_dout [31:0] $end
$var wire 1 # sram_wen $end
$var wire 1 $ sram_ren $end
$var wire 1 % sram_prechg $end
$var wire 1 & sram_en $end
$var wire 32 E sram_din [31:0] $end
$var wire 1 ( sram_den $end
$var wire 3 F sram_col_addr [2:0] $end
$var wire 1 G sram_bus_resp_valid $end
$var wire 32 H sram_bus_resp_rdata [31:0] $end
$var wire 4 I sram_bus_req_wmask [3:0] $end
$var wire 1 J sram_bus_req_wen $end
$var wire 32 K sram_bus_req_wdata [31:0] $end
$var wire 1 L sram_bus_req_valid $end
$var wire 1 M sram_bus_req_ready $end
$var wire 32 N sram_bus_req_addr [31:0] $end
$var wire 8 O sram_addr [7:0] $end
$var wire 1 + rom_wlen $end
$var wire 8 P rom_wl_addr [7:0] $end
$var wire 1 - rom_saen $end
$var wire 1 . rom_preen $end
$var wire 4 Q rom_col_in [3:0] $end
$var wire 1 R rom_bus_resp_valid $end
$var wire 32 S rom_bus_resp_rdata [31:0] $end
$var wire 1 T rom_bus_req_wen $end
$var wire 1 U rom_bus_req_valid $end
$var wire 1 V rom_bus_req_ready $end
$var wire 32 W rom_bus_req_addr [31:0] $end
$var wire 1 X jtag_resp_valid $end
$var wire 32 Y jtag_resp_rdata [31:0] $end
$var wire 1 Z jtag_req_ready $end
$var wire 1 [ core_rst_n $end
$var wire 1 \ core_resp_valid $end
$var wire 32 ] core_resp_rdata [31:0] $end
$var wire 4 ^ core_req_wmask [3:0] $end
$var wire 1 _ core_req_wen $end
$var wire 32 ` core_req_wdata [31:0] $end
$var wire 1 a core_req_valid $end
$var wire 1 b core_req_ready $end
$var wire 32 c core_req_addr [31:0] $end
$var wire 1 d clk_50 $end
$var wire 1 e clk_100 $end
$scope module u_clk_div $end
$var wire 1 e clk_100 $end
$var wire 1 5 clk_200 $end
$var wire 1 d clk_50 $end
$var wire 1 7 rst_n $end
$var reg 1 f div2_reg $end
$var reg 1 g div4_reg $end
$upscope $end
$scope module u_core $end
$var wire 4 h alu_op [3:0] $end
$var wire 1 d clk $end
$var wire 1 i is_mul_op $end
$var wire 1 [ rst_n $end
$var wire 32 j rs2_data [31:0] $end
$var wire 5 k rs2 [4:0] $end
$var wire 32 l rs1_data [31:0] $end
$var wire 5 m rs1 [4:0] $end
$var wire 1 \ resp_valid $end
$var wire 32 n resp_rdata [31:0] $end
$var wire 1 b req_ready $end
$var wire 5 o rd [4:0] $end
$var wire 7 p opcode [6:0] $end
$var wire 32 q imm_u [31:0] $end
$var wire 32 r imm_s [31:0] $end
$var wire 32 s imm_j [31:0] $end
$var wire 32 t imm_i [31:0] $end
$var wire 32 u imm_b [31:0] $end
$var wire 7 v funct7 [6:0] $end
$var wire 3 w funct3 [2:0] $end
$var wire 32 x dp_result [31:0] $end
$var wire 1 y dp_ready $end
$var wire 1 z alu_zero $end
$var wire 32 { alu_result [31:0] $end
$var wire 32 | alu_b [31:0] $end
$var wire 32 } alu_a [31:0] $end
$var parameter 4 ~ ALU_ADD $end
$var parameter 4 !" ALU_AND $end
$var parameter 4 "" ALU_MUL $end
$var parameter 4 #" ALU_MULH $end
$var parameter 4 $" ALU_MULHSU $end
$var parameter 4 %" ALU_MULHU $end
$var parameter 4 &" ALU_OR $end
$var parameter 4 '" ALU_SLL $end
$var parameter 4 (" ALU_SLT $end
$var parameter 4 )" ALU_SLTU $end
$var parameter 4 *" ALU_SRA $end
$var parameter 4 +" ALU_SRL $end
$var parameter 4 ," ALU_SUB $end
$var parameter 4 -" ALU_XOR $end
$var parameter 7 ." OP_ARITH $end
$var parameter 7 /" OP_ARITHI $end
$var parameter 7 0" OP_AUIPC $end
$var parameter 7 1" OP_BRANCH $end
$var parameter 7 2" OP_CUSTOM0 $end
$var parameter 7 3" OP_FENCE $end
$var parameter 7 4" OP_JAL $end
$var parameter 7 5" OP_JALR $end
$var parameter 7 6" OP_LOAD $end
$var parameter 7 7" OP_LUI $end
$var parameter 7 8" OP_STORE $end
$var parameter 7 9" OP_SYSTEM $end
$var parameter 32 :" RESET_VEC $end
$var parameter 3 ;" S_EXECUTE $end
$var parameter 3 <" S_FETCH $end
$var parameter 3 =" S_FETCH_W $end
$var parameter 3 >" S_MEM $end
$var parameter 3 ?" S_MEM_W $end
$var parameter 3 @" S_MUL_W $end
$var reg 1 A" branch_taken $end
$var reg 4 B" decoded_alu_op [3:0] $end
$var reg 1 C" dp_valid $end
$var reg 32 D" instr [31:0] $end
$var reg 32 E" mcycle [31:0] $end
$var reg 32 F" mem_addr_reg [31:0] $end
$var reg 32 G" mem_result [31:0] $end
$var reg 32 H" mul_result_reg [31:0] $end
$var reg 32 I" pc [31:0] $end
$var reg 32 J" req_addr [31:0] $end
$var reg 1 a req_valid $end
$var reg 32 K" req_wdata [31:0] $end
$var reg 1 _ req_wen $end
$var reg 4 L" req_wmask [3:0] $end
$var reg 5 M" rf_wr_addr [4:0] $end
$var reg 32 N" rf_wr_data [31:0] $end
$var reg 1 O" rf_wr_en $end
$var reg 3 P" state [2:0] $end
$var reg 32 Q" store_data [31:0] $end
$var reg 4 R" store_mask [3:0] $end
$scope module u_alu $end
$var wire 32 S" a [31:0] $end
$var wire 32 T" a_signed [31:0] $end
$var wire 32 U" b [31:0] $end
$var wire 32 V" b_signed [31:0] $end
$var wire 4 W" op [3:0] $end
$var wire 1 z zero $end
$var wire 5 X" shamt [4:0] $end
$var wire 64 Y" mul_uu [63:0] $end
$var wire 64 Z" mul_su [63:0] $end
$var wire 64 [" mul_ss [63:0] $end
$var parameter 4 \" ALU_ADD $end
$var parameter 4 ]" ALU_AND $end
$var parameter 4 ^" ALU_MUL $end
$var parameter 4 _" ALU_MULH $end
$var parameter 4 `" ALU_MULHSU $end
$var parameter 4 a" ALU_MULHU $end
$var parameter 4 b" ALU_OR $end
$var parameter 4 c" ALU_SLL $end
$var parameter 4 d" ALU_SLT $end
$var parameter 4 e" ALU_SLTU $end
$var parameter 4 f" ALU_SRA $end
$var parameter 4 g" ALU_SRL $end
$var parameter 4 h" ALU_SUB $end
$var parameter 4 i" ALU_XOR $end
$var reg 32 j" result [31:0] $end
$upscope $end
$scope module u_dp $end
$var wire 1 d clk $end
$var wire 7 k" funct7 [6:0] $end
$var wire 1 y ready $end
$var wire 32 l" result [31:0] $end
$var wire 1 C" valid $end
$var wire 1 [ rst_n $end
$var wire 32 m" rs2_data [31:0] $end
$var wire 32 n" rs1_data [31:0] $end
$var wire 32 o" dot_sum [31:0] $end
$var wire 8 p" b3 [7:0] $end
$var wire 8 q" b2 [7:0] $end
$var wire 8 r" b1 [7:0] $end
$var wire 8 s" b0 [7:0] $end
$var wire 8 t" a3 [7:0] $end
$var wire 8 u" a2 [7:0] $end
$var wire 8 v" a1 [7:0] $end
$var wire 8 w" a0 [7:0] $end
$var parameter 7 x" ACC_READ $end
$var parameter 7 y" ACC_RST $end
$var parameter 7 z" DOTPROD $end
$var reg 32 {" acc [31:0] $end
$upscope $end
$scope module u_rf $end
$var wire 1 d clk $end
$var wire 5 |" rs1_addr [4:0] $end
$var wire 5 }" rs2_addr [4:0] $end
$var wire 5 ~" wr_addr [4:0] $end
$var wire 32 !# wr_data [31:0] $end
$var wire 1 O" wr_en $end
$var wire 1 [ rst_n $end
$var wire 32 "# rs2_data [31:0] $end
$var wire 32 ## rs1_data [31:0] $end
$upscope $end
$upscope $end
$scope module u_jtag $end
$var wire 1 d clk $end
$var wire 1 [ core_rst_n $end
$var wire 1 @ jtag_tck $end
$var wire 1 A jtag_tdi $end
$var wire 1 ! jtag_tdo $end
$var wire 1 B jtag_tms $end
$var wire 32 $# req_addr [31:0] $end
$var wire 1 < req_valid $end
$var wire 32 %# req_wdata [31:0] $end
$var wire 1 > req_wen $end
$var wire 4 &# req_wmask [3:0] $end
$var wire 1 7 rst_n $end
$var wire 1 X resp_valid $end
$var wire 32 '# resp_rdata [31:0] $end
$var wire 1 Z req_ready $end
$upscope $end
$scope module u_rom $end
$var wire 1 d clk $end
$var wire 1 5 clk_fast $end
$var wire 32 (# rom_dout [31:0] $end
$var wire 1 7 rst_n $end
$var wire 8 )# wl_addr [7:0] $end
$var wire 1 U req_valid $end
$var wire 32 *# req_addr [31:0] $end
$var wire 4 +# col_addr [3:0] $end
$var parameter 2 ,# ACCESS $end
$var parameter 2 -# IDLE $end
$var parameter 2 .# RESPOND $end
$var reg 1 V req_ready $end
$var reg 32 /# resp_rdata [31:0] $end
$var reg 1 R resp_valid $end
$var reg 4 0# rom_col_in [3:0] $end
$var reg 1 . rom_preen $end
$var reg 1 - rom_saen $end
$var reg 8 1# rom_wl_addr [7:0] $end
$var reg 1 + rom_wlen $end
$var reg 2 2# state [1:0] $end
$upscope $end
$scope module u_sram $end
$var wire 1 d clk $end
$var wire 1 5 clk_fast $end
$var wire 1 7 rst_n $end
$var wire 32 3# sram_dout [31:0] $end
$var wire 8 4# row_addr [7:0] $end
$var wire 4 5# req_wmask [3:0] $end
$var wire 1 J req_wen $end
$var wire 32 6# req_wdata [31:0] $end
$var wire 1 L req_valid $end
$var wire 32 7# req_addr [31:0] $end
$var wire 3 8# col_addr [2:0] $end
$var parameter 2 9# ACCESS $end
$var parameter 2 :# IDLE $end
$var parameter 2 ;# RESPOND $end
$var reg 1 M req_ready $end
$var reg 32 <# resp_rdata [31:0] $end
$var reg 1 G resp_valid $end
$var reg 8 =# sram_addr [7:0] $end
$var reg 3 ># sram_col_addr [2:0] $end
$var reg 1 ( sram_den $end
$var reg 32 ?# sram_din [31:0] $end
$var reg 1 & sram_en $end
$var reg 1 % sram_prechg $end
$var reg 1 $ sram_ren $end
$var reg 1 # sram_wen $end
$var reg 2 @# state [1:0] $end
$upscope $end
$scope module u_xbar $end
$var wire 1 d clk $end
$var wire 32 A# m0_req_addr [31:0] $end
$var wire 1 b m0_req_ready $end
$var wire 1 a m0_req_valid $end
$var wire 32 B# m0_req_wdata [31:0] $end
$var wire 1 _ m0_req_wen $end
$var wire 4 C# m0_req_wmask [3:0] $end
$var wire 1 \ m0_resp_valid $end
$var wire 1 D# m0_wants_s0 $end
$var wire 1 E# m0_wants_s1 $end
$var wire 32 F# m1_req_addr [31:0] $end
$var wire 1 Z m1_req_ready $end
$var wire 1 < m1_req_valid $end
$var wire 32 G# m1_req_wdata [31:0] $end
$var wire 1 > m1_req_wen $end
$var wire 4 H# m1_req_wmask [3:0] $end
$var wire 1 X m1_resp_valid $end
$var wire 1 I# m1_wants_s0 $end
$var wire 1 J# m1_wants_s1 $end
$var wire 1 7 rst_n $end
$var wire 1 K# s0_m0_grant $end
$var wire 1 L# s0_m1_grant $end
$var wire 1 M s0_req_ready $end
$var wire 32 M# s0_resp_rdata [31:0] $end
$var wire 1 G s0_resp_valid $end
$var wire 1 N# s1_m0_grant $end
$var wire 1 O# s1_m1_grant $end
$var wire 1 V s1_req_ready $end
$var wire 32 P# s1_resp_rdata [31:0] $end
$var wire 1 R s1_resp_valid $end
$var wire 4 Q# s1_req_wmask [3:0] $end
$var wire 1 T s1_req_wen $end
$var wire 32 R# s1_req_wdata [31:0] $end
$var wire 1 U s1_req_valid $end
$var wire 32 S# s1_req_addr [31:0] $end
$var wire 4 T# s0_req_wmask [3:0] $end
$var wire 1 J s0_req_wen $end
$var wire 32 U# s0_req_wdata [31:0] $end
$var wire 1 L s0_req_valid $end
$var wire 32 V# s0_req_addr [31:0] $end
$var wire 1 W# m1_sel_sram $end
$var wire 1 X# m1_sel_rom $end
$var wire 32 Y# m1_resp_rdata [31:0] $end
$var wire 1 Z# m0_sel_sram $end
$var wire 1 [# m0_sel_rom $end
$var wire 32 \# m0_resp_rdata [31:0] $end
$var parameter 2 ]# IDLE $end
$var parameter 2 ^# M0_ACTIVE $end
$var parameter 2 _# M1_ACTIVE $end
$var reg 2 `# s0_owner [1:0] $end
$var reg 2 a# s0_owner_next [1:0] $end
$var reg 2 b# s1_owner [1:0] $end
$var reg 2 c# s1_owner_next [1:0] $end
$upscope $end
$upscope $end
$scope begin wait_done $end
$upscope $end
$scope begin watchdog $end
$upscope $end
$upscope $end
$enddefinitions $end
$comment Show the parameter values. $end
$dumpall
b10 _#
b1 ^#
b0 ]#
b10 ;#
b0 :#
b1 9#
b10 .#
b0 -#
b1 ,#
b0 z"
b1 y"
b10 x"
b100 i"
b1 h"
b110 g"
b111 f"
b1001 e"
b1000 d"
b101 c"
b11 b"
b1101 a"
b1100 `"
b1011 _"
b1010 ^"
b10 ]"
b0 \"
b101 @"
b100 ?"
b11 >"
b1 ="
b0 <"
b10 ;"
b1000000000000000000000000000 :"
b1110011 9"
b100011 8"
b110111 7"
b11 6"
b1100111 5"
b1101111 4"
b1111 3"
b1011 2"
b1100011 1"
b10111 0"
b10011 /"
b110011 ."
b100 -"
b1 ,"
b110 +"
b111 *"
b1001 )"
b1000 ("
b101 '"
b11 &"
b1101 %"
b1100 $"
b1011 #"
b1010 ""
b10 !"
b0 ~
b1011001000 4
b1011001010 3
$end
#0
$dumpvars
b0 c#
b0 b#
b0 a#
b0 `#
b0 \#
0[#
0Z#
b0 Y#
0X#
0W#
b0 V#
b0 U#
b0 T#
b0 S#
b0 R#
b0 Q#
b0 P#
0O#
0N#
b0 M#
0L#
0K#
0J#
0I#
b0 H#
b0 G#
b0 F#
0E#
0D#
b0 C#
b0 B#
b0 A#
b0 @#
b0 ?#
b0 >#
b0 =#
b0 <#
b0 8#
b0 7#
b0 6#
b0 5#
b0 4#
b0 3#
b0 2#
b0 1#
b0 0#
b0 /#
b0 +#
b0 *#
b0 )#
b0 (#
b0 '#
b0 &#
b0 %#
b0 $#
b0 ##
b0 "#
b0 !#
b0 ~"
b0 }"
b0 |"
b0 {"
b0 w"
b0 v"
b0 u"
b0 t"
b0 s"
b0 r"
b0 q"
b0 p"
b0 o"
b0 n"
b0 m"
b0 l"
b0 k"
b0 j"
b0 ["
b0 Z"
b0 Y"
b0 X"
b0 W"
b0 V"
b0 U"
b0 T"
b0 S"
b1 R"
b0 Q"
b0 P"
0O"
b0 N"
b0 M"
b0 L"
b0 K"
b0 J"
b1000000000000000000000000000 I"
b0 H"
b0 G"
b0 F"
b0 E"
b10011 D"
0C"
b0 B"
1A"
b0 }
b0 |
b0 {
1z
0y
b0 x
b0 w
b0 v
b0 u
b0 t
b0 s
b0 r
b0 q
b10011 p
b0 o
b0 n
b0 m
b0 l
b0 k
b0 j
0i
b0 h
0g
0f
0e
0d
b0 c
0b
0a
b0 `
0_
b0 ^
b0 ]
0\
0[
0Z
b0 Y
0X
b0 W
1V
0U
0T
b0 S
0R
b0 Q
b0 P
b0 O
b0 N
1M
0L
b0 K
0J
b0 I
b0 H
0G
b0 F
b0 E
b0 D
b0 C
0B
0A
0@
b0 ?
0>
b0 =
0<
b0 ;
b0 :
b0 9
b0 8
07
b0 6
05
b0 2
01
b0 0
b0 /
1.
0-
b0 ,
0+
b0 *
b0 )
0(
b0 '
0&
0%
0$
0#
b0 "
0!
$end
#2500
15
#5000
05
#7500
15
#10000
05
#12500
15
#15000
05
#17500
15
#20000
05
#22500
15
#25000
05
#27500
15
#30000
05
#32500
15
#35000
05
#37500
15
#40000
05
#42500
15
#45000
05
#47500
15
#50000
05
#52500
15
#55000
05
#57500
15
#60000
05
#62500
15
#65000
05
#67500
15
#70000
05
#72500
15
#75000
05
#77500
15
#80000
05
#82500
15
#85000
05
#87500
15
#90000
05
#92500
15
#95000
05
#97500
15
#100000
05
#102500
15
#105000
05
#107500
15
#110000
05
#112500
15
#115000
05
#117500
15
#120000
05
#122500
15
#125000
05
#127500
15
#130000
05
#132500
15
#135000
05
#137500
15
#140000
05
#142500
15
#145000
05
#147500
15
#150000
05
#152500
15
#155000
05
#157500
15
#160000
05
#162500
15
#165000
05
#167500
15
#170000
05
#172500
15
#175000
05
#177500
15
#180000
05
#182500
15
#185000
05
#187500
15
#190000
05
#192500
15
#195000
05
#197500
15
#200000
05
1[
17
#202500
1b
1L
b1000000000000000000000000000 N
b1000000000000000000000000000 7#
b1000000000000000000000000000 V#
1K#
b1 a#
1D#
1Z#
b1 P"
b1000000000000000000000000000 2
b1000000000000000000000000000 :
b1000000000000000000000000000 c
b1000000000000000000000000000 J"
b1000000000000000000000000000 A#
1a
b1 E"
b1 9
1d
1g
1e
1f
15
#205000
05
#207500
0e
0f
15
#210000
05
#212500
0d
0g
1e
1f
15
#215000
05
#217500
0e
0f
15
#220000
05
#222500
0b
b10 E"
b10 9
b1 `#
b1 @#
0M
1d
1g
1e
1f
15
#225000
05
#227500
0e
0f
15
#230000
05
#232500
1&
1(
1%
0d
0g
1e
1f
15
#235000
b1000000000000001010000110111 8
b1000000000000001010000110111 D
b1000000000000001010000110111 3#
1$
05
#237500
0e
0f
15
#240000
05
#242500
b110111 G"
11
1\
b1000000000000001010000110111 ]
b1000000000000001010000110111 n
b1000000000000001010000110111 \#
b0 a#
b11 E"
b11 9
b10 @#
1G
b1000000000000001010000110111 H
b1000000000000001010000110111 <#
b1000000000000001010000110111 M#
1d
1g
1e
1f
15
#245000
b0 8
b0 D
b0 3#
0$
05
#247500
0e
0f
15
#250000
05
#252500
0&
0(
0%
0d
0g
1e
1f
15
#255000
05
#257500
0e
0f
15
#260000
05
#262500
0z
b10000000 {
b10000000 j"
b10000000 V"
b10000000 |
b10000000 U"
b0 N
b0 7#
b0 V#
b10001000 u
b1000010000000 s
0K#
b11 R"
b0 G"
0A"
b10000000 t
b10001000 r
b1000000000000001000000000000 q
0L
0b
01
0\
b0 ]
b0 n
b0 \#
b110111 p
b1000 o
b1 w
b100 v
b100 k"
0D#
b0 a#
b100 E"
b10 P"
b1000000000000001010000110111 D"
0a
b100 9
b0 `#
b0 @#
1M
0G
1d
1g
1e
1f
15
#265000
05
#267500
0e
0f
15
#270000
05
#272500
0d
0g
1e
1f
15
#275000
05
#277500
0e
0f
15
#280000
05
#282500
b0 P"
b1000000000000000000000000100 I"
b1000000000000001000000000000 N"
b1000000000000001000000000000 !#
b1000 M"
b1000 ~"
1O"
b101 E"
b101 9
1d
1g
1e
1f
15
#285000
05
#287500
0e
0f
15
#290000
05
#292500
0d
0g
1e
1f
15
#295000
05
#297500
0e
0f
15
#300000
05
#302500
1b
b1 8#
1L
b1000000000000000000000000100 N
b1000000000000000000000000100 7#
b1000000000000000000000000100 V#
1K#
b1 a#
1D#
b110 E"
b1 P"
b1000000000000000000000000100 2
b1000000000000000000000000100 :
b1000000000000000000000000100 c
b1000000000000000000000000100 J"
b1000000000000000000000000100 A#
1a
0O"
b110 9
1d
1g
1e
1f
15
#305000
05
#307500
0e
0f
15
#310000
05
#312500
0d
0g
1e
1f
15
#315000
05
#317500
0e
0f
15
#320000
05
#322500
0b
b1 "
b111 E"
b111 9
b1 @#
0M
b1 )
b1 F
b1 >#
b1 `#
1d
1g
1e
1f
15
#325000
05
#327500
0e
0f
15
#330000
05
#332500
1&
1(
1%
0d
0g
1e
1f
15
#335000
b10110010000001000000010000010011 8
b10110010000001000000010000010011 D
b10110010000001000000010000010011 3#
1$
05
#337500
0e
0f
15
#340000
05
#342500
b10000010011 G"
11
1\
b10110010000001000000010000010011 ]
b10110010000001000000010000010011 n
b10110010000001000000010000010011 \#
b0 a#
b1000 E"
b1000 9
b10 @#
1G
b10110010000001000000010000010011 H
b10110010000001000000010000010011 <#
b10110010000001000000010000010011 M#
1d
1g
1e
1f
15
#345000
b0 8
b0 D
b0 3#
0$
05
#347500
0e
0f
15
#350000
05
#352500
0&
0(
0%
0d
0g
1e
1f
15
#355000
05
#357500
0e
0f
15
#360000
05
#362500
b100000000000000011111101100011111111101100100000000000000000 Y"
b0 8#
b100000000000000011111101100011111111101100100000000000000000 Z"
0z
b1000000000000000101100100000 {
b1000000000000000101100100000 j"
b11111111111111111111101100100000 V"
b11111111111111111111101100100000 |
b11111111111111111111101100100000 U"
b0 N
b0 7#
b0 V#
b1000 t"
b0 u"
b10000 v"
b0 o"
b0 w"
b1111111111111111111111111101100011111111101100100000000000000000 ["
b1000000000000001000000000000 T"
b1000000000000001000000000000 }
b1000000000000001000000000000 S"
b11111111111111111111001100101000 u
b11111111111101000000001100100000 s
0K#
b1 R"
b0 G"
0A"
b1000000000000001000000000000 l
b1000000000000001000000000000 n"
b1000000000000001000000000000 ##
b11111111111111111111101100100000 t
b11111111111111111111101100101000 r
b10110010000001000000000000000000 q
0L
0b
01
0\
b0 ]
b0 n
b0 \#
b10011 p
b0 w
b1000 m
b1000 |"
b1011001 v
b1011001 k"
0D#
b0 a#
b10 P"
b10110010000001000000010000010011 D"
0a
b1001 E"
b1001 9
b0 @#
1M
0G
b0 `#
1d
1g
1e
1f
15
#365000
05
#367500
0e
0f
15
#370000
05
#372500
0d
0g
1e
1f
15
#375000
05
#377500
0e
0f
15
#380000
05
#382500
b100000000000000010101111100011111111110010011100010000000000 Y"
b100000000000000010101111100011111111110010011100010000000000 Z"
b1000000000000000011001000000 {
b1000000000000000011001000000 j"
b1011 v"
b100000 w"
b1111111111111111111111111101100011111111110010011100010000000000 ["
b1000000000000000101100100000 T"
b1000000000000000101100100000 }
b1000000000000000101100100000 S"
b1000000000000000101100100000 l
b1000000000000000101100100000 n"
b1000000000000000101100100000 ##
b1010 E"
b0 P"
b1000000000000000000000001000 I"
b1000000000000000101100100000 N"
b1000000000000000101100100000 !#
1O"
b1010 9
1d
1g
1e
1f
15
#385000
05
#387500
0e
0f
15
#390000
05
#392500
0d
0g
1e
1f
15
#395000
05
#397500
0e
0f
15
#400000
05
#402500
1b
b10 8#
1L
b1000000000000000000000001000 N
b1000000000000000000000001000 7#
b1000000000000000000000001000 V#
1K#
b1 a#
1D#
b1 P"
b1000000000000000000000001000 2
b1000000000000000000000001000 :
b1000000000000000000000001000 c
b1000000000000000000000001000 J"
b1000000000000000000000001000 A#
1a
0O"
b1011 E"
b1011 9
1d
1g
1e
1f
15
#405000
05
#407500
0e
0f
15
#410000
05
#412500
0d
0g
1e
1f
15
#415000
05
#417500
0e
0f
15
#420000
05
#422500
0b
b10 "
b1100 E"
b1100 9
b1 `#
b1 @#
0M
b10 )
b10 F
b10 >#
1d
1g
1e
1f
15
#425000
05
#427500
0e
0f
15
#430000
05
#432500
1&
1(
1%
0d
0g
1e
1f
15
#435000
b1000000000000001010010110111 8
b1000000000000001010010110111 D
b1000000000000001010010110111 3#
1$
05
#437500
0e
0f
15
#440000
05
#442500
b11111111111111111111111110110111 G"
11
1\
b1000000000000001010010110111 ]
b1000000000000001010010110111 n
b1000000000000001010010110111 \#
b0 a#
b1101 E"
b1101 9
b10 @#
1G
b1000000000000001010010110111 H
b1000000000000001010010110111 <#
b1000000000000001010010110111 M#
1d
1g
1e
1f
15
#445000
b0 8
b0 D
b0 3#
0$
05
#447500
0e
0f
15
#450000
05
#452500
0&
0(
0%
0d
0g
1e
1f
15
#455000
05
#457500
0e
0f
15
#460000
05
#462500
b0 Y"
b0 8#
b0 Z"
b10000000 {
b10000000 j"
b10000000 V"
b10000000 |
b10000000 U"
b0 N
b0 7#
b0 V#
b0 t"
b0 v"
b0 w"
b0 ["
b0 T"
b0 }
b0 S"
b100010001000 u
b1000010000000 s
0K#
b11 R"
b0 G"
b0 l
b0 n"
b0 ##
b10000000 t
b10001001 r
b1000000000000001000000000000 q
0L
0b
01
0\
b0 ]
b0 n
b0 \#
b110111 p
b1001 o
b1 w
b0 m
b0 |"
b100 v
b100 k"
0D#
b0 a#
b1110 E"
b10 P"
b1000000000000001010010110111 D"
0a
b1110 9
b0 `#
b0 @#
1M
0G
1d
1g
1e
1f
15
#465000
05
#467500
0e
0f
15
#470000
05
#472500
0d
0g
1e
1f
15
#475000
05
#477500
0e
0f
15
#480000
05
#482500
b0 P"
b1000000000000000000000001100 I"
b1000000000000001000000000000 N"
b1000000000000001000000000000 !#
b1001 M"
b1001 ~"
1O"
b1111 E"
b1111 9
1d
1g
1e
1f
15
#485000
05
#487500
0e
0f
15
#490000
05
#492500
0d
0g
1e
1f
15
#495000
05
#497500
0e
0f
15
#500000
05
#502500
1b
b11 8#
1L
b1000000000000000000000001100 N
b1000000000000000000000001100 7#
b1000000000000000000000001100 V#
1K#
b1 a#
1D#
b10000 E"
b1 P"
b1000000000000000000000001100 2
b1000000000000000000000001100 :
b1000000000000000000000001100 c
b1000000000000000000000001100 J"
b1000000000000000000000001100 A#
1a
0O"
b10000 9
1d
1g
1e
1f
15
#505000
05
#507500
0e
0f
15
#510000
05
#512500
0d
0g
1e
1f
15
#515000
05
#517500
0e
0f
15
#520000
05
#522500
0b
b11 "
b10001 E"
b10001 9
b1 @#
0M
b11 )
b11 F
b11 >#
b1 `#
1d
1g
1e
1f
15
#525000
05
#527500
0e
0f
15
#530000
05
#532500
1&
1(
1%
0d
0g
1e
1f
15
#535000
b10110010100001001000010010010011 8
b10110010100001001000010010010011 D
b10110010100001001000010010010011 3#
1$
05
#537500
0e
0f
15
#540000
05
#542500
b11111111111111111000010010010011 G"
11
1\
b10110010100001001000010010010011 ]
b10110010100001001000010010010011 n
b10110010100001001000010010010011 \#
b0 a#
b10010 E"
b10010 9
b10 @#
1G
b10110010100001001000010010010011 H
b10110010100001001000010010010011 <#
b10110010100001001000010010010011 M#
1d
1g
1e
1f
15
#545000
b0 8
b0 D
b0 3#
0$
05
#547500
0e
0f
15
#550000
05
#552500
0&
0(
0%
0d
0g
1e
1f
15
#555000
05
#557500
0e
0f
15
#560000
05
#562500
b100000000000000011111101100100111111101100101000000000000000 Y"
b1000 X"
b0 8#
b100000000000000011111101100100111111101100101000000000000000 Z"
0z
b1000000000000000101100101000 {
b1000000000000000101100101000 j"
b11111111111111111111101100101000 V"
b11111111111111111111101100101000 |
b11111111111111111111101100101000 U"
b0 N
b0 7#
b0 V#
b1000 t"
b0 u"
b10000 v"
b0 w"
b1111111111111111111111111101100100111111101100101000000000000000 ["
b1000000000000001000000000000 T"
b1000000000000001000000000000 }
b1000000000000001000000000000 S"
b1000 p"
b0 q"
b1011 r"
b11110000 o"
b100000 s"
b11111111111111111111101100101000 u
b11111111111101001000001100101000 s
0K#
b1 R"
b100000 Q"
b0 G"
0A"
b1000000000000001000000000000 l
b1000000000000001000000000000 n"
b1000000000000001000000000000 ##
b1000000000000000101100100000 j
b1000000000000000101100100000 m"
b1000000000000000101100100000 "#
b11111111111111111111101100101000 t
b11111111111111111111101100101001 r
b10110010100001001000000000000000 q
0L
0b
01
0\
b0 ]
b0 n
b0 \#
b10011 p
b0 w
b1001 m
b1001 |"
b1000 k
b1000 }"
b1011001 v
b1011001 k"
0D#
b0 a#
b10 P"
b10110010100001001000010010010011 D"
0a
b10011 E"
b10011 9
b0 @#
1M
0G
b0 `#
1d
1g
1e
1f
15
#565000
05
#567500
0e
0f
15
#570000
05
#572500
0d
0g
1e
1f
15
#575000
05
#577500
0e
0f
15
#580000
05
#582500
b100000000000000010110000000100111111110010011111011001000000 Y"
b100000000000000010110000000100111111110010011111011001000000 Z"
b1000000000000000011001010000 {
b1000000000000000011001010000 j"
b1011 v"
b10110111001 o"
b101000 w"
b1111111111111111111111111101100100111111110010011111011001000000 ["
b1000000000000000101100101000 T"
b1000000000000000101100101000 }
b1000000000000000101100101000 S"
b1000000000000000101100101000 l
b1000000000000000101100101000 n"
b1000000000000000101100101000 ##
b10100 E"
b0 P"
b1000000000000000000000010000 I"
b1000000000000000101100101000 N"
b1000000000000000101100101000 !#
1O"
b10100 9
1d
1g
1e
1f
15
#585000
05
#587500
0e
0f
15
#590000
05
#592500
0d
0g
1e
1f
15
#595000
05
#597500
0e
0f
15
#600000
05
#602500
1b
b100 8#
1L
b1000000000000000000000010000 N
b1000000000000000000000010000 7#
b1000000000000000000000010000 V#
1K#
b1 a#
1D#
b1 P"
b1000000000000000000000010000 2
b1000000000000000000000010000 :
b1000000000000000000000010000 c
b1000000000000000000000010000 J"
b1000000000000000000000010000 A#
1a
0O"
b10101 E"
b10101 9
1d
1g
1e
1f
15
#605000
05
#607500
0e
0f
15
#610000
05
#612500
0d
0g
1e
1f
15
#615000
05
#617500
0e
0f
15
#620000
05
