sim/tb_top.vcd
$date
	Tue Apr 14 19:15:11 2026
$end
$version
	Icarus Verilog
$end
$timescale
	1ps
$end
$scope module tb_top $end
$var wire 1 ! jtag_tdo $end
$var wire 4 " sram_wmask [3:0] $end
$var wire 1 # sram_wen $end
$var wire 32 $ sram_wdata [31:0] $end
$var wire 1 % sram_csn $end
$var wire 11 & sram_addr [10:0] $end
$var wire 8 ' rom_wl_addr [7:0] $end
$var wire 2 ( rom_pattern [1:0] $end
$var wire 1 ) rom_en $end
$var wire 4 * rom_col_addr [3:0] $end
$var wire 1 + debug_resp_valid $end
$var wire 32 , debug_pc [31:0] $end
$var parameter 11 - DONE_WORD_ADDR $end
$var parameter 11 . RESULT_WORD_ADDR $end
$var reg 1 / pad_clk $end
$var reg 32 0 rom_rdata [31:0] $end
$var reg 1 1 rst_n $end
$var reg 32 2 sram_rdata [31:0] $end
$var integer 32 3 cycle_count [31:0] $end
$scope module u_dut $end
$var wire 32 4 debug_pc [31:0] $end
$var wire 1 + debug_resp_valid $end
$var wire 32 5 jtag_req_addr [31:0] $end
$var wire 1 6 jtag_req_valid $end
$var wire 32 7 jtag_req_wdata [31:0] $end
$var wire 1 8 jtag_req_wen $end
$var wire 4 9 jtag_req_wmask [3:0] $end
$var wire 1 : jtag_tck $end
$var wire 1 ; jtag_tdi $end
$var wire 1 ! jtag_tdo $end
$var wire 1 < jtag_tms $end
$var wire 1 / pad_clk $end
$var wire 32 = rom_rdata [31:0] $end
$var wire 1 1 rst_n $end
$var wire 32 > sram_rdata [31:0] $end
$var wire 4 ? sram_wmask [3:0] $end
$var wire 1 # sram_wen $end
$var wire 32 @ sram_wdata [31:0] $end
$var wire 1 % sram_csn $end
$var wire 1 A sram_bus_resp_valid $end
$var wire 32 B sram_bus_resp_rdata [31:0] $end
$var wire 4 C sram_bus_req_wmask [3:0] $end
$var wire 1 D sram_bus_req_wen $end
$var wire 32 E sram_bus_req_wdata [31:0] $end
$var wire 1 F sram_bus_req_valid $end
$var wire 1 G sram_bus_req_ready $end
$var wire 32 H sram_bus_req_addr [31:0] $end
$var wire 11 I sram_addr [10:0] $end
$var wire 8 J rom_wl_addr [7:0] $end
$var wire 1 ) rom_en $end
$var wire 4 K rom_col_addr [3:0] $end
$var wire 1 L rom_bus_resp_valid $end
$var wire 32 M rom_bus_resp_rdata [31:0] $end
$var wire 1 N rom_bus_req_wen $end
$var wire 1 O rom_bus_req_valid $end
$var wire 1 P rom_bus_req_ready $end
$var wire 32 Q rom_bus_req_addr [31:0] $end
$var wire 1 R jtag_resp_valid $end
$var wire 32 S jtag_resp_rdata [31:0] $end
$var wire 1 T jtag_req_ready $end
$var wire 1 U core_rst_n $end
$var wire 1 V core_resp_valid $end
$var wire 32 W core_resp_rdata [31:0] $end
$var wire 4 X core_req_wmask [3:0] $end
$var wire 1 Y core_req_wen $end
$var wire 32 Z core_req_wdata [31:0] $end
$var wire 1 [ core_req_valid $end
$var wire 1 \ core_req_ready $end
$var wire 32 ] core_req_addr [31:0] $end
$var wire 1 ^ clk_50 $end
$var wire 1 _ clk_100 $end
$scope module u_clk_div $end
$var wire 1 _ clk_100 $end
$var wire 1 / clk_200 $end
$var wire 1 ^ clk_50 $end
$var wire 1 1 rst_n $end
$var reg 1 ` div2_reg $end
$var reg 1 a div4_reg $end
$upscope $end
$scope module u_core $end
$var wire 4 b alu_op [3:0] $end
$var wire 1 ^ clk $end
$var wire 1 U rst_n $end
$var wire 32 c rs2_data [31:0] $end
$var wire 5 d rs2 [4:0] $end
$var wire 32 e rs1_data [31:0] $end
$var wire 5 f rs1 [4:0] $end
$var wire 1 V resp_valid $end
$var wire 32 g resp_rdata [31:0] $end
$var wire 1 \ req_ready $end
$var wire 5 h rd [4:0] $end
$var wire 7 i opcode [6:0] $end
$var wire 32 j imm_u [31:0] $end
$var wire 32 k imm_s [31:0] $end
$var wire 32 l imm_j [31:0] $end
$var wire 32 m imm_i [31:0] $end
$var wire 32 n imm_b [31:0] $end
$var wire 7 o funct7 [6:0] $end
$var wire 3 p funct3 [2:0] $end
$var wire 32 q dp_result [31:0] $end
$var wire 1 r dp_ready $end
$var wire 1 s alu_zero $end
$var wire 32 t alu_result [31:0] $end
$var wire 32 u alu_b [31:0] $end
$var wire 32 v alu_a [31:0] $end
$var parameter 4 w ALU_ADD $end
$var parameter 4 x ALU_AND $end
$var parameter 4 y ALU_MUL $end
$var parameter 4 z ALU_MULH $end
$var parameter 4 { ALU_MULHSU $end
$var parameter 4 | ALU_MULHU $end
$var parameter 4 } ALU_OR $end
$var parameter 4 ~ ALU_SLL $end
$var parameter 4 !" ALU_SLT $end
$var parameter 4 "" ALU_SLTU $end
$var parameter 4 #" ALU_SRA $end
$var parameter 4 $" ALU_SRL $end
$var parameter 4 %" ALU_SUB $end
$var parameter 4 &" ALU_XOR $end
$var parameter 7 '" OP_ARITH $end
$var parameter 7 (" OP_ARITHI $end
$var parameter 7 )" OP_AUIPC $end
$var parameter 7 *" OP_BRANCH $end
$var parameter 7 +" OP_CUSTOM0 $end
$var parameter 7 ," OP_FENCE $end
$var parameter 7 -" OP_JAL $end
$var parameter 7 ." OP_JALR $end
$var parameter 7 /" OP_LOAD $end
$var parameter 7 0" OP_LUI $end
$var parameter 7 1" OP_STORE $end
$var parameter 7 2" OP_SYSTEM $end
$var parameter 32 3" RESET_VEC $end
$var parameter 3 4" S_EXECUTE $end
$var parameter 3 5" S_FETCH $end
$var parameter 3 6" S_FETCH_W $end
$var parameter 3 7" S_MEM $end
$var parameter 3 8" S_MEM_W $end
$var reg 1 9" branch_taken $end
$var reg 4 :" decoded_alu_op [3:0] $end
$var reg 1 ;" dp_valid $end
$var reg 32 <" instr [31:0] $end
$var reg 32 =" mcycle [31:0] $end
$var reg 32 >" mem_addr_reg [31:0] $end
$var reg 32 ?" mem_result [31:0] $end
$var reg 32 @" pc [31:0] $end
$var reg 32 A" req_addr [31:0] $end
$var reg 1 [ req_valid $end
$var reg 32 B" req_wdata [31:0] $end
$var reg 1 Y req_wen $end
$var reg 4 C" req_wmask [3:0] $end
$var reg 5 D" rf_wr_addr [4:0] $end
$var reg 32 E" rf_wr_data [31:0] $end
$var reg 1 F" rf_wr_en $end
$var reg 3 G" state [2:0] $end
$var reg 32 H" store_data [31:0] $end
$var reg 4 I" store_mask [3:0] $end
$scope module u_alu $end
$var wire 32 J" a [31:0] $end
$var wire 32 K" a_signed [31:0] $end
$var wire 32 L" b [31:0] $end
$var wire 32 M" b_signed [31:0] $end
$var wire 4 N" op [3:0] $end
$var wire 1 s zero $end
$var wire 5 O" shamt [4:0] $end
$var wire 64 P" mul_uu [63:0] $end
$var wire 64 Q" mul_su [63:0] $end
$var wire 64 R" mul_ss [63:0] $end
$var parameter 4 S" ALU_ADD $end
$var parameter 4 T" ALU_AND $end
$var parameter 4 U" ALU_MUL $end
$var parameter 4 V" ALU_MULH $end
$var parameter 4 W" ALU_MULHSU $end
$var parameter 4 X" ALU_MULHU $end
$var parameter 4 Y" ALU_OR $end
$var parameter 4 Z" ALU_SLL $end
$var parameter 4 [" ALU_SLT $end
$var parameter 4 \" ALU_SLTU $end
$var parameter 4 ]" ALU_SRA $end
$var parameter 4 ^" ALU_SRL $end
$var parameter 4 _" ALU_SUB $end
$var parameter 4 `" ALU_XOR $end
$var reg 32 a" result [31:0] $end
$upscope $end
$scope module u_dp $end
$var wire 1 ^ clk $end
$var wire 7 b" funct7 [6:0] $end
$var wire 1 r ready $end
$var wire 32 c" result [31:0] $end
$var wire 1 ;" valid $end
$var wire 1 U rst_n $end
$var wire 32 d" rs2_data [31:0] $end
$var wire 32 e" rs1_data [31:0] $end
$var wire 32 f" dot_sum [31:0] $end
$var wire 8 g" b3 [7:0] $end
$var wire 8 h" b2 [7:0] $end
$var wire 8 i" b1 [7:0] $end
$var wire 8 j" b0 [7:0] $end
$var wire 8 k" a3 [7:0] $end
$var wire 8 l" a2 [7:0] $end
$var wire 8 m" a1 [7:0] $end
$var wire 8 n" a0 [7:0] $end
$var parameter 7 o" ACC_READ $end
$var parameter 7 p" ACC_RST $end
$var parameter 7 q" DOTPROD $end
$var reg 32 r" acc [31:0] $end
$upscope $end
$scope module u_rf $end
$var wire 1 ^ clk $end
$var wire 5 s" rs1_addr [4:0] $end
$var wire 5 t" rs2_addr [4:0] $end
$var wire 5 u" wr_addr [4:0] $end
$var wire 32 v" wr_data [31:0] $end
$var wire 1 F" wr_en $end
$var wire 1 U rst_n $end
$var wire 32 w" rs2_data [31:0] $end
$var wire 32 x" rs1_data [31:0] $end
$upscope $end
$upscope $end
$scope module u_jtag $end
$var wire 1 ^ clk $end
$var wire 1 U core_rst_n $end
$var wire 1 : jtag_tck $end
$var wire 1 ; jtag_tdi $end
$var wire 1 ! jtag_tdo $end
$var wire 1 < jtag_tms $end
$var wire 32 y" req_addr [31:0] $end
$var wire 1 6 req_valid $end
$var wire 32 z" req_wdata [31:0] $end
$var wire 1 8 req_wen $end
$var wire 4 {" req_wmask [3:0] $end
$var wire 1 1 rst_n $end
$var wire 1 R resp_valid $end
$var wire 32 |" resp_rdata [31:0] $end
$var wire 1 T req_ready $end
$upscope $end
$scope module u_rom $end
$var wire 1 ^ clk $end
$var wire 1 / clk_fast $end
$var wire 32 }" rom_rdata [31:0] $end
$var wire 1 1 rst_n $end
$var wire 1 O req_valid $end
$var wire 32 ~" req_addr [31:0] $end
$var parameter 2 !# ACCESS $end
$var parameter 2 "# IDLE $end
$var parameter 2 ## RESPOND $end
$var reg 1 P req_ready $end
$var reg 32 $# resp_rdata [31:0] $end
$var reg 1 L resp_valid $end
$var reg 4 %# rom_col_addr [3:0] $end
$var reg 1 ) rom_en $end
$var reg 8 &# rom_wl_addr [7:0] $end
$var reg 2 '# state [1:0] $end
$upscope $end
$scope module u_sram $end
$var wire 1 ^ clk $end
$var wire 1 / clk_fast $end
$var wire 1 1 rst_n $end
$var wire 32 (# sram_rdata [31:0] $end
$var wire 11 )# word_addr [10:0] $end
$var wire 4 *# req_wmask [3:0] $end
$var wire 1 D req_wen $end
$var wire 32 +# req_wdata [31:0] $end
$var wire 1 F req_valid $end
$var wire 32 ,# req_addr [31:0] $end
$var parameter 2 -# ACCESS $end
$var parameter 2 .# IDLE $end
$var parameter 2 /# RESPOND $end
$var reg 1 G req_ready $end
$var reg 32 0# resp_rdata [31:0] $end
$var reg 1 A resp_valid $end
$var reg 11 1# sram_addr [10:0] $end
$var reg 1 % sram_csn $end
$var reg 32 2# sram_wdata [31:0] $end
$var reg 1 # sram_wen $end
$var reg 4 3# sram_wmask [3:0] $end
$var reg 2 4# state [1:0] $end
$upscope $end
$scope module u_xbar $end
$var wire 1 ^ clk $end
$var wire 32 5# m0_req_addr [31:0] $end
$var wire 1 \ m0_req_ready $end
$var wire 1 [ m0_req_valid $end
$var wire 32 6# m0_req_wdata [31:0] $end
$var wire 1 Y m0_req_wen $end
$var wire 4 7# m0_req_wmask [3:0] $end
$var wire 1 V m0_resp_valid $end
$var wire 1 8# m0_wants_s0 $end
$var wire 1 9# m0_wants_s1 $end
$var wire 32 :# m1_req_addr [31:0] $end
$var wire 1 T m1_req_ready $end
$var wire 1 6 m1_req_valid $end
$var wire 32 ;# m1_req_wdata [31:0] $end
$var wire 1 8 m1_req_wen $end
$var wire 4 <# m1_req_wmask [3:0] $end
$var wire 1 R m1_resp_valid $end
$var wire 1 =# m1_wants_s0 $end
$var wire 1 ># m1_wants_s1 $end
$var wire 1 1 rst_n $end
$var wire 1 ?# s0_m0_grant $end
$var wire 1 @# s0_m1_grant $end
$var wire 1 G s0_req_ready $end
$var wire 32 A# s0_resp_rdata [31:0] $end
$var wire 1 A s0_resp_valid $end
$var wire 1 B# s1_m0_grant $end
$var wire 1 C# s1_m1_grant $end
$var wire 1 P s1_req_ready $end
$var wire 32 D# s1_resp_rdata [31:0] $end
$var wire 1 L s1_resp_valid $end
$var wire 4 E# s1_req_wmask [3:0] $end
$var wire 1 N s1_req_wen $end
$var wire 32 F# s1_req_wdata [31:0] $end
$var wire 1 O s1_req_valid $end
$var wire 32 G# s1_req_addr [31:0] $end
$var wire 4 H# s0_req_wmask [3:0] $end
$var wire 1 D s0_req_wen $end
$var wire 32 I# s0_req_wdata [31:0] $end
$var wire 1 F s0_req_valid $end
$var wire 32 J# s0_req_addr [31:0] $end
$var wire 1 K# m1_sel_sram $end
$var wire 1 L# m1_sel_rom $end
$var wire 32 M# m1_resp_rdata [31:0] $end
$var wire 1 N# m0_sel_sram $end
$var wire 1 O# m0_sel_rom $end
$var wire 32 P# m0_resp_rdata [31:0] $end
$var parameter 2 Q# IDLE $end
$var parameter 2 R# M0_ACTIVE $end
$var parameter 2 S# M1_ACTIVE $end
$var reg 2 T# s0_owner [1:0] $end
$var reg 2 U# s0_owner_next [1:0] $end
$var reg 2 V# s1_owner [1:0] $end
$var reg 2 W# s1_owner_next [1:0] $end
$upscope $end
$upscope $end
$scope begin wait_done $end
$upscope $end
$scope begin watchdog $end
$upscope $end
$upscope $end
$enddefinitions $end
$comment Show the parameter values. $end
$dumpall
b10 S#
b1 R#
b0 Q#
b10 /#
b0 .#
b1 -#
b10 ##
b0 "#
b1 !#
b0 q"
b1 p"
b10 o"
b100 `"
b1 _"
b110 ^"
b111 ]"
b1001 \"
b1000 ["
b101 Z"
b11 Y"
b1101 X"
b1100 W"
b1011 V"
b1010 U"
b10 T"
b0 S"
b100 8"
b11 7"
b1 6"
b0 5"
b10 4"
b1000000000000000000000000000 3"
b1110011 2"
b100011 1"
b110111 0"
b11 /"
b1100111 ."
b1101111 -"
b1111 ,"
b1011 +"
b1100011 *"
b10111 )"
b10011 ("
b110011 '"
b100 &"
b1 %"
b110 $"
b111 #"
b1001 ""
b1000 !"
b101 ~
b11 }
b1101 |
b1100 {
b1011 z
b1010 y
b10 x
b0 w
b1011001000 .
b1011001010 -
$end
#0
$dumpvars
b0 W#
b0 V#
b0 U#
b0 T#
b0 P#
0O#
0N#
b0 M#
0L#
0K#
b0 J#
b0 I#
b0 H#
b0 G#
b0 F#
b0 E#
b0 D#
0C#
0B#
b0 A#
0@#
0?#
0>#
0=#
b0 <#
b0 ;#
b0 :#
09#
08#
b0 7#
b0 6#
b0 5#
b0 4#
b0 3#
b0 2#
b0 1#
b0 0#
b0 ,#
b0 +#
b0 *#
b0 )#
b0 (#
b0 '#
b0 &#
b0 %#
b0 $#
b0 ~"
b0 }"
b0 |"
b0 {"
b0 z"
b0 y"
b0 x"
b0 w"
b0 v"
b0 u"
b0 t"
b0 s"
b0 r"
b0 n"
b0 m"
b0 l"
b0 k"
b0 j"
b0 i"
b0 h"
b0 g"
b0 f"
b0 e"
b0 d"
b0 c"
b0 b"
b0 a"
b0 R"
b0 Q"
b0 P"
b0 O"
b0 N"
b0 M"
b0 L"
b0 K"
b0 J"
b1 I"
b0 H"
b0 G"
0F"
b0 E"
b0 D"
b0 C"
b0 B"
b0 A"
b1000000000000000000000000000 @"
b0 ?"
b0 >"
b0 ="
b10011 <"
0;"
b0 :"
19"
b0 v
b0 u
b0 t
1s
0r
b0 q
b0 p
b0 o
b0 n
b0 m
b0 l
b0 k
b0 j
b10011 i
b0 h
b0 g
b0 f
b0 e
b0 d
b0 c
b0 b
0a
0`
0_
0^
b0 ]
0\
0[
b0 Z
0Y
b0 X
b0 W
0V
0U
0T
b0 S
0R
b0 Q
1P
0O
0N
b0 M
0L
b0 K
b0 J
b0 I
b0 H
1G
0F
b0 E
0D
b0 C
b0 B
0A
b0 @
b0 ?
b0 >
b0 =
0<
0;
0:
b0 9
08
b0 7
06
b0 5
b0 4
b0 3
b0 2
01
b0 0
0/
b0 ,
0+
b0 *
0)
b0 (
b0 '
b0 &
1%
b0 $
1#
b0 "
0!
$end
#2500
1/
#5000
0/
#7500
1/
#10000
0/
#12500
1/
#15000
0/
#17500
1/
#20000
0/
#22500
1/
#25000
0/
#27500
1/
#30000
0/
#32500
1/
#35000
0/
#37500
1/
#40000
0/
#42500
1/
#45000
0/
#47500
1/
#50000
0/
#52500
1/
#55000
0/
#57500
1/
#60000
0/
#62500
1/
#65000
0/
#67500
1/
#70000
0/
#72500
1/
#75000
0/
#77500
1/
#80000
0/
#82500
1/
#85000
0/
#87500
1/
#90000
0/
#92500
1/
#95000
0/
#97500
1/
#100000
0/
#102500
1/
#105000
0/
#107500
1/
#110000
0/
#112500
1/
#115000
0/
#117500
1/
#120000
0/
#122500
1/
#125000
0/
#127500
1/
#130000
0/
#132500
1/
#135000
0/
#137500
1/
#140000
0/
#142500
1/
#145000
0/
#147500
1/
#150000
0/
#152500
1/
#155000
0/
#157500
1/
#160000
0/
#162500
1/
#165000
0/
#167500
1/
#170000
0/
#172500
1/
#175000
0/
#177500
1/
#180000
0/
#182500
1/
#185000
0/
#187500
1/
#190000
0/
#192500
1/
#195000
0/
#197500
1/
#200000
0/
1U
11
#202500
1\
1F
b1000000000000000000000000000 H
b1000000000000000000000000000 ,#
b1000000000000000000000000000 J#
1?#
b1 U#
18#
1N#
b1 G"
b1000000000000000000000000000 ,
b1000000000000000000000000000 4
b1000000000000000000000000000 ]
b1000000000000000000000000000 A"
b1000000000000000000000000000 5#
1[
b1 ="
b1 3
1^
1a
1_
1`
1/
#205000
0/
#207500
0_
0`
1/
#210000
0/
#212500
0^
0a
1_
1`
1/
#215000
0/
#217500
0_
0`
1/
#220000
0/
#222500
0\
b1000000000000001010000110111 2
b1000000000000001010000110111 >
b1000000000000001010000110111 (#
b10 ="
b10 3
b1 T#
b1 4#
0G
0%
1^
1a
1_
1`
1/
#225000
0/
#227500
0_
0`
1/
#230000
0/
#232500
0^
0a
1_
1`
1/
#235000
0/
#237500
0_
0`
1/
#240000
0/
#242500
b110111 ?"
1+
1V
b1000000000000001010000110111 W
b1000000000000001010000110111 g
b1000000000000001010000110111 P#
b0 U#
b0 2
b0 >
b0 (#
b11 ="
b11 3
b10 4#
b1000000000000001010000110111 B
b1000000000000001010000110111 0#
b1000000000000001010000110111 A#
1A
1%
1^
1a
1_
1`
1/
#245000
0/
#247500
0_
0`
1/
#250000
0/
#252500
0^
0a
1_
1`
1/
#255000
0/
#257500
0_
0`
1/
#260000
0/
#262500
0s
b10000000 t
b10000000 a"
b10000000 M"
b10000000 u
b10000000 L"
b0 H
b0 ,#
b0 J#
b10001000 n
b1000010000000 l
0?#
b11 I"
b0 ?"
09"
b10000000 m
b10001000 k
b1000000000000001000000000000 j
0F
0\
0+
0V
b0 W
b0 g
b0 P#
b110111 i
b1000 h
b1 p
b100 o
b100 b"
08#
b0 U#
b100 ="
b10 G"
b1000000000000001010000110111 <"
0[
b100 3
b0 T#
b0 4#
1G
0A
1^
1a
1_
1`
1/
#265000
0/
#267500
0_
0`
1/
#270000
0/
#272500
0^
0a
1_
1`
1/
#275000
0/
#277500
0_
0`
1/
#280000
0/
#282500
b0 G"
b1000000000000000000000000100 @"
b1000000000000001000000000000 E"
b1000000000000001000000000000 v"
b1000 D"
b1000 u"
1F"
b101 ="
b101 3
1^
1a
1_
1`
1/
#285000
0/
#287500
0_
0`
1/
#290000
0/
#292500
0^
0a
1_
1`
1/
#295000
0/
#297500
0_
0`
1/
#300000
0/
#302500
1\
b1 )#
1F
b1000000000000000000000000100 H
b1000000000000000000000000100 ,#
b1000000000000000000000000100 J#
1?#
b1 U#
18#
b110 ="
b1 G"
b1000000000000000000000000100 ,
b1000000000000000000000000100 4
b1000000000000000000000000100 ]
b1000000000000000000000000100 A"
b1000000000000000000000000100 5#
1[
0F"
b110 3
1^
1a
1_
1`
1/
#305000
0/
#307500
0_
0`
1/
#310000
0/
#312500
0^
0a
1_
1`
1/
#315000
0/
#317500
0_
0`
1/
#320000
0/
#322500
0\
b10110010000001000000010000010011 2
b10110010000001000000010000010011 >
b10110010000001000000010000010011 (#
b111 ="
b111 3
b1 4#
0G
b1 &
b1 I
b1 1#
0%
b1 T#
1^
1a
1_
1`
1/
#325000
0/
#327500
0_
0`
1/
#330000
0/
#332500
0^
0a
1_
1`
1/
#335000
0/
#337500
0_
0`
1/
#340000
0/
#342500
b10000010011 ?"
1+
1V
b10110010000001000000010000010011 W
b10110010000001000000010000010011 g
b10110010000001000000010000010011 P#
b0 U#
b0 2
b0 >
b0 (#
b1000 ="
b1000 3
b10 4#
b10110010000001000000010000010011 B
b10110010000001000000010000010011 0#
b10110010000001000000010000010011 A#
1A
1%
1^
1a
1_
1`
1/
#345000
0/
#347500
0_
0`
1/
#350000
0/
#352500
0^
0a
1_
1`
1/
#355000
0/
#357500
0_
0`
1/
#360000
0/
#362500
b100000000000000011111101100011111111101100100000000000000000 P"
b0 )#
b100000000000000011111101100011111111101100100000000000000000 Q"
0s
b1000000000000000101100100000 t
b1000000000000000101100100000 a"
b11111111111111111111101100100000 M"
b11111111111111111111101100100000 u
b11111111111111111111101100100000 L"
b0 H
b0 ,#
b0 J#
b1000 k"
b0 l"
b10000 m"
b0 f"
b0 n"
b1111111111111111111111111101100011111111101100100000000000000000 R"
b1000000000000001000000000000 K"
b1000000000000001000000000000 v
b1000000000000001000000000000 J"
b11111111111111111111001100101000 n
b11111111111101000000001100100000 l
0?#
b1 I"
b0 ?"
09"
b1000000000000001000000000000 e
b1000000000000001000000000000 e"
b1000000000000001000000000000 x"
b11111111111111111111101100100000 m
b11111111111111111111101100101000 k
b10110010000001000000000000000000 j
0F
0\
0+
0V
b0 W
b0 g
b0 P#
b10011 i
b0 p
b1000 f
b1000 s"
b1011001 o
b1011001 b"
08#
b0 U#
b10 G"
b10110010000001000000010000010011 <"
0[
b1001 ="
b1001 3
b0 4#
1G
0A
b0 T#
1^
1a
1_
1`
1/
#365000
0/
#367500
0_
0`
1/
#370000
0/
#372500
0^
0a
1_
1`
1/
#375000
0/
#377500
0_
0`
1/
#380000
0/
#382500
b100000000000000010101111100011111111110010011100010000000000 P"
b100000000000000010101111100011111111110010011100010000000000 Q"
b1000000000000000011001000000 t
b1000000000000000011001000000 a"
b1011 m"
b100000 n"
b1111111111111111111111111101100011111111110010011100010000000000 R"
b1000000000000000101100100000 K"
b1000000000000000101100100000 v
b1000000000000000101100100000 J"
b1000000000000000101100100000 e
b1000000000000000101100100000 e"
b1000000000000000101100100000 x"
b1010 ="
b0 G"
b1000000000000000000000001000 @"
b1000000000000000101100100000 E"
b1000000000000000101100100000 v"
1F"
b1010 3
1^
1a
1_
1`
1/
#385000
0/
#387500
0_
0`
1/
#390000
0/
#392500
0^
0a
1_
1`
1/
#395000
0/
#397500
0_
0`
1/
#400000
0/
#402500
1\
b10 )#
1F
b1000000000000000000000001000 H
b1000000000000000000000001000 ,#
b1000000000000000000000001000 J#
1?#
b1 U#
18#
b1 G"
b1000000000000000000000001000 ,
b1000000000000000000000001000 4
b1000000000000000000000001000 ]
b1000000000000000000000001000 A"
b1000000000000000000000001000 5#
1[
0F"
b1011 ="
b1011 3
1^
1a
1_
1`
1/
#405000
0/
#407500
0_
0`
1/
#410000
0/
#412500
0^
0a
1_
1`
1/
#415000
0/
#417500
0_
0`
1/
#420000
0/
#422500
0\
b1000000000000001010010110111 2
b1000000000000001010010110111 >
b1000000000000001010010110111 (#
b1100 ="
b1100 3
b1 T#
b1 4#
0G
b10 &
b10 I
b10 1#
0%
1^
1a
1_
1`
1/
#425000
0/
#427500
0_
0`
1/
#430000
0/
#432500
0^
0a
1_
1`
1/
#435000
0/
#437500
0_
0`
1/
#440000
0/
#442500
b11111111111111111111111110110111 ?"
1+
1V
b1000000000000001010010110111 W
b1000000000000001010010110111 g
b1000000000000001010010110111 P#
b0 U#
b0 2
b0 >
b0 (#
b1101 ="
b1101 3
b10 4#
b1000000000000001010010110111 B
b1000000000000001010010110111 0#
b1000000000000001010010110111 A#
1A
1%
1^
1a
1_
1`
1/
#445000
0/
#447500
0_
0`
1/
#450000
0/
#452500
0^
0a
1_
1`
1/
#455000
0/
#457500
0_
0`
1/
#460000
0/
#462500
b0 P"
b0 )#
b0 Q"
b10000000 t
b10000000 a"
b10000000 M"
b10000000 u
b10000000 L"
b0 H
b0 ,#
b0 J#
b0 k"
b0 m"
b0 n"
b0 R"
b0 K"
b0 v
b0 J"
b100010001000 n
b1000010000000 l
0?#
b11 I"
b0 ?"
b0 e
b0 e"
b0 x"
b10000000 m
b10001001 k
b1000000000000001000000000000 j
0F
0\
0+
0V
b0 W
b0 g
b0 P#
b110111 i
b1001 h
b1 p
b0 f
b0 s"
b100 o
b100 b"
08#
b0 U#
b1110 ="
b10 G"
b1000000000000001010010110111 <"
0[
b1110 3
b0 T#
b0 4#
1G
0A
1^
1a
1_
1`
1/
#465000
0/
#467500
0_
0`
1/
#470000
0/
#472500
0^
0a
1_
1`
1/
#475000
0/
#477500
0_
0`
1/
#480000
0/
#482500
b0 G"
b1000000000000000000000001100 @"
b1000000000000001000000000000 E"
b1000000000000001000000000000 v"
b1001 D"
b1001 u"
1F"
b1111 ="
b1111 3
1^
1a
1_
1`
1/
#485000
0/
#487500
0_
0`
1/
#490000
0/
#492500
0^
0a
1_
1`
1/
#495000
0/
#497500
0_
0`
1/
#500000
0/
#502500
1\
b11 )#
1F
b1000000000000000000000001100 H
b1000000000000000000000001100 ,#
b1000000000000000000000001100 J#
1?#
b1 U#
18#
b10000 ="
b1 G"
b1000000000000000000000001100 ,
b1000000000000000000000001100 4
b1000000000000000000000001100 ]
b1000000000000000000000001100 A"
b1000000000000000000000001100 5#
1[
0F"
b10000 3
1^
1a
1_
1`
1/
#505000
0/
#507500
0_
0`
1/
#510000
0/
#512500
0^
0a
1_
1`
1/
#515000
0/
#517500
0_
0`
1/
#520000
0/
#522500
0\
b10110010100001001000010010010011 2
b10110010100001001000010010010011 >
b10110010100001001000010010010011 (#
b10001 ="
b10001 3
b1 4#
0G
b11 &
b11 I
b11 1#
0%
b1 T#
1^
1a
1_
1`
1/
#525000
0/
#527500
0_
0`
1/
#530000
0/
#532500
0^
0a
1_
1`
1/
#535000
0/
#537500
0_
0`
1/
#540000
0/
#542500
b11111111111111111000010010010011 ?"
1+
1V
b10110010100001001000010010010011 W
b10110010100001001000010010010011 g
b10110010100001001000010010010011 P#
b0 U#
b0 2
b0 >
b0 (#
b10010 ="
b10010 3
b10 4#
b10110010100001001000010010010011 B
b10110010100001001000010010010011 0#
b10110010100001001000010010010011 A#
1A
1%
1^
1a
1_
1`
1/
#545000
0/
#547500
0_
0`
1/
#550000
0/
#552500
0^
0a
1_
1`
1/
#555000
0/
#557500
0_
0`
1/
#560000
0/
#562500
b100000000000000011111101100100111111101100101000000000000000 P"
b1000 O"
b0 )#
b100000000000000011111101100100111111101100101000000000000000 Q"
0s
b1000000000000000101100101000 t
b1000000000000000101100101000 a"
b11111111111111111111101100101000 M"
b11111111111111111111101100101000 u
b11111111111111111111101100101000 L"
b0 H
b0 ,#
b0 J#
b1000 k"
b0 l"
b10000 m"
b0 n"
b1111111111111111111111111101100100111111101100101000000000000000 R"
b1000000000000001000000000000 K"
b1000000000000001000000000000 v
b1000000000000001000000000000 J"
b1000 g"
b0 h"
b1011 i"
b11110000 f"
b100000 j"
b11111111111111111111101100101000 n
b11111111111101001000001100101000 l
0?#
b1 I"
b100000 H"
b0 ?"
09"
b1000000000000001000000000000 e
b1000000000000001000000000000 e"
b1000000000000001000000000000 x"
b1000000000000000101100100000 c
b1000000000000000101100100000 d"
b1000000000000000101100100000 w"
b11111111111111111111101100101000 m
b11111111111111111111101100101001 k
b10110010100001001000000000000000 j
0F
0\
0+
0V
b0 W
b0 g
b0 P#
b10011 i
b0 p
b1001 f
b1001 s"
b1000 d
b1000 t"
b1011001 o
b1011001 b"
08#
b0 U#
b10 G"
b10110010100001001000010010010011 <"
0[
b10011 ="
b10011 3
b0 4#
1G
0A
b0 T#
1^
1a
1_
1`
1/
#565000
0/
#567500
0_
0`
1/
#570000
0/
#572500
0^
0a
1_
1`
1/
#575000
0/
#577500
0_
0`
1/
#580000
0/
#582500
b100000000000000010110000000100111111110010011111011001000000 P"
b100000000000000010110000000100111111110010011111011001000000 Q"
b1000000000000000011001010000 t
b1000000000000000011001010000 a"
b1011 m"
b10110111001 f"
b101000 n"
b1111111111111111111111111101100100111111110010011111011001000000 R"
b1000000000000000101100101000 K"
b1000000000000000101100101000 v
b1000000000000000101100101000 J"
b1000000000000000101100101000 e
b1000000000000000101100101000 e"
b1000000000000000101100101000 x"
b10100 ="
b0 G"
b1000000000000000000000010000 @"
b1000000000000000101100101000 E"
b1000000000000000101100101000 v"
1F"
b10100 3
1^
1a
1_
1`
1/
#585000
0/
#587500
0_
0`
1/
#590000
0/
#592500
0^
0a
1_
1`
1/
#595000
0/
#597500
0_
0`
1/
#600000
0/
#602500
1\
b100 )#
1F
b1000000000000000000000010000 H
b1000000000000000000000010000 ,#
b1000000000000000000000010000 J#
1?#
b1 U#
18#
b1 G"
b1000000000000000000000010000 ,
b1000000000000000000000010000 4
b1000000000000000000000010000 ]
b1000000000000000000000010000 A"
b1000000000000000000000010000 5#
1[
0F"
b10101 ="
b10101 3
1^
1a
1_
1`
1/
#605000
0/
#607500
0_
0`
1/
#610000
0/
#612500
0^
0a
1_
1`
1/
#615000
0/
#617500
0_
0`
1/
#620000
0/
#622500
0\
b1000000000000001100100110111 2
b1000000000000001100100110111 >
b1000000000000001100100110111 (#
b10110 ="
b10110 3
b1 T#
b1 4#
0G
b100 &
b100 I
b100 1#
0%
1^
1a
1_
1`
1/
#625000
0/
#627500
0_
0`
1/
#630000
0/
#632500
0^
0a
1_
1`
1/
#635000
0/
#637500
0_
0`
1/
#640000
0/
