sim/tb_top.vcd
$date
	Mon Apr 13 20:39:16 2026
$end
$version
	Icarus Verilog
$end
$timescale
	1ps
$end
$scope module tb_top $end
$var wire 1 ! jtag_tdo $end
$var parameter 11 " DONE_WORD_ADDR $end
$var parameter 11 # RESULT_WORD_ADDR $end
$var reg 1 $ clk $end
$var reg 1 % rst_n $end
$var integer 32 & cycle_count [31:0] $end
$scope module u_dut $end
$var wire 1 $ clk $end
$var wire 32 ' jtag_req_addr [31:0] $end
$var wire 1 ( jtag_req_valid $end
$var wire 32 ) jtag_req_wdata [31:0] $end
$var wire 1 * jtag_req_wen $end
$var wire 4 + jtag_req_wmask [3:0] $end
$var wire 1 , jtag_tck $end
$var wire 1 - jtag_tdi $end
$var wire 1 ! jtag_tdo $end
$var wire 1 . jtag_tms $end
$var wire 1 / rom_req_ready $end
$var wire 1 % rst_n $end
$var wire 1 0 sram_req_ready $end
$var wire 1 1 sram_resp_valid $end
$var wire 32 2 sram_resp_rdata [31:0] $end
$var wire 4 3 sram_req_wmask [3:0] $end
$var wire 1 4 sram_req_wen $end
$var wire 32 5 sram_req_wdata [31:0] $end
$var wire 1 6 sram_req_valid $end
$var wire 32 7 sram_req_addr [31:0] $end
$var wire 1 8 rom_resp_valid $end
$var wire 32 9 rom_resp_rdata [31:0] $end
$var wire 4 : rom_req_wmask [3:0] $end
$var wire 1 ; rom_req_wen $end
$var wire 32 < rom_req_wdata [31:0] $end
$var wire 1 = rom_req_valid $end
$var wire 32 > rom_req_addr [31:0] $end
$var wire 1 ? jtag_resp_valid $end
$var wire 32 @ jtag_resp_rdata [31:0] $end
$var wire 1 A jtag_req_ready $end
$var wire 1 B core_rst_n $end
$var wire 1 C core_resp_valid $end
$var wire 32 D core_resp_rdata [31:0] $end
$var wire 4 E core_req_wmask [3:0] $end
$var wire 1 F core_req_wen $end
$var wire 32 G core_req_wdata [31:0] $end
$var wire 1 H core_req_valid $end
$var wire 1 I core_req_ready $end
$var wire 32 J core_req_addr [31:0] $end
$scope module u_core $end
$var wire 4 K alu_op [3:0] $end
$var wire 1 $ clk $end
$var wire 1 B rst_n $end
$var wire 32 L rs2_data [31:0] $end
$var wire 5 M rs2 [4:0] $end
$var wire 32 N rs1_data [31:0] $end
$var wire 5 O rs1 [4:0] $end
$var wire 1 C resp_valid $end
$var wire 32 P resp_rdata [31:0] $end
$var wire 1 I req_ready $end
$var wire 5 Q rd [4:0] $end
$var wire 7 R opcode [6:0] $end
$var wire 32 S imm_u [31:0] $end
$var wire 32 T imm_s [31:0] $end
$var wire 32 U imm_j [31:0] $end
$var wire 32 V imm_i [31:0] $end
$var wire 32 W imm_b [31:0] $end
$var wire 7 X funct7 [6:0] $end
$var wire 3 Y funct3 [2:0] $end
$var wire 32 Z dp_result [31:0] $end
$var wire 1 [ dp_ready $end
$var wire 1 \ alu_zero $end
$var wire 32 ] alu_result [31:0] $end
$var wire 32 ^ alu_b [31:0] $end
$var wire 32 _ alu_a [31:0] $end
$var parameter 4 ` ALU_ADD $end
$var parameter 4 a ALU_AND $end
$var parameter 4 b ALU_MUL $end
$var parameter 4 c ALU_MULH $end
$var parameter 4 d ALU_MULHSU $end
$var parameter 4 e ALU_MULHU $end
$var parameter 4 f ALU_OR $end
$var parameter 4 g ALU_SLL $end
$var parameter 4 h ALU_SLT $end
$var parameter 4 i ALU_SLTU $end
$var parameter 4 j ALU_SRA $end
$var parameter 4 k ALU_SRL $end
$var parameter 4 l ALU_SUB $end
$var parameter 4 m ALU_XOR $end
$var parameter 7 n OP_ARITH $end
$var parameter 7 o OP_ARITHI $end
$var parameter 7 p OP_AUIPC $end
$var parameter 7 q OP_BRANCH $end
$var parameter 7 r OP_CUSTOM0 $end
$var parameter 7 s OP_FENCE $end
$var parameter 7 t OP_JAL $end
$var parameter 7 u OP_JALR $end
$var parameter 7 v OP_LOAD $end
$var parameter 7 w OP_LUI $end
$var parameter 7 x OP_STORE $end
$var parameter 7 y OP_SYSTEM $end
$var parameter 32 z RESET_VEC $end
$var parameter 3 { S_EXECUTE $end
$var parameter 3 | S_FETCH $end
$var parameter 3 } S_FETCH_W $end
$var parameter 3 ~ S_MEM $end
$var parameter 3 !" S_MEM_W $end
$var reg 1 "" branch_taken $end
$var reg 4 #" decoded_alu_op [3:0] $end
$var reg 1 $" dp_valid $end
$var reg 32 %" instr [31:0] $end
$var reg 32 &" mcycle [31:0] $end
$var reg 32 '" mem_addr_reg [31:0] $end
$var reg 32 (" mem_result [31:0] $end
$var reg 32 )" pc [31:0] $end
$var reg 32 *" req_addr [31:0] $end
$var reg 1 H req_valid $end
$var reg 32 +" req_wdata [31:0] $end
$var reg 1 F req_wen $end
$var reg 4 ," req_wmask [3:0] $end
$var reg 5 -" rf_wr_addr [4:0] $end
$var reg 32 ." rf_wr_data [31:0] $end
$var reg 1 /" rf_wr_en $end
$var reg 3 0" state [2:0] $end
$var reg 32 1" store_data [31:0] $end
$var reg 4 2" store_mask [3:0] $end
$scope module u_alu $end
$var wire 32 3" a [31:0] $end
$var wire 32 4" a_signed [31:0] $end
$var wire 32 5" b [31:0] $end
$var wire 32 6" b_signed [31:0] $end
$var wire 4 7" op [3:0] $end
$var wire 1 \ zero $end
$var wire 5 8" shamt [4:0] $end
$var wire 64 9" mul_uu [63:0] $end
$var wire 64 :" mul_su [63:0] $end
$var wire 64 ;" mul_ss [63:0] $end
$var parameter 4 <" ALU_ADD $end
$var parameter 4 =" ALU_AND $end
$var parameter 4 >" ALU_MUL $end
$var parameter 4 ?" ALU_MULH $end
$var parameter 4 @" ALU_MULHSU $end
$var parameter 4 A" ALU_MULHU $end
$var parameter 4 B" ALU_OR $end
$var parameter 4 C" ALU_SLL $end
$var parameter 4 D" ALU_SLT $end
$var parameter 4 E" ALU_SLTU $end
$var parameter 4 F" ALU_SRA $end
$var parameter 4 G" ALU_SRL $end
$var parameter 4 H" ALU_SUB $end
$var parameter 4 I" ALU_XOR $end
$var reg 32 J" result [31:0] $end
$upscope $end
$scope module u_dp $end
$var wire 1 $ clk $end
$var wire 7 K" funct7 [6:0] $end
$var wire 1 [ ready $end
$var wire 32 L" result [31:0] $end
$var wire 1 $" valid $end
$var wire 1 B rst_n $end
$var wire 32 M" rs2_data [31:0] $end
$var wire 32 N" rs1_data [31:0] $end
$var wire 32 O" dot_sum [31:0] $end
$var wire 8 P" b3 [7:0] $end
$var wire 8 Q" b2 [7:0] $end
$var wire 8 R" b1 [7:0] $end
$var wire 8 S" b0 [7:0] $end
$var wire 8 T" a3 [7:0] $end
$var wire 8 U" a2 [7:0] $end
$var wire 8 V" a1 [7:0] $end
$var wire 8 W" a0 [7:0] $end
$var parameter 7 X" ACC_READ $end
$var parameter 7 Y" ACC_RST $end
$var parameter 7 Z" DOTPROD $end
$var reg 32 [" acc [31:0] $end
$upscope $end
$scope module u_rf $end
$var wire 1 $ clk $end
$var wire 5 \" rs1_addr [4:0] $end
$var wire 5 ]" rs2_addr [4:0] $end
$var wire 5 ^" wr_addr [4:0] $end
$var wire 32 _" wr_data [31:0] $end
$var wire 1 /" wr_en $end
$var wire 1 B rst_n $end
$var wire 32 `" rs2_data [31:0] $end
$var wire 32 a" rs1_data [31:0] $end
$upscope $end
$upscope $end
$scope module u_jtag $end
$var wire 1 $ clk $end
$var wire 1 B core_rst_n $end
$var wire 1 , jtag_tck $end
$var wire 1 - jtag_tdi $end
$var wire 1 ! jtag_tdo $end
$var wire 1 . jtag_tms $end
$var wire 32 b" req_addr [31:0] $end
$var wire 1 ( req_valid $end
$var wire 32 c" req_wdata [31:0] $end
$var wire 1 * req_wen $end
$var wire 4 d" req_wmask [3:0] $end
$var wire 1 % rst_n $end
$var wire 1 ? resp_valid $end
$var wire 32 e" resp_rdata [31:0] $end
$var wire 1 A req_ready $end
$upscope $end
$scope module u_rom $end
$var wire 1 $ clk $end
$var wire 1 / req_ready $end
$var wire 1 % rst_n $end
$var wire 8 f" wl_addr [7:0] $end
$var wire 1 = req_valid $end
$var wire 32 g" req_addr [31:0] $end
$var wire 2 h" pattern [1:0] $end
$var wire 4 i" col_addr [3:0] $end
$var reg 32 j" resp_rdata [31:0] $end
$var reg 1 8 resp_valid $end
$var reg 32 k" rom_data [31:0] $end
$upscope $end
$scope module u_sram $end
$var wire 1 $ clk $end
$var wire 1 0 req_ready $end
$var wire 1 % rst_n $end
$var wire 11 l" word_addr [10:0] $end
$var wire 4 m" req_wmask [3:0] $end
$var wire 1 4 req_wen $end
$var wire 32 n" req_wdata [31:0] $end
$var wire 1 6 req_valid $end
$var wire 32 o" req_addr [31:0] $end
$var reg 32 p" resp_rdata [31:0] $end
$var reg 1 1 resp_valid $end
$scope task load_hex $end
$var reg 2048 q" filename [2047:0] $end
$upscope $end
$upscope $end
$scope module u_xbar $end
$var wire 1 $ clk $end
$var wire 32 r" m0_req_addr [31:0] $end
$var wire 1 I m0_req_ready $end
$var wire 1 H m0_req_valid $end
$var wire 32 s" m0_req_wdata [31:0] $end
$var wire 1 F m0_req_wen $end
$var wire 4 t" m0_req_wmask [3:0] $end
$var wire 1 C m0_resp_valid $end
$var wire 1 u" m0_wants_s0 $end
$var wire 1 v" m0_wants_s1 $end
$var wire 32 w" m1_req_addr [31:0] $end
$var wire 1 A m1_req_ready $end
$var wire 1 ( m1_req_valid $end
$var wire 32 x" m1_req_wdata [31:0] $end
$var wire 1 * m1_req_wen $end
$var wire 4 y" m1_req_wmask [3:0] $end
$var wire 1 ? m1_resp_valid $end
$var wire 1 z" m1_wants_s0 $end
$var wire 1 {" m1_wants_s1 $end
$var wire 1 % rst_n $end
$var wire 1 |" s0_m0_grant $end
$var wire 1 }" s0_m1_grant $end
$var wire 1 0 s0_req_ready $end
$var wire 32 ~" s0_resp_rdata [31:0] $end
$var wire 1 1 s0_resp_valid $end
$var wire 1 !# s1_m0_grant $end
$var wire 1 "# s1_m1_grant $end
$var wire 1 / s1_req_ready $end
$var wire 32 ## s1_resp_rdata [31:0] $end
$var wire 1 8 s1_resp_valid $end
$var wire 4 $# s1_req_wmask [3:0] $end
$var wire 1 ; s1_req_wen $end
$var wire 32 %# s1_req_wdata [31:0] $end
$var wire 1 = s1_req_valid $end
$var wire 32 &# s1_req_addr [31:0] $end
$var wire 4 '# s0_req_wmask [3:0] $end
$var wire 1 4 s0_req_wen $end
$var wire 32 (# s0_req_wdata [31:0] $end
$var wire 1 6 s0_req_valid $end
$var wire 32 )# s0_req_addr [31:0] $end
$var wire 1 *# m1_sel_sram $end
$var wire 1 +# m1_sel_rom $end
$var wire 32 ,# m1_resp_rdata [31:0] $end
$var wire 1 -# m0_sel_sram $end
$var wire 1 .# m0_sel_rom $end
$var wire 32 /# m0_resp_rdata [31:0] $end
$var parameter 2 0# IDLE $end
$var parameter 2 1# M0_ACTIVE $end
$var parameter 2 2# M1_ACTIVE $end
$var reg 2 3# s0_owner [1:0] $end
$var reg 2 4# s0_owner_next [1:0] $end
$var reg 2 5# s1_owner [1:0] $end
$var reg 2 6# s1_owner_next [1:0] $end
$upscope $end
$upscope $end
$scope begin wait_done $end
$upscope $end
$scope begin watchdog $end
$upscope $end
$upscope $end
$enddefinitions $end
$comment Show the parameter values. $end
$dumpall
b10 2#
b1 1#
b0 0#
b0 Z"
b1 Y"
b10 X"
b100 I"
b1 H"
b110 G"
b111 F"
b1001 E"
b1000 D"
b101 C"
b11 B"
b1101 A"
b1100 @"
b1011 ?"
b1010 >"
b10 ="
b0 <"
b100 !"
b11 ~
b1 }
b0 |
b10 {
b1000000000000000000000000000 z
b1110011 y
b100011 x
b110111 w
b11 v
b1100111 u
b1101111 t
b1111 s
b1011 r
b1100011 q
b10111 p
b10011 o
b110011 n
b100 m
b1 l
b110 k
b111 j
b1001 i
b1000 h
b101 g
b11 f
b1101 e
b1100 d
b1011 c
b1010 b
b10 a
b0 `
b1011001000 #
b1011001010 "
$end
#0
$dumpvars
b0 6#
b0 5#
b0 4#
b0 3#
b0 /#
0.#
0-#
b0 ,#
0+#
0*#
b0 )#
b0 (#
b0 '#
b0 &#
b0 %#
b0 $#
b0 ##
0"#
0!#
b0 ~"
0}"
0|"
0{"
0z"
b0 y"
b0 x"
b0 w"
0v"
0u"
b0 t"
b0 s"
b0 r"
bx q"
b0 p"
b0 o"
b0 n"
b0 m"
b0 l"
b0 k"
b0 j"
b0 i"
b0 h"
b0 g"
b0 f"
b0 e"
b0 d"
b0 c"
b0 b"
b0 a"
b0 `"
b0 _"
b0 ^"
b0 ]"
b0 \"
b0 ["
b0 W"
b0 V"
b0 U"
b0 T"
b0 S"
b0 R"
b0 Q"
b0 P"
b0 O"
b0 N"
b0 M"
b0 L"
b0 K"
b0 J"
b0 ;"
b0 :"
b0 9"
b0 8"
b0 7"
b0 6"
b0 5"
b0 4"
b0 3"
b1 2"
b0 1"
b0 0"
0/"
b0 ."
b0 -"
b0 ,"
b0 +"
b0 *"
b1000000000000000000000000000 )"
b0 ("
b0 '"
b0 &"
b10011 %"
0$"
b0 #"
1""
b0 _
b0 ^
b0 ]
1\
0[
b0 Z
b0 Y
b0 X
b0 W
b0 V
b0 U
b0 T
b0 S
b10011 R
b0 Q
b0 P
b0 O
b0 N
b0 M
b0 L
b0 K
b0 J
0I
0H
b0 G
0F
b0 E
b0 D
0C
0B
0A
b0 @
0?
b0 >
0=
b0 <
0;
b0 :
b0 9
08
b0 7
06
b0 5
04
b0 3
b0 2
01
10
1/
0.
0-
0,
b0 +
0*
b0 )
0(
b0 '
b0 &
0%
0$
0!
$end
#10000
1$
#20000
0$
#30000
1$
#40000
0$
#50000
1$
#60000
0$
#70000
1$
#80000
0$
#90000
1$
#100000
0$
1B
1%
#110000
1I
16
b1000000000000000000000000000 7
b1000000000000000000000000000 o"
b1000000000000000000000000000 )#
1|"
b1 4#
1u"
1-#
b1 &"
b1 0"
b1000000000000000000000000000 J
b1000000000000000000000000000 *"
b1000000000000000000000000000 r"
1H
b1 &
1$
#120000
0$
#130000
b11111111111111111111111110110111 ("
1C
b1000000000000001001010110111 D
b1000000000000001001010110111 P
b1000000000000001001010110111 /#
b0 4#
b10 &"
b10 &
b1000000000000001001010110111 2
b1000000000000001001010110111 p"
b1000000000000001001010110111 ~"
11
b1 3#
1$
#140000
0$
#150000
0I
0\
b10000000 ]
b10000000 J"
0C
b0 D
b0 P
b0 /#
b10000000 6"
b10000000 ^
b10000000 5"
b0 7
b0 o"
b0 )#
b100010000100 W
b1000010000000 U
0|"
b11 2"
b0 ("
0""
b10000000 V
b10000101 T
b1000000000000001000000000000 S
06
b110111 R
b101 Q
b1 Y
b100 X
b100 K"
0u"
b0 4#
b11 &"
b10 0"
b1000000000000001001010110111 %"
0H
b11 &
b0 3#
1$
#160000
0$
#170000
b0 0"
b1000000000000000000000000100 )"
b1000000000000001000000000000 ."
b1000000000000001000000000000 _"
b101 -"
b101 ^"
1/"
b100 &"
b100 &
01
1$
#180000
0$
#190000
1I
b1 l"
16
b1000000000000000000000000100 7
b1000000000000000000000000100 o"
b1000000000000000000000000100 )#
1|"
b1 4#
1u"
b101 &"
b1 0"
b1000000000000000000000000100 J
b1000000000000000000000000100 *"
b1000000000000000000000000100 r"
1H
0/"
b101 &
1$
#200000
0$
#210000
b11111111111111111000001010010011 ("
1C
b10110010000000101000001010010011 D
b10110010000000101000001010010011 P
b10110010000000101000001010010011 /#
b0 4#
b110 &"
b110 &
b10110010000000101000001010010011 2
b10110010000000101000001010010011 p"
b10110010000000101000001010010011 ~"
11
b1 3#
1$
#220000
0$
#230000
0I
b100000000000000011111101100011111111101100100000000000000000 9"
0C
b0 D
b0 P
b0 /#
b0 l"
b100000000000000011111101100011111111101100100000000000000000 :"
0\
b1000000000000000101100100000 ]
b1000000000000000101100100000 J"
b11111111111111111111101100100000 6"
b11111111111111111111101100100000 ^
b11111111111111111111101100100000 5"
b0 7
b0 o"
b0 )#
b1000 T"
b0 U"
b10000 V"
b0 O"
b0 W"
b1111111111111111111111111101100011111111101100100000000000000000 ;"
b1000000000000001000000000000 4"
b1000000000000001000000000000 _
b1000000000000001000000000000 3"
b11111111111111111111101100100100 W
b11111111111100101000001100100000 U
0|"
b1 2"
b0 ("
0""
b1000000000000001000000000000 N
b1000000000000001000000000000 N"
b1000000000000001000000000000 a"
b11111111111111111111101100100000 V
b11111111111111111111101100100101 T
b10110010000000101000000000000000 S
06
b10011 R
b0 Y
b101 O
b101 \"
b1011001 X
b1011001 K"
0u"
b0 4#
b111 &"
b10 0"
b10110010000000101000001010010011 %"
0H
b111 &
b0 3#
1$
#240000
0$
#250000
b100000000000000010101111100011111111110010011100010000000000 9"
b100000000000000010101111100011111111110010011100010000000000 :"
b1000000000000000011001000000 ]
b1000000000000000011001000000 J"
b1011 V"
b100000 W"
b1111111111111111111111111101100011111111110010011100010000000000 ;"
b1000000000000000101100100000 4"
b1000000000000000101100100000 _
b1000000000000000101100100000 3"
b1000000000000000101100100000 N
b1000000000000000101100100000 N"
b1000000000000000101100100000 a"
b0 0"
b1000000000000000000000001000 )"
b1000000000000000101100100000 ."
b1000000000000000101100100000 _"
1/"
b1000 &"
b1000 &
01
1$
#260000
0$
#270000
1I
b10 l"
16
b1000000000000000000000001000 7
b1000000000000000000000001000 o"
b1000000000000000000000001000 )#
1|"
b1 4#
1u"
b1001 &"
b1 0"
b1000000000000000000000001000 J
b1000000000000000000000001000 *"
b1000000000000000000000001000 r"
1H
0/"
b1001 &
1$
#280000
0$
#290000
b110111 ("
1C
b1000000000000001001100110111 D
b1000000000000001001100110111 P
b1000000000000001001100110111 /#
b0 4#
b1010 &"
b1010 &
b1000000000000001001100110111 2
b1000000000000001001100110111 p"
b1000000000000001001100110111 ~"
11
b1 3#
1$
#300000
0$
#310000
0I
b0 9"
0C
b0 D
b0 P
b0 /#
b0 l"
b0 :"
b10000000 ]
b10000000 J"
b10000000 6"
b10000000 ^
b10000000 5"
b0 7
b0 o"
b0 )#
b0 T"
b0 V"
b0 W"
b0 ;"
b0 4"
b0 _
b0 3"
b10000110 W
b1000010000000 U
0|"
b11 2"
b0 ("
b0 N
b0 N"
b0 a"
b10000000 V
b10000110 T
b1000000000000001000000000000 S
06
b110111 R
b110 Q
b1 Y
b0 O
b0 \"
b100 X
b100 K"
0u"
b0 4#
b1011 &"
b10 0"
b1000000000000001001100110111 %"
0H
b1011 &
b0 3#
1$
#320000
0$
#330000
b0 0"
b1000000000000000000000001100 )"
b1000000000000001000000000000 ."
b1000000000000001000000000000 _"
b110 -"
b110 ^"
1/"
b1100 &"
b1100 &
01
1$
#340000
0$
#350000
1I
b11 l"
16
b1000000000000000000000001100 7
b1000000000000000000000001100 o"
b1000000000000000000000001100 )#
1|"
b1 4#
1u"
b1101 &"
b1 0"
b1000000000000000000000001100 J
b1000000000000000000000001100 *"
b1000000000000000000000001100 r"
1H
0/"
b1101 &
1$
#360000
0$
#370000
b1100010011 ("
1C
b10110010100000110000001100010011 D
b10110010100000110000001100010011 P
b10110010100000110000001100010011 /#
b0 4#
b1110 &"
b1110 &
b10110010100000110000001100010011 2
b10110010100000110000001100010011 p"
b10110010100000110000001100010011 ~"
11
b1 3#
1$
#380000
0$
#390000
0I
b100000000000000011111101100100111111101100101000000000000000 9"
b1000 8"
0C
b0 D
b0 P
b0 /#
b0 l"
b100000000000000011111101100100111111101100101000000000000000 :"
0\
b1000000000000000101100101000 ]
b1000000000000000101100101000 J"
b11111111111111111111101100101000 6"
b11111111111111111111101100101000 ^
b11111111111111111111101100101000 5"
b0 7
b0 o"
b0 )#
b1000 T"
b0 U"
b10000 V"
b0 W"
b1111111111111111111111111101100100111111101100101000000000000000 ;"
b1000000000000001000000000000 4"
b1000000000000001000000000000 _
b1000000000000001000000000000 3"
bx P"
bx Q"
bx R"
bx O"
bx S"
b11111111111111111111001100100110 W
b11111111111100110000001100101000 U
0|"
b1 2"
b0xxxxxxxx 1"
b0 ("
x""
b1000000000000001000000000000 N
b1000000000000001000000000000 N"
b1000000000000001000000000000 a"
bx L
bx M"
bx `"
b11111111111111111111101100101000 V
b11111111111111111111101100100110 T
b10110010100000110000000000000000 S
06
b10011 R
b0 Y
b110 O
b110 \"
b1000 M
b1000 ]"
b1011001 X
b1011001 K"
0u"
b0 4#
b1111 &"
b10 0"
b10110010100000110000001100010011 %"
0H
b1111 &
b0 3#
1$
#400000
0$
#410000
b100000000000000010110000000100111111110010011111011001000000 9"
b100000000000000010110000000100111111110010011111011001000000 :"
b1000000000000000011001010000 ]
b1000000000000000011001010000 J"
b1011 V"
b101000 W"
b1111111111111111111111111101100100111111110010011111011001000000 ;"
b1000000000000000101100101000 4"
b1000000000000000101100101000 _
b1000000000000000101100101000 3"
b1000000000000000101100101000 N
b1000000000000000101100101000 N"
b1000000000000000101100101000 a"
b0 0"
b1000000000000000000000010000 )"
b1000000000000000101100101000 ."
b1000000000000000101100101000 _"
1/"
b10000 &"
b10000 &
01
1$
#420000
0$
#430000
1I
b100 l"
16
b1000000000000000000000010000 7
b1000000000000000000000010000 o"
b1000000000000000000000010000 )#
1|"
b1 4#
1u"
b10001 &"
b1 0"
b1000000000000000000000010000 J
b1000000000000000000000010000 *"
b1000000000000000000000010000 r"
1H
0/"
b10001 &
1$
#440000
0$
#450000
b11111111111111111111111110110111 ("
1C
b100000000000000000001110110111 D
b100000000000000000001110110111 P
b100000000000000000001110110111 /#
b0 4#
b10010 &"
b10010 &
b100000000000000000001110110111 2
b100000000000000000001110110111 p"
b100000000000000000001110110111 ~"
11
b1 3#
1$
#460000
0$
#470000
b0 ("
0I
b0 9"
b0 8"
0C
b0 D
b0 P
b0 /#
b0 l"
b0 :"
b1000000000 ]
b1000000000 J"
b1000000000 6"
b1000000000 ^
b1000000000 5"
b0 7
b0 o"
b0 )#
b0 T"
b0 V"
b0 W"
b0 ;"
b0 4"
b0 _
b0 3"
b0 O"
b0 P"
b0 Q"
b0 R"
b0 S"
1""
b0 1"
b101000000110 W
b1000000000 U
0|"
b0 N
b0 N"
b0 a"
b0 L
b0 M"
b0 `"
b1000000000 V
b1000000111 T
b100000000000000000000000000000 S
06
b110111 R
b111 Q
b0 O
b0 \"
b0 M
b0 ]"
b10000 X
b10000 K"
0u"
b0 4#
b10011 &"
b10 0"
b100000000000000000001110110111 %"
0H
b10011 &
b0 3#
1$
#480000
0$
#490000
b0 0"
b1000000000000000000000010100 )"
b100000000000000000000000000000 ."
b100000000000000000000000000000 _"
b111 -"
b111 ^"
1/"
b10100 &"
b10100 &
01
1$
#500000
0$
#510000
1I
b101 l"
16
b1000000000000000000000010100 7
b1000000000000000000000010100 o"
b1000000000000000000000010100 )#
1|"
b1 4#
1u"
b10101 &"
b1 0"
b1000000000000000000000010100 J
b1000000000000000000000010100 *"
b1000000000000000000000010100 r"
1H
0/"
b10101 &
1$
#520000
0$
#530000
b11 ("
1C
b111010111000000011 D
b111010111000000011 P
b111010111000000011 /#
b0 4#
b10110 &"
b10110 &
b111010111000000011 2
b111010111000000011 p"
b111010111000000011 ~"
11
b1 3#
1$
#540000
0$
#550000
0I
b0 9"
0C
b0 D
b0 P
b0 /#
b0 l"
b0 :"
0\
b100000000000000000000000000000 ]
b100000000000000000000000000000 J"
b0 6"
b0 ^
b0 5"
b0 7
b0 o"
b0 )#
b100000 T"
b0 U"
b0 V"
b0 O"
b0 W"
b0 ;"
b100000000000000000000000000000 4"
b100000000000000000000000000000 _
b100000000000000000000000000000 3"
b11100 W
b111010000000000000 U
0|"
b1111 2"
b0 ("
0""
b100000000000000000000000000000 N
b100000000000000000000000000000 N"
b100000000000000000000000000000 a"
b0 V
b11100 T
b111010000000000000 S
06
b11 R
b11100 Q
b10 Y
b111 O
b111 \"
b0 X
b0 K"
0u"
b0 4#
b10111 &"
b10 0"
b111010111000000011 %"
0H
b10111 &
b0 3#
1$
#560000
0$
#570000
b11 0"
b100000000000000000000000000000 '"
b11000 &"
b11000 &
01
1$
#580000
0$
#590000
1I
1=
b100000000000000000000000000000 >
b100000000000000000000000000000 g"
b100000000000000000000000000000 &#
1!#
b0 7
b0 o"
b0 )#
b1 6#
0|"
1v"
b0 4#
0-#
1.#
0u"
b11001 &"
b100 0"
b100000000000000000000000000000 J
b100000000000000000000000000000 *"
b100000000000000000000000000000 r"
1H
b11001 &
1$
#600000
0$
#610000
1C
b0 6#
b11010 &"
b11010 &
18
b1 5#
1$
#620000
0$
#630000
0I
0C
b0 >
b0 g"
b0 &#
0!#
0=
0v"
b0 6#
b11011 &"
b0 0"
b1000000000000000000000011000 )"
b0 ."
b0 _"
b11100 -"
b11100 ^"
1/"
0H
b11011 &
b0 5#
1$
#640000
0$
#650000
1I
b0 k"
b110 l"
b0 h"
16
b1000000000000000000000011000 7
b1000000000000000000000011000 o"
b1000000000000000000000011000 )#
b0 f"
1|"
b0 >
b0 g"
b0 &#
b1 4#
0!#
1u"
b0 6#
1-#
0.#
0v"
b1 0"
b1000000000000000000000011000 J
b1000000000000000000000011000 *"
b1000000000000000000000011000 r"
1H
0/"
b11100 &"
b11100 &
08
1$
#660000
0$
#670000
b100000011100001011001100011 ("
1C
b100000011100001011001100011 D
b100000011100001011001100011 P
b100000011100001011001100011 /#
b0 4#
b11101 &"
b11101 &
b1 3#
b100000011100001011001100011 2
b100000011100001011001100011 p"
b100000011100001011001100011 ~"
11
1$
#680000
0$
#690000
1\
b0 ]
b0 J"
0I
b0 T"
b0 4"
b0 _
b0 3"
0C
b0 D
b0 P
b0 /#
b0 l"
b0 N
b0 N"
b0 a"
b0 7
b0 o"
b0 )#
b1001100 W
b11100001000001000000 U
0|"
b11 2"
b0 ("
0""
b1000000 V
b1001100 T
b100000011100001000000000000 S
06
b1100011 R
b1100 Q
b1 Y
b11100 O
b11100 \"
b10 X
b10 K"
0u"
b0 4#
b10 0"
b100000011100001011001100011 %"
0H
b11110 &"
b11110 &
b0 3#
1$
#700000
0$
#710000
b11111 &"
b0 0"
b1000000000000000000000011100 )"
b11111 &
01
1$
#720000
0$
#730000
1I
b111 l"
16
b1000000000000000000000011100 7
b1000000000000000000000011100 o"
b1000000000000000000000011100 )#
1|"
b1 4#
1u"
b1 0"
b1000000000000000000000011100 J
b1000000000000000000000011100 *"
b1000000000000000000000011100 r"
1H
b100000 &"
b100000 &
1$
#740000
0$
#750000
b11111111111111111010111000000011 ("
1C
b10000111010111000000011 D
b10000111010111000000011 P
b10000111010111000000011 /#
b0 4#
b100001 &"
b100001 &
b1 3#
b10000111010111000000011 2
b10000111010111000000011 p"
b10000111010111000000011 ~"
11
1$
#760000
0$
#770000
b10000000000000000000000000000000 9"
b10000000000000000000000000000000 :"
0I
b100000 T"
b10000000000000000000000000000000 ;"
b100000000000000000000000000000 4"
b100000000000000000000000000000 _
b100000000000000000000000000000 3"
0C
b0 D
b0 P
b0 /#
b0 l"
b100000000000000000000000000000 N
b100000000000000000000000000000 N"
b100000000000000000000000000000 a"
0\
b100000000000000000000000000100 ]
b100000000000000000000000000100 J"
b100 8"
b0 7
b0 o"
b0 )#
bx P"
bx Q"
bx R"
bx O"
bx S"
b100 6"
b100 ^
b100 5"
b11100 W
b111010000000000100 U
0|"
b1111 2"
bx 1"
b0 ("
bx L
bx M"
bx `"
b100 V
b11100 T
b10000111010000000000000 S
06
b11 R
b11100 Q
b10 Y
b111 O
b111 \"
b100 M
b100 ]"
b0 X
b0 K"
0u"
b0 4#
b10 0"
b10000111010111000000011 %"
0H
b100010 &"
b100010 &
b0 3#
1$
#780000
0$
#790000
b100011 &"
b11 0"
b100000000000000000000000000100 '"
b100011 &
01
1$
#800000
0$
#810000
b1010101010101010101010101010101 k"
1I
b1 h"
b1 f"
1=
b100000000000000000000000000100 >
b100000000000000000000000000100 g"
b100000000000000000000000000100 &#
b0 l"
1!#
b0 7
b0 o"
b0 )#
b1 6#
0|"
1v"
b0 4#
0-#
1.#
0u"
b100 0"
b100000000000000000000000000100 J
b100000000000000000000000000100 *"
b100000000000000000000000000100 r"
1H
b100100 &"
b100100 &
1$
#820000
0$
#830000
b1010101010101010101010101010101 ("
b1010101010101010101010101010101 D
b1010101010101010101010101010101 P
b1010101010101010101010101010101 /#
1C
b0 6#
b100101 &"
b100101 &
b1 5#
b1010101010101010101010101010101 9
b1010101010101010101010101010101 j"
b1010101010101010101010101010101 ##
18
1$
#840000
0$
#850000
b0 ("
b0 k"
b0 D
b0 P
b0 /#
0I
b0 h"
0C
b0 f"
b0 >
b0 g"
b0 &#
0!#
0=
0v"
b0 6#
b0 0"
b1000000000000000000000100000 )"
b1010101010101010101010101010101 ."
b1010101010101010101010101010101 _"
1/"
0H
b100110 &"
b100110 &
b0 5#
1$
#860000
0$
#870000
1I
b1000 l"
16
b1000000000000000000000100000 7
b1000000000000000000000100000 o"
b1000000000000000000000100000 )#
b0 f"
1|"
b0 >
b0 g"
b0 &#
b1 4#
0!#
1u"
b0 6#
1-#
0.#
0v"
b100111 &"
b1 0"
b1000000000000000000000100000 J
b1000000000000000000000100000 *"
b1000000000000000000000100000 r"
1H
0/"
b100111 &
08
1$
#880000
0$
#890000
b1010101010101010110111010110111 ("
1C
b1010101010101010110111010110111 D
b1010101010101010110111010110111 P
b1010101010101010110111010110111 /#
b0 4#
b101000 &"
b101000 &
b1010101010101010110111010110111 2
b1010101010101010110111010110111 p"
b1010101010101010110111010110111 ~"
11
b1 3#
1$
#900000
0$
